<?xml version="1.0" encoding="UTF-8" standalone="no"?>
<svg
   sodipodi:docname="site.svg"
   inkscape:version="1.2.2 (732a01da63, 2022-12-09)"
   id="svg-container"
   version="1.1"
   viewBox="0 0 253.69359 150.92339"
   height="570.41913"
   width="958.84192"
   xmlns:inkscape="http://www.inkscape.org/namespaces/inkscape"
   xmlns:sodipodi="http://sodipodi.sourceforge.net/DTD/sodipodi-0.dtd"
   xmlns="http://www.w3.org/2000/svg"
   xmlns:svg="http://www.w3.org/2000/svg"
   xmlns:rdf="http://www.w3.org/1999/02/22-rdf-syntax-ns#"
   xmlns:cc="http://creativecommons.org/ns#"
   xmlns:dc="http://purl.org/dc/elements/1.1/">
  <defs
     id="defs2" />
  <sodipodi:namedview
     inkscape:pagecheckerboard="0"
     units="px"
     fit-margin-right="10"
     fit-margin-left="10"
     fit-margin-top="10"
     fit-margin-bottom="10"
     inkscape:window-maximized="1"
     inkscape:window-y="-8"
     inkscape:window-x="0"
     inkscape:window-height="1057"
     inkscape:window-width="1920"
     showgrid="false"
     inkscape:document-rotation="0"
     inkscape:current-layer="g619-9-3"
     inkscape:document-units="mm"
     inkscape:cy="154.37389"
     inkscape:cx="718.83626"
     inkscape:zoom="0.95223355"
     inkscape:pageshadow="2"
     inkscape:pageopacity="0.0"
     borderopacity="1.0"
     bordercolor="#666666"
     pagecolor="#ffffff"
     id="base"
     inkscape:showpageshadow="2"
     inkscape:deskcolor="#d1d1d1" />
  <metadata
     id="metadata5">
    <rdf:RDF>
      <cc:Work
         rdf:about="">
        <dc:format>image/svg+xml</dc:format>
        <dc:type
           rdf:resource="http://purl.org/dc/dcmitype/StillImage" />
        <dc:title />
      </cc:Work>
    </rdf:RDF>
  </metadata>
  <g
     transform="translate(-47.673226,53.061522)"
     style="display:inline"
     inkscape:label="track"
     id="layer2"
     inkscape:groupmode="layer" />
  <g
     inkscape:groupmode="layer"
     id="layer6"
     inkscape:label="Route"
     style="display:inline;stroke-width:14.2848"
     transform="matrix(0.26458333,0,0,0.26458333,-33.991995,-437.65802)">
    <g
       id="g4446"
       transform="matrix(3.7795276,0,0,3.7795276,22.93965,908.8918)"
       shvPath="devices/zone/1"
       shvVisuType="zoneStatusText"
       style="display:inline;stroke-width:14.2848">
      <text
         xml:space="preserve"
         style="font-style:normal;font-variant:normal;font-weight:normal;font-stretch:normal;font-size:4.37095px;line-height:1.25;font-family:sans-serif;font-variant-ligatures:normal;font-variant-position:normal;font-variant-caps:normal;font-variant-numeric:normal;font-variant-alternates:normal;font-feature-settings:normal;text-indent:0;text-align:start;text-decoration:none;text-decoration-line:none;text-decoration-style:solid;text-decoration-color:#000000;letter-spacing:normal;word-spacing:normal;text-transform:none;writing-mode:lr-tb;direction:ltr;text-orientation:mixed;dominant-baseline:auto;baseline-shift:baseline;text-anchor:start;white-space:normal;shape-padding:0;opacity:1;vector-effect:none;fill:#4d4d4d;fill-opacity:1;stroke:none;stroke-width:0.301466;stroke-linecap:butt;stroke-linejoin:miter;stroke-miterlimit:4;stroke-dasharray:none;stroke-dashoffset:0;stroke-opacity:1"
         x="64.806824"
         y="203.02621"
         id="text164-4"><tspan
           sodipodi:role="line"
           id="tspan162-9"
           x="64.806824"
           y="203.02621"
           style="stroke-width:0.301466">Zone state:</tspan></text>
      <text
         xml:space="preserve"
         style="font-style:normal;font-variant:normal;font-weight:bold;font-stretch:normal;font-size:4.23333px;line-height:1.25;font-family:sans-serif;-inkscape-font-specification:'sans-serif Bold';letter-spacing:0px;word-spacing:0px;fill:#000000;fill-opacity:1;stroke:none;stroke-width:0.264583"
         x="64.614571"
         y="207.89192"
         id="text164-3-5"><tspan
           sodipodi:role="line"
           id="tspan162-6-7"
           x="64.614571"
           y="207.89192"
           chid="statusText"
           style="stroke-width:0.264583"
           shvAlarmPosition="left">Undefined</tspan></text>
    </g>
    <path
       id="path913-8"
       d="M 617.89977,1819.4597 H 1070.7112"
       inkscape:connector-curvature="0"
       style="display:inline;fill:#000000;fill-opacity:1;stroke:#6e6e6e;stroke-width:9.70205;stroke-linecap:round;stroke-miterlimit:4;stroke-dasharray:none"
       sodipodi:nodetypes="cc" />
    <path
       sodipodi:nodetypes="cc"
       style="display:inline;fill:none;stroke:#6e6e6e;stroke-width:9.70205;stroke-linecap:round;stroke-miterlimit:4;stroke-dasharray:none"
       inkscape:connector-curvature="0"
       d="M 327.28392,2111.2192 617.89977,1819.4597"
       id="path913-3-0" />
    <path
       id="path913-3-2-9"
       d="M 143.32471,1819.4593 H 617.89977"
       inkscape:connector-curvature="0"
       style="display:inline;fill:none;stroke:#6e6e6e;stroke-width:9.70205;stroke-linecap:round;stroke-miterlimit:4;stroke-dasharray:none"
       sodipodi:nodetypes="cc" />
    <path
       sodipodi:nodetypes="cc"
       style="display:inline;fill:none;stroke:#6e6e6e;stroke-width:9.70205;stroke-linecap:round;stroke-miterlimit:4;stroke-dasharray:none"
       inkscape:connector-curvature="0"
       d="m 449.71807,1988.2823 v 0"
       id="path913-5-1" />
    <path
       sodipodi:nodetypes="cc"
       style="display:inline;fill:#000000;fill-opacity:1;stroke:#6e6e6e;stroke-width:9.70205;stroke-linecap:round;stroke-miterlimit:4;stroke-dasharray:none"
       inkscape:connector-curvature="0"
       d="M 143.32471,1939.4598 H 1070.7112"
       id="path913-1-8" />
    <g
       transform="matrix(1,0,0,-1,89.828013,2577.0529)"
       id="g1247-3"
       style="display:inline">
      <g
         id="g1238-3">
        <path
           d="m 671.77132,617.23734 v 39.13043 h -26.66231 v -39.13043 z"
           id="path1165-4"
           inkscape:connector-curvature="0"
           style="fill:#121ea6;fill-opacity:0.44758;stroke:#000000;stroke-width:1.1394"
           chid="box" />
      </g>
      <text
         x="614.66608"
         y="-573.69244"
         font-size="3.1059px"
         style="font-style:normal;font-variant:normal;font-weight:normal;font-stretch:normal;font-size:16px;line-height:1.25;font-family:sans-serif;-inkscape-font-specification:'sans-serif, Normal';font-variant-ligatures:normal;font-variant-caps:normal;font-variant-numeric:normal;font-variant-east-asian:normal;fill:#000000;stroke-width:1.1394"
         xml:space="preserve"
         id="text1191-7-3-6-7-4"
         transform="scale(1,-1)"><tspan
           style="font-style:normal;font-variant:normal;font-weight:normal;font-stretch:normal;font-size:16px;font-family:sans-serif;-inkscape-font-specification:'sans-serif, Normal';font-variant-ligatures:normal;font-variant-caps:normal;font-variant-numeric:normal;font-variant-east-asian:normal;stroke-width:1.1394"
           x="614.66608"
           y="-573.69244"
           id="tspan1189-5-1-1-5-9"
           shvAlarmPosition="right">TSM1</tspan></text>
    </g>
    <g
       style="display:inline"
       transform="rotate(180,657.88353,1547.429)"
       shvPath="devices/heating/HEATING/contactor/CONTACTOR/rod/TSM1_HRR"
       id="g2617-3-5-7">
      <path
         chid="rod"
         id="path1133-8-20-0"
         d="m 554.16853,1178.1722 v 3.913 h 58.6956 v -3.913 z"
         inkscape:connector-curvature="0"
         style="fill:none;stroke:#000000;stroke-width:1.03531" />
      <text
         x="-614.93073"
         y="-1190.5825"
         font-size="3.1059px"
         style="font-style:normal;font-variant:normal;font-weight:normal;font-stretch:normal;font-size:16px;line-height:1.25;font-family:sans-serif;-inkscape-font-specification:'sans-serif, Normal';font-variant-ligatures:normal;font-variant-caps:normal;font-variant-numeric:normal;font-variant-east-asian:normal;fill:#000000;stroke-width:1.1394"
         xml:space="preserve"
         id="text1191-7-3-6-9-6-7-8"
         transform="scale(-1)"><tspan
           style="font-style:normal;font-variant:normal;font-weight:normal;font-stretch:normal;font-size:16px;font-family:sans-serif;-inkscape-font-specification:'sans-serif, Normal';font-variant-ligatures:normal;font-variant-caps:normal;font-variant-numeric:normal;font-variant-east-asian:normal;stroke-width:1.1394"
           x="-614.93073"
           y="-1190.5825"
           id="tspan1189-5-1-1-2-6-9-9"
           shvAlarmPosition="right">TSM1_HR_R</tspan></text>
    </g>
    <g
       id="g2617-3-7-5-3"
       shvPath="devices/heating/HEATING/contactor/CONTACTOR/rod/TSM1_HRL"
       transform="rotate(180,657.88353,1520.0475)"
       style="display:inline">
      <path
         style="fill:none;stroke:#000000;stroke-width:1.03531"
         inkscape:connector-curvature="0"
         d="m 554.16853,1072.3659 v 3.913 h 58.6956 v -3.913 z"
         id="path1133-8-2-3-5"
         chid="rod" />
      <text
         id="text1191-7-3-6-9-6-6-9-6"
         xml:space="preserve"
         style="font-style:normal;font-variant:normal;font-weight:normal;font-stretch:normal;font-size:16px;line-height:1.25;font-family:sans-serif;-inkscape-font-specification:'sans-serif, Normal';font-variant-ligatures:normal;font-variant-caps:normal;font-variant-numeric:normal;font-variant-east-asian:normal;fill:#000000;stroke-width:1.1394"
         font-size="3.1059px"
         y="-1056.3962"
         x="-611.27448"
         transform="scale(-1)"><tspan
           shvAlarmPosition="right"
           id="tspan1189-5-1-1-2-6-7-7-8"
           y="-1056.3962"
           x="-611.27448"
           style="font-style:normal;font-variant:normal;font-weight:normal;font-stretch:normal;font-size:16px;font-family:sans-serif;-inkscape-font-specification:'sans-serif, Normal';font-variant-ligatures:normal;font-variant-caps:normal;font-variant-numeric:normal;font-variant-east-asian:normal;stroke-width:1.1394">TSM1_HR_L</tspan></text>
    </g>
    <path
       id="path913-3-2-2-6-3"
       d="m 698.07259,1939.9037 -270.29918,269.805"
       inkscape:connector-curvature="0"
       style="display:inline;fill:none;stroke:#6e6e6e;stroke-width:9.70205;stroke-linecap:round;stroke-miterlimit:4;stroke-dasharray:none"
       sodipodi:nodetypes="cc" />
    <g
       style="display:inline;stroke-width:3.77953"
       transform="translate(-546.52263,-490.6541)"
       shvPath="devices/zone/1/route/R1"
       id="g2169-5-9-66">
      <path
         chid="route"
         id="path855-8-2-8"
         d="M 1448.1658,2310.1145 H 1164.4225 L 885.80667,2589.8733"
         inkscape:connector-curvature="0"
         style="fill:none;stroke:#ffbb33;stroke-width:20.0001;stroke-linecap:round"
         sodipodi:nodetypes="ccc" />
      <text
         x="1457.2634"
         y="2276.3982"
         font-size="3.1059px"
         style="font-style:normal;font-variant:normal;font-weight:normal;font-stretch:normal;font-size:16px;line-height:1.25;font-family:sans-serif;-inkscape-font-specification:'sans-serif, Normal';font-variant-ligatures:normal;font-variant-caps:normal;font-variant-numeric:normal;font-variant-east-asian:normal;fill:#000000;stroke-width:1.1394"
         xml:space="preserve"
         id="text1191-97-4-0-5"><tspan
           style="font-style:normal;font-variant:normal;font-weight:normal;font-stretch:normal;font-size:16px;font-family:sans-serif;-inkscape-font-specification:'sans-serif, Normal';font-variant-ligatures:normal;font-variant-caps:normal;font-variant-numeric:normal;font-variant-east-asian:normal;stroke-width:1.1394"
           x="1457.2634"
           y="2276.3982"
           id="tspan1189-3-0-3"
           shvAlarmPosition="right">R1</tspan></text>
    </g>
    <g
       transform="matrix(-1,0,0,1,1484.1845,1553.1559)"
       shvVisuType="Gate"
       shvPath="devices/gate/G1"
       id="g1575-7-0-5"
       style="display:inline;stroke-width:14.2848">
      <text
         transform="scale(-1,1)"
         id="text955-36-4-2-4"
         xml:space="preserve"
         style="font-size:12.1535px;line-height:1.25;font-family:sans-serif;font-variant-ligatures:normal;font-variant-caps:normal;font-variant-numeric:normal;fill:#000000;stroke-width:1.1394"
         font-size="3.1059px"
         y="303.42236"
         x="-568.01581"><tspan
           shvAlarmPosition="right"
           id="tspan953-75-4-8-8"
           style="font-size:16px;font-family:sans-serif;font-variant-ligatures:normal;font-variant-caps:normal;font-variant-numeric:normal;stroke-width:1.1394"
           font-size="3.1059px"
           y="303.42236"
           x="-568.01581">G1</tspan></text>
      <path
         chid="gate"
         inkscape:connector-curvature="0"
         d="m 559.1259,286.72544 10.55367,-0.008 -0.0337,-42.22954 -10.5537,0.008"
         style="display:inline;fill:none;stroke:#cc0033;stroke-width:3.895;stroke-miterlimit:4;stroke-dasharray:none"
         id="path614-1-6-9" />
    </g>
    <g
       id="g2169-5-9-6-7"
       shvPath="devices/zone/1/route/R2"
       transform="translate(-243.62713,-448.0529)"
       style="display:inline;stroke-width:3.77953">
      <path
         sodipodi:nodetypes="ccc"
         style="fill:none;stroke:#ffbb33;stroke-width:20.0001;stroke-linecap:round"
         inkscape:connector-curvature="0"
         d="M 1145.2703,2267.5132 H 861.42283 402.84768"
         id="path855-8-2-5-6"
         chid="route" />
      <text
         id="text1191-97-4-0-7-4"
         xml:space="preserve"
         style="font-style:normal;font-variant:normal;font-weight:normal;font-stretch:normal;font-size:16px;line-height:1.25;font-family:sans-serif;-inkscape-font-specification:'sans-serif, Normal';font-variant-ligatures:normal;font-variant-caps:normal;font-variant-numeric:normal;font-variant-east-asian:normal;fill:#000000;stroke-width:1.1394"
         font-size="3.1059px"
         y="2212.2354"
         x="1154.7173"><tspan
           shvAlarmPosition="right"
           id="tspan1189-3-0-4-9"
           y="2212.2354"
           x="1154.7173"
           style="font-style:normal;font-variant:normal;font-weight:normal;font-stretch:normal;font-size:16px;font-family:sans-serif;-inkscape-font-specification:'sans-serif, Normal';font-variant-ligatures:normal;font-variant-caps:normal;font-variant-numeric:normal;font-variant-east-asian:normal;stroke-width:1.1394">R2</tspan></text>
    </g>
    <path
       chid="direction"
       id="path1177-3-7"
       style="display:inline;fill:#6e6e6e;fill-opacity:1;stroke:#6e6e6e;stroke-width:1.5;stroke-linecap:round;stroke-linejoin:round;stroke-miterlimit:4;stroke-dasharray:none;stroke-opacity:1;paint-order:normal"
       d="m 1023.9533,1803.4598 7.3883,-2.0839 v 4.0531 l -7.3897,-1.9692 m 7.3897,0 h 39.3696"
       inkscape:connector-curvature="0"
       sodipodi:nodetypes="cccccc" />
    <path
       chid="direction"
       id="path1177-4-6-1-1"
       style="display:inline;fill:#6e6e6e;fill-opacity:1;stroke:#6e6e6e;stroke-width:1.5;stroke-linecap:round;stroke-linejoin:round;stroke-miterlimit:4;stroke-dasharray:none;stroke-opacity:1;paint-order:normal"
       d="m 857.76502,1758.0619 7.38833,2.0839 v -4.0531 l -7.38973,1.9692 m 7.38973,0 h 39.3696"
       inkscape:connector-curvature="0"
       sodipodi:nodetypes="cccccc" />
    <path
       chid="direction"
       id="path1177-4-6-5-9"
       style="display:inline;fill:#6e6e6e;fill-opacity:1;stroke:#6e6e6e;stroke-width:1.5;stroke-linecap:round;stroke-linejoin:round;stroke-miterlimit:4;stroke-dasharray:none;stroke-opacity:1;paint-order:normal"
       d="m 857.7129,1793.9821 7.44045,-1.8894 -2.02658,-3.5102 -5.41508,5.4003 m 6.39972,-3.6948 17.32755,-10.0041"
       inkscape:connector-curvature="0"
       sodipodi:nodetypes="cccccc" />
    <path
       sodipodi:nodetypes="cc"
       inkscape:connector-curvature="0"
       d="m 904.52295,1780.0619 -23.08399,0.2219"
       style="display:inline;fill:#b50600;fill-opacity:1;stroke:#6e6e6e;stroke-width:1.5;stroke-linecap:round;stroke-linejoin:round;stroke-miterlimit:4;stroke-dasharray:none;stroke-opacity:1;paint-order:normal"
       id="path1177-5-0-8-1"
       chid="direction" />
    <path
       sodipodi:nodetypes="cccccc"
       inkscape:connector-curvature="0"
       d="m 190.08261,1927.4596 -7.3883,2.0839 v -4.0531 l 7.3897,1.9692 m -7.3897,0 h -39.3696"
       style="display:inline;fill:#6e6e6e;fill-opacity:1;stroke:#6e6e6e;stroke-width:1.5;stroke-linecap:round;stroke-linejoin:round;stroke-miterlimit:4;stroke-dasharray:none;stroke-opacity:1;paint-order:normal"
       id="path1177-3-8-0"
       chid="direction" />
    <path
       sodipodi:nodetypes="cccccc"
       inkscape:connector-curvature="0"
       d="m 452.83625,2168.6459 -3.7508,6.6978 -2.86598,-2.8659 6.61777,-3.8329 m -5.22531,5.2253 -27.83853,27.8385"
       style="display:inline;fill:#6e6e6e;fill-opacity:1;stroke:#6e6e6e;stroke-width:1.5;stroke-linecap:round;stroke-linejoin:round;stroke-miterlimit:4;stroke-dasharray:none;stroke-opacity:1;paint-order:normal"
       id="path1177-3-1-8"
       chid="direction" />
    <g
       transform="matrix(-1,0,0,1,1011.3705,1652.7015)"
       shvPath="devices/cabinet/PPC"
       id="g1240-8"
       style="display:inline">
      <text
         transform="scale(-1,1)"
         id="text955-3"
         xml:space="preserve"
         style="font-style:normal;font-variant:normal;font-weight:normal;font-stretch:normal;font-size:16px;line-height:1.25;font-family:sans-serif;-inkscape-font-specification:'sans-serif, Normal';font-variant-ligatures:normal;font-variant-caps:normal;font-variant-numeric:normal;font-variant-east-asian:normal;fill:#000000;stroke-width:1.1394"
         font-size="3.1059px"
         y="43.322037"
         x="-512.50983"><tspan
           shvAlarmPosition="right"
           id="tspan953-3"
           style="font-style:normal;font-variant:normal;font-weight:normal;font-stretch:normal;font-size:16px;font-family:sans-serif;-inkscape-font-specification:'sans-serif, Normal';font-variant-ligatures:normal;font-variant-caps:normal;font-variant-numeric:normal;font-variant-east-asian:normal;stroke-width:1.1394"
           font-size="3.1059px"
           y="43.322037"
           x="-512.50983">PPC</tspan></text>
      <g
         transform="rotate(180,496.95529,75.190548)"
         id="g1230-4">
        <path
           inkscape:connector-curvature="0"
           d="m 470.5261,77.138812 52.85225,22.294318 v 0 0 0 0 m 0.002,-22.288889 -52.87057,22.283889"
           style="fill:none;stroke:#4d4d4d;stroke-width:1px;stroke-linecap:butt;stroke-linejoin:miter;stroke-opacity:1"
           id="path1215-0" />
        <path
           chid="box"
           d="m 523.37835,99.43313 -52.86828,-0.005 0.002,-22.28752 52.86828,0.005 z"
           id="path1486-3-1"
           inkscape:connector-curvature="0"
           style="opacity:1;vector-effect:none;fill:#c8beb7;fill-opacity:0.239216;stroke:#4d4d4d;stroke-width:0.909;stroke-linecap:round;stroke-linejoin:bevel;stroke-miterlimit:4;stroke-dasharray:none;stroke-dashoffset:0;stroke-opacity:1"
           sodipodi:nodetypes="ccccc" />
        <g
           transform="matrix(3.5276366e-4,-3.4343434,3.4343434,3.5276366e-4,-229.67423,473.66487)"
           chid="doors"
           id="g1492-5"
           style="fill:none;stroke:#ff2a2a;stroke-width:0.410168;stroke-miterlimit:4;stroke-dasharray:none">
          <path
             d="m 115.48,219.26 5.4427,5.4427 a 7.6971,7.6971 0 0 0 2.2544,-5.4427 7.6971,7.6971 0 0 0 -7.6972,-7.6972 v 7.6972"
             id="path1488-9-2"
             inkscape:connector-curvature="0"
             style="stroke:#ff2a2a;stroke-width:0.410168;stroke-miterlimit:4;stroke-dasharray:none" />
          <path
             d="m 115.48,203.87 5.4427,-5.4427 a 7.6971,7.6971 0 0 1 2.2544,5.4427 7.6971,7.6971 0 0 1 -7.6972,7.6972 V 203.87"
             id="path1490-0-2"
             inkscape:connector-curvature="0"
             style="stroke:#ff2a2a;stroke-width:0.410168;stroke-miterlimit:4;stroke-dasharray:none" />
        </g>
      </g>
    </g>
    <g
       style="display:inline;stroke-width:3.77953"
       id="g1535-2-3"
       shvPath="devices/ppi/PPI01"
       transform="translate(-421.10309,502.4105)">
      <text
         id="text1191-7-66-7-2-3-9"
         xml:space="preserve"
         style="font-style:normal;font-variant:normal;font-weight:normal;font-stretch:normal;font-size:16px;line-height:1.25;font-family:sans-serif;-inkscape-font-specification:'sans-serif, Normal';font-variant-ligatures:normal;font-variant-caps:normal;font-variant-numeric:normal;font-variant-east-asian:normal;fill:#000000;stroke-width:1.1394"
         font-size="3.1059px"
         y="1250.4847"
         x="1056.1149"><tspan
           shvAlarmPosition="right"
           id="tspan1189-5-49-1-6-1-5"
           y="1250.4847"
           x="1056.1149"
           style="font-style:normal;font-variant:normal;font-weight:normal;font-stretch:normal;font-size:16px;font-family:sans-serif;-inkscape-font-specification:'sans-serif, Normal';font-variant-ligatures:normal;font-variant-caps:normal;font-variant-numeric:normal;font-variant-east-asian:normal;stroke-width:1.1394">PPI01</tspan></text>
      <g
         transform="matrix(-1,0,0,1,2089.3162,16.7771)"
         id="g1520-3">
        <path
           inkscape:connector-curvature="0"
           chid="chambers"
           id="rect1230-2-7"
           d="m 1051.9685,1216.1633 v 28.6816 h 28.6816 v -28.6816 z m -0.066,31.8789 v 28.6816 h 28.6836 v -28.6816 z"
           style="fill:#cdcbcb;fill-opacity:1;stroke:#4d4d4d;stroke-width:2.4234;stroke-miterlimit:4;stroke-dasharray:none;stroke-opacity:1" />
        <path
           inkscape:connector-curvature="0"
           style="fill:none;fill-opacity:0;stroke:#ff9600;stroke-width:1.327;stroke-linecap:butt;stroke-linejoin:miter;stroke-miterlimit:4.3;stroke-dasharray:none;stroke-dashoffset:0;stroke-opacity:1"
           d="m 1054.843,1250.9114 h 23.0006 v 23.0372 h -22.9863 z"
           id="path1284-2"
           sodipodi:nodetypes="ccccc"
           chid="symbol/BLOCKED" />
        <g
           id="g1237-2"
           chid="symbol/BUSY"
           transform="matrix(0.62540529,0,0,0.58376934,650.84879,1018.4695)">
          <path
             id="path1403-2"
             d="m 679.3284,344.70547 -32.48374,34.80058 2.45823,2.63356 32.74712,-35.08275 z"
             style="fill:#ff9900;fill-opacity:1;stroke:#000000;stroke-width:0.956782;stroke-linecap:butt;stroke-linejoin:miter;stroke-miterlimit:4;stroke-dasharray:0, 10.5246;stroke-dashoffset:0;stroke-opacity:1"
             inkscape:connector-curvature="0" />
          <path
             id="path1403-1-6"
             d="m 679.35503,382.25273 -32.48374,-34.80058 2.45823,-2.63356 32.74712,35.08275 z"
             style="fill:#ff9900;fill-opacity:1;stroke:#000000;stroke-width:0.956782;stroke-linecap:butt;stroke-linejoin:miter;stroke-miterlimit:4;stroke-dasharray:0, 10.5246;stroke-dashoffset:0;stroke-opacity:1"
             inkscape:connector-curvature="0"
             inkscape:transform-center-y="-0.280633" />
        </g>
        <path
           inkscape:connector-curvature="0"
           chid="symbol/DIR_L"
           sodipodi:nodetypes="ccccccc"
           inkscape:transform-center-y="-0.40263674"
           inkscape:transform-center-x="0.33545948"
           id="path1355-7-0-5"
           d="m 1075.978,1262.6219 -2.2201,0.065 -7.6599,7.485 -7.4848,-7.6598 -2.2203,0.065 9.7702,9.8148 z"
           style="display:inline;fill:#ff9900;fill-opacity:1;stroke:#ffa82c;stroke-width:0.999996;stroke-linecap:butt;stroke-linejoin:miter;stroke-miterlimit:4;stroke-dasharray:0, 11;stroke-dashoffset:0;stroke-opacity:1" />
        <path
           inkscape:connector-curvature="0"
           style="display:inline;fill:#ff9900;fill-opacity:1;stroke:#ff9600;stroke-width:0.999996;stroke-linecap:butt;stroke-linejoin:miter;stroke-miterlimit:4;stroke-dasharray:0, 11;stroke-dashoffset:0;stroke-opacity:1"
           d="m 1066.207,1272.5669 0.066,-2.2202 c 7.4849,-7.6598 0,0 7.4849,-7.6598 l -7.6598,-7.4849 0.065,-2.2202 9.8149,9.7703 c -9.7704,9.8148 -10e-5,0 -9.7704,9.8148 z"
           id="path1355-5-4-5-1"
           inkscape:transform-center-x="0.78316336"
           inkscape:transform-center-y="-0.16316427"
           sodipodi:nodetypes="ccccccc"
           chid="symbol/DIR_R" />
      </g>
    </g>
    <g
       style="display:inline;stroke-width:3.77953"
       id="g619-9-3"
       shvPath="devices/vecom/VCU/loop/VECOM"
       transform="translate(-235.59396,-427.3994)"
       shvVisuType="VecomData">
      <text
         id="text1062-8-9-4-2"
         xml:space="preserve"
         style="font-style:normal;font-variant:normal;font-weight:normal;font-stretch:normal;font-size:16px;line-height:1.25;font-family:sans-serif;-inkscape-font-specification:'sans-serif, Normal';font-variant-ligatures:normal;font-variant-caps:normal;font-variant-numeric:normal;font-variant-east-asian:normal;fill:#000000;stroke-width:1.1394"
         font-size="3.1059px"
         y="2116.4995"
         x="1101.1709"><tspan
           shvAlarmPosition="right"
           id="tspan1060-7-3-3-1"
           y="2116.4995"
           x="1101.1709"
           style="font-style:normal;font-variant:normal;font-weight:normal;font-stretch:normal;font-size:16px;font-family:sans-serif;-inkscape-font-specification:'sans-serif, Normal';font-variant-ligatures:normal;font-variant-caps:normal;font-variant-numeric:normal;font-variant-east-asian:normal;stroke-width:1.1394">VECOM</tspan></text>
      <g
         id="g595-0-1">
        <rect
           rx="0.16663547"
           style="fill:#c8beb7;fill-opacity:0.239216;stroke:#4d4d4d;stroke-width:0.909;stroke-linecap:round;stroke-linejoin:bevel;stroke-miterlimit:4;stroke-dasharray:none;stroke-dashoffset:0;stroke-opacity:1"
           id="rect1056-6-7-0-2-2"
           width="93.922676"
           height="16.231249"
           x="1100.4596"
           y="2154.1025"
           ry="0.16663547" />
        <rect
           rx="0.16663545"
           style="fill:#c8beb7;fill-opacity:0.239216;stroke:#4d4d4d;stroke-width:0.909;stroke-linecap:round;stroke-linejoin:bevel;stroke-miterlimit:4;stroke-dasharray:none;stroke-dashoffset:0;stroke-opacity:1"
           id="rect1056-6-7-07-1"
           width="93.922585"
           height="16.231249"
           x="1100.4596"
           y="2137.8713"
           ry="0.16663547" />
        <rect
           rx="0.16663547"
           ry="0.16663547"
           y="2121.6401"
           x="1100.4596"
           height="16.231249"
           width="93.922562"
           id="rect1058-1-0-6-5"
           style="fill:#c8beb7;fill-opacity:0.239216;stroke:#4d4d4d;stroke-width:0.909;stroke-linecap:round;stroke-linejoin:bevel;stroke-miterlimit:4;stroke-dasharray:none;stroke-dashoffset:0;stroke-opacity:1" />
        <rect
           rx="0.16663547"
           ry="0.16663547"
           y="2154.1025"
           x="1100.4545"
           height="16.231249"
           width="212.00063"
           id="rect1044-3-6-6-6-3"
           style="fill:none;fill-opacity:0.239216;stroke:#4d4d4d;stroke-width:0.909;stroke-linecap:round;stroke-linejoin:bevel;stroke-miterlimit:4;stroke-dasharray:none;stroke-dashoffset:0;stroke-opacity:1" />
        <rect
           rx="0.16663547"
           style="fill:none;fill-opacity:0.239216;stroke:#4d4d4d;stroke-width:0.909;stroke-linecap:round;stroke-linejoin:bevel;stroke-miterlimit:4;stroke-dasharray:none;stroke-dashoffset:0;stroke-opacity:1"
           id="rect1024-1-6-4-6"
           width="211.992"
           height="16.231249"
           x="1100.463"
           y="2121.6401"
           ry="0.16663547" />
        <text
           x="1103.7786"
           y="2134.2092"
           font-size="11.647px"
           style="font-size:45.5752px;line-height:1.25;font-family:sans-serif;fill:#000000;stroke-width:1.1394"
           xml:space="preserve"
           id="text1099-2-7-7-8"><tspan
             x="1103.7786"
             y="2134.2092"
             font-size="2.3294px"
             style="font-size:9.11504px;font-family:sans-serif;font-variant-ligatures:normal;font-variant-caps:normal;font-variant-numeric:normal;stroke-width:1.5705"
             id="tspan1097-7-5-6-3">Tram ID</tspan></text>
        <text
           x="1402.533"
           y="2134.1602"
           font-size="3.2px"
           style="font-size:12.5217px;line-height:1.25;font-family:sans-serif;text-align:end;text-anchor:end;fill:#0055d4;stroke-width:1.5705"
           xml:space="preserve"
           id="text1107-0-3-6-4"><tspan
             x="1311.3335"
             y="2134.1602"
             font-size="3.2108px"
             style="font-size:12.564px;font-family:sans-serif;font-variant-ligatures:normal;font-variant-caps:normal;font-variant-numeric:normal;text-align:end;text-anchor:end;fill:#0055d4;stroke-width:1.5705"
             id="tspan1105-9-5-1-0"
             chid="tramId">tram-id</tspan></text>
        <rect
           rx="0.16663547"
           ry="0.16663547"
           y="2137.8713"
           x="1100.4545"
           height="16.231249"
           width="212.00063"
           id="rect1044-3-6-5-5"
           style="fill:none;fill-opacity:0.239216;stroke:#4d4d4d;stroke-width:0.909;stroke-linecap:round;stroke-linejoin:bevel;stroke-miterlimit:4;stroke-dasharray:none;stroke-dashoffset:0;stroke-opacity:1" />
        <text
           id="text1048-6-2-20-2"
           xml:space="preserve"
           style="font-size:45.5752px;line-height:1.25;font-family:sans-serif;fill:#000000;stroke-width:1.1394"
           font-size="11.647px"
           y="2150.5449"
           x="1103.7786"><tspan
             id="tspan1046-0-9-7-8"
             style="font-size:9.11504px;font-family:sans-serif;font-variant-ligatures:normal;font-variant-caps:normal;font-variant-numeric:normal;stroke-width:1.5705"
             font-size="2.3294px"
             y="2150.5449"
             x="1103.7786">Line number</tspan></text>
        <text
           id="text1052-6-1-4-8"
           xml:space="preserve"
           style="font-size:12.5217px;line-height:1.25;font-family:sans-serif;text-align:end;text-anchor:end;fill:#0055d4;stroke-width:1.5705"
           font-size="3.2px"
           y="2150.4961"
           x="1339.2985"><tspan
             chid="lineNumber"
             id="tspan1050-2-2-9-7"
             style="font-size:12.564px;font-family:sans-serif;font-variant-ligatures:normal;font-variant-caps:normal;font-variant-numeric:normal;text-align:end;text-anchor:end;fill:#0055d4;stroke-width:1.5705"
             font-size="3.2108px"
             y="2150.4961"
             x="1311.0601">num</tspan></text>
        <rect
           chid="boundingBox"
           style="opacity:1;fill:none;fill-opacity:1;stroke:#000000;stroke-width:0.66059;stroke-miterlimit:4;stroke-dasharray:none;stroke-dashoffset:0;stroke-opacity:1"
           id="rect249-3-9-6-7-5"
           width="212.0006"
           height="48.693787"
           x="1100.4545"
           y="2121.6401" />
        <text
           id="text1048-6-2-2-4-9"
           xml:space="preserve"
           style="font-size:45.5752px;line-height:1.25;font-family:sans-serif;fill:#000000;stroke-width:1.1394"
           font-size="11.647px"
           y="2166.6396"
           x="1103.7784"><tspan
             id="tspan1046-0-9-6-9-5"
             style="font-size:9.11504px;font-family:sans-serif;font-variant-ligatures:normal;font-variant-caps:normal;font-variant-numeric:normal;stroke-width:1.5705"
             font-size="2.3294px"
             y="2166.6396"
             x="1103.7784">Remote cmd</tspan></text>
        <text
           id="text1052-6-1-1-4-7"
           xml:space="preserve"
           style="font-size:12.5217px;line-height:1.25;font-family:sans-serif;text-align:end;text-anchor:end;fill:#0055d4;stroke-width:1.5705"
           font-size="3.2px"
           y="2166.5911"
           x="1339.2981"><tspan
             chid="remoteCmd"
             id="tspan1050-2-2-8-5-7"
             style="font-size:12.564px;font-family:sans-serif;font-variant-ligatures:normal;font-variant-caps:normal;font-variant-numeric:normal;text-align:end;text-anchor:end;fill:#0055d4;stroke-width:1.5705"
             font-size="3.2108px"
             y="2166.5911"
             x="1311.0597">cmd</tspan></text>
      </g>
    </g>
    <g
       style="display:inline"
       transform="translate(-110.66535,629.5979)"
       shvPath="devices/heating/HEATING/contactor/CONTACTOR/rod/TSH1_HRR"
       id="g2617-3-4">
      <path
         chid="rod"
         id="path1133-8-1"
         d="m 793.5742,1163.7094 v -3.913 h -58.69562 v 3.913 z"
         inkscape:connector-curvature="0"
         style="fill:none;stroke:#000000;stroke-width:1.03531" />
      <text
         x="747.29425"
         y="1152.3036"
         font-size="3.1059px"
         style="font-style:normal;font-variant:normal;font-weight:normal;font-stretch:normal;font-size:16px;line-height:1.25;font-family:sans-serif;-inkscape-font-specification:'sans-serif, Normal';font-variant-ligatures:normal;font-variant-caps:normal;font-variant-numeric:normal;font-variant-east-asian:normal;fill:#000000;stroke-width:1.1394"
         xml:space="preserve"
         id="text1191-7-3-6-9-6-1"><tspan
           style="font-style:normal;font-variant:normal;font-weight:normal;font-stretch:normal;font-size:16px;font-family:sans-serif;-inkscape-font-specification:'sans-serif, Normal';font-variant-ligatures:normal;font-variant-caps:normal;font-variant-numeric:normal;font-variant-east-asian:normal;stroke-width:1.1394"
           x="747.29425"
           y="1152.3036"
           id="tspan1189-5-1-1-2-6-2"
           shvAlarmPosition="right">TSH1_HR_R</tspan></text>
    </g>
    <g
       id="g2617-3-7-0"
       shvPath="devices/heating/HEATING/contactor/CONTACTOR/rod/TSH1_HRL"
       transform="translate(-110.66535,684.3607)"
       style="display:inline">
      <path
         style="fill:none;stroke:#000000;stroke-width:1.03531"
         inkscape:connector-curvature="0"
         d="m 793.5742,1163.7094 v -3.913 h -58.69562 v 3.913 z"
         id="path1133-8-2-8"
         chid="rod" />
      <text
         id="text1191-7-3-6-9-6-6-7"
         xml:space="preserve"
         style="font-style:normal;font-variant:normal;font-weight:normal;font-stretch:normal;font-size:16px;line-height:1.25;font-family:sans-serif;-inkscape-font-specification:'sans-serif, Normal';font-variant-ligatures:normal;font-variant-caps:normal;font-variant-numeric:normal;font-variant-east-asian:normal;fill:#000000;stroke-width:1.1394"
         font-size="3.1059px"
         y="1180.3036"
         x="749.13702"><tspan
           shvAlarmPosition="right"
           id="tspan1189-5-1-1-2-6-7-3"
           y="1180.3036"
           x="749.13702"
           style="font-style:normal;font-variant:normal;font-weight:normal;font-stretch:normal;font-size:16px;font-family:sans-serif;-inkscape-font-specification:'sans-serif, Normal';font-variant-ligatures:normal;font-variant-caps:normal;font-variant-numeric:normal;font-variant-east-asian:normal;stroke-width:1.1394">TSH1_HR_L</tspan></text>
    </g>
    <g
       transform="matrix(-1,0,0,1,2520.4336,-1518.9659)"
       id="g1539-0"
       shvPath="devices/vecom/VCU/loop/VECOM"
       shvVisuType="VecomTransceiver"
       style="display:inline">
      <text
         transform="scale(-1,1)"
         id="text1191-9-0"
         xml:space="preserve"
         style="font-size:12.1535px;line-height:1.25;font-family:sans-serif;font-variant-ligatures:normal;font-variant-caps:normal;font-variant-numeric:normal;fill:#000000;stroke-width:1.1394"
         font-size="3.1059px"
         y="3392.0198"
         x="-1543.6869"><tspan
           shvAlarmPosition="right"
           id="tspan1189-2-2"
           y="3392.0198"
           x="-1543.6869"
           style="font-size:16px;stroke-width:1.1394">VECOM</tspan></text>
      <g
         id="g1532-5">
        <path
           inkscape:connector-curvature="0"
           chid="transceiver"
           id="path345-8"
           d="m 1509.4553,3332.7092 -10.1074,0.018 v 10.8867 h 10.2734 l 0.2735,-0.1309 6.2832,-5.2051 z m 6.7227,5.5683 6.2832,5.2051 0.2734,0.1309 h 10.2715 v -10.8867 l -10.1054,-0.018 z"
           style="fill:#00d900;fill-opacity:0.5;stroke:#000000;stroke-width:1.637;stroke-linecap:butt;stroke-linejoin:miter;stroke-miterlimit:4;stroke-dasharray:none;stroke-opacity:1" />
        <path
           inkscape:connector-curvature="0"
           id="path994-5-5-6-9-3-0"
           style="opacity:0.99;fill:none;fill-opacity:1;fill-rule:nonzero;stroke:#34a800;stroke-width:2.3;stroke-linecap:round;stroke-linejoin:round;stroke-miterlimit:4;stroke-dasharray:none;stroke-dashoffset:0;stroke-opacity:1;paint-order:stroke fill markers"
           d="m 1536.4248,3313.9738 a 31.5,31.5 0 0 0 -40.4956,0 m 35.6747,5.7453 a 24,24 0 0 0 -30.8538,0 m 26.0329,5.7454 a 16.5,16.5 0 0 0 -21.212,0 m 30.8538,36.8839 a 31.5,31.5 0 0 1 -40.4956,0 m 35.6747,-5.7454 a 24,24 0 0 1 -30.8538,0 m 26.0329,-5.7453 a 16.5,16.5 0 0 1 -21.212,0"
           chid="radioBeams" />
      </g>
    </g>
    <g
       style="display:inline;stroke-width:14.2848"
       transform="matrix(-1,0,0,1,1226.6887,561.2599)"
       shvPath="devices/pme/TSH1"
       id="g1552-0">
      <text
         transform="scale(-1,1)"
         x="-590.06079"
         y="1206.5823"
         font-size="3.1059px"
         style="font-size:12.1535px;line-height:1.25;font-family:sans-serif;font-variant-ligatures:normal;font-variant-caps:normal;font-variant-numeric:normal;fill:#000000;stroke-width:1.1394"
         xml:space="preserve"
         id="text1191-7-3-6-39-1"><tspan
           style="font-size:16px;stroke-width:1.1394"
           x="-590.06079"
           y="1206.5823"
           id="tspan1189-5-1-1-9-7"
           shvAlarmPosition="right">TSH1</tspan></text>
      <g
         transform="translate(0,-82)"
         id="g732-2">
        <path
           d="m 544.6221,1320.5547 h 39.13044 v 39.1304 h -39.13043 z"
           id="path1017-4-2-1"
           inkscape:connector-curvature="0"
           style="fill:#28a638;fill-opacity:0.44758;stroke:#000000;stroke-width:1.03531"
           chid="box" />
        <path
           d="m 608.78874,1340.1999 h 74.48025"
           id="path1019-5-48-9"
           inkscape:connector-curvature="0"
           style="fill:none;stroke:#ff33ff;stroke-width:13.6957;stroke-linecap:round"
           chid="posRight"
           sodipodi:nodetypes="cc" />
        <path
           d="m 608.78878,1340.1999 55.42054,55.71"
           id="path1021-0-7-9"
           inkscape:connector-curvature="0"
           style="fill:none;stroke:#ff33ff;stroke-width:13.6957;stroke-linecap:round"
           chid="posLeft"
           sodipodi:nodetypes="cc" />
        <rect
           transform="rotate(-90)"
           chid="leverInSocket"
           style="display:inline;fill:#293cfa;fill-opacity:1;stroke:none;stroke-width:2.34266;stroke-linecap:square;stroke-miterlimit:4;stroke-dasharray:none;stroke-opacity:1"
           id="rect15117-8-3-9-8"
           width="20.234634"
           height="20.44541"
           x="-1350.2372"
           y="553.9646" />
        <g
           chid="motorMoving"
           id="g1531-7"
           transform="translate(-35.68884,21.583777)">
          <circle
             r="15.1"
             style="opacity:1;fill:#ff6600;fill-opacity:1;fill-rule:nonzero;stroke:#000000;stroke-width:1.8;stroke-linecap:round;stroke-linejoin:round;stroke-miterlimit:4;stroke-dasharray:none;stroke-dashoffset:0;stroke-opacity:1;paint-order:stroke fill markers"
             id="path1511-9"
             cx="599.87616"
             cy="1318.5361" />
          <path
             inkscape:connector-curvature="0"
             id="path693-2"
             style="fill:#000000;fill-opacity:1;stroke:#000000;stroke-width:0.5;stroke-miterlimit:4;stroke-dasharray:none;stroke-opacity:1"
             d="m 606.99073,1310.76 h -3.1354 l -3.9687,10.5834 -3.9896,-10.5834 h -3.1354 v 15.5521 h 2.0521 v -13.6562 l 4.0104,10.6667 h 2.1146 l 4.0104,-10.6667 v 13.6562 h 2.0416 z" />
        </g>
      </g>
    </g>
    <g
       style="display:inline"
       shvPath="devices/pd/SI11"
       id="g1006-7-0"
       transform="matrix(-1,0,0,1,1273.2226,1201.9271)">
      <text
         transform="scale(-1,1)"
         id="text955-3-5-7"
         xml:space="preserve"
         style="font-style:normal;font-variant:normal;font-weight:normal;font-stretch:normal;font-size:16px;line-height:1.25;font-family:sans-serif;-inkscape-font-specification:'sans-serif, Normal';font-variant-ligatures:normal;font-variant-caps:normal;font-variant-numeric:normal;font-variant-east-asian:normal;fill:#000000;stroke-width:1.1394"
         font-size="3.1059px"
         y="654.65002"
         x="-403.68616"><tspan
           id="tspan953-6-3-2"
           style="font-style:normal;font-variant:normal;font-weight:normal;font-stretch:normal;font-size:16px;font-family:sans-serif;-inkscape-font-specification:'sans-serif, Normal';font-variant-ligatures:normal;font-variant-caps:normal;font-variant-numeric:normal;font-variant-east-asian:normal;stroke-width:1.1394"
           font-size="3.1059px"
           y="654.65002"
           x="-403.68616"
           shvAlarmPosition="right">SI11</tspan></text>
      <path
         d="m 384.664,625.89289 h 17 v -17 h -17 z"
         id="path887-5-71"
         inkscape:connector-curvature="0"
         style="fill:#000000;fill-opacity:0.241265;stroke:#8e8e8e;stroke-width:3;stroke-linejoin:bevel;stroke-miterlimit:4;stroke-dasharray:none;stroke-opacity:1"
         chid="detector" />
    </g>
    <g
       transform="matrix(-1,0,0,1,1234.2226,1201.8779)"
       id="g1006-7-4-73"
       shvPath="devices/pd/SI01"
       style="display:inline">
      <text
         transform="scale(-1,1)"
         x="-417.68616"
         y="655.07855"
         font-size="3.1059px"
         style="font-style:normal;font-variant:normal;font-weight:normal;font-stretch:normal;font-size:16px;line-height:1.25;font-family:sans-serif;-inkscape-font-specification:'sans-serif, Normal';font-variant-ligatures:normal;font-variant-caps:normal;font-variant-numeric:normal;font-variant-east-asian:normal;fill:#000000;stroke-width:1.1394"
         xml:space="preserve"
         id="text955-3-5-1-8"><tspan
           shvAlarmPosition="right"
           x="-417.68616"
           y="655.07855"
           font-size="3.1059px"
           style="font-style:normal;font-variant:normal;font-weight:normal;font-stretch:normal;font-size:16px;font-family:sans-serif;-inkscape-font-specification:'sans-serif, Normal';font-variant-ligatures:normal;font-variant-caps:normal;font-variant-numeric:normal;font-variant-east-asian:normal;stroke-width:1.1394"
           id="tspan953-6-3-0-4">SI01</tspan></text>
      <path
         chid="detector"
         style="fill:#000000;fill-opacity:0.241265;stroke:#8e8e8e;stroke-width:3;stroke-linejoin:bevel;stroke-miterlimit:4;stroke-dasharray:none;stroke-opacity:1"
         inkscape:connector-curvature="0"
         id="path887-5-7-5"
         d="m 384.664,625.94214 h 17 v -17 h -17 z" />
    </g>
    <g
       style="display:inline"
       shvPath="devices/pd/SI03"
       id="g1006-7-4-7-8"
       transform="matrix(-1,0,0,1,609.22718,1143.3155)">
      <text
         transform="scale(-1,1)"
         id="text955-3-5-1-7-0"
         xml:space="preserve"
         style="font-style:normal;font-variant:normal;font-weight:normal;font-stretch:normal;font-size:16px;line-height:1.25;font-family:sans-serif;-inkscape-font-specification:'sans-serif, Normal';font-variant-ligatures:normal;font-variant-caps:normal;font-variant-numeric:normal;font-variant-east-asian:normal;fill:#000000;stroke-width:1.1394"
         font-size="3.1059px"
         y="713.64014"
         x="-402.84723"><tspan
           id="tspan953-6-3-0-2-7"
           style="font-style:normal;font-variant:normal;font-weight:normal;font-stretch:normal;font-size:16px;font-family:sans-serif;-inkscape-font-specification:'sans-serif, Normal';font-variant-ligatures:normal;font-variant-caps:normal;font-variant-numeric:normal;font-variant-east-asian:normal;stroke-width:1.1394"
           font-size="3.1059px"
           y="713.64014"
           x="-402.84723"
           shvAlarmPosition="right">SI03</tspan></text>
      <path
         d="m 384.664,684.504 h 17 v -17 h -17 z"
         id="path887-5-7-6-6"
         inkscape:connector-curvature="0"
         style="fill:#000000;fill-opacity:0.241265;stroke:#8e8e8e;stroke-width:3;stroke-linejoin:bevel;stroke-miterlimit:4;stroke-dasharray:none;stroke-opacity:1"
         chid="detector" />
    </g>
    <g
       style="display:inline"
       shvPath="devices/pd/SI33"
       id="g1006-7-4-1-4"
       transform="matrix(-1,0,0,1,568.22702,1143.9434)">
      <text
         transform="scale(-1,1)"
         id="text955-3-5-1-0-5"
         xml:space="preserve"
         style="font-style:normal;font-variant:normal;font-weight:normal;font-stretch:normal;font-size:16px;line-height:1.25;font-family:sans-serif;-inkscape-font-specification:'sans-serif, Normal';font-variant-ligatures:normal;font-variant-caps:normal;font-variant-numeric:normal;font-variant-east-asian:normal;fill:#000000;stroke-width:1.1394"
         font-size="3.1059px"
         y="713.0105"
         x="-417.88147"><tspan
           id="tspan953-6-3-0-22-0"
           style="font-style:normal;font-variant:normal;font-weight:normal;font-stretch:normal;font-size:16px;font-family:sans-serif;-inkscape-font-specification:'sans-serif, Normal';font-variant-ligatures:normal;font-variant-caps:normal;font-variant-numeric:normal;font-variant-east-asian:normal;stroke-width:1.1394"
           font-size="3.1059px"
           y="713.0105"
           x="-417.88147"
           shvAlarmPosition="right">SI33</tspan></text>
      <path
         d="m 384.664,683.87605 h 17 v -17 h -17 z"
         id="path887-5-7-7-5"
         inkscape:connector-curvature="0"
         style="fill:#000000;fill-opacity:0.241265;stroke:#8e8e8e;stroke-width:3;stroke-linejoin:bevel;stroke-miterlimit:4;stroke-dasharray:none;stroke-opacity:1"
         chid="detector" />
    </g>
    <g
       style="display:inline"
       shvPath="devices/pd/SI02"
       id="g1006-7-4-7-1-5-1"
       transform="matrix(-1,0,0,1,895.747,1520.7329)">
      <text
         transform="scale(-1,1)"
         id="text955-3-5-1-7-5-4-8"
         xml:space="preserve"
         style="font-style:normal;font-variant:normal;font-weight:normal;font-stretch:normal;font-size:16px;line-height:1.25;font-family:sans-serif;-inkscape-font-specification:'sans-serif, Normal';font-variant-ligatures:normal;font-variant-caps:normal;font-variant-numeric:normal;font-variant-east-asian:normal;fill:#000000;stroke-width:1.1394"
         font-size="3.1059px"
         y="563.31592"
         x="-501.65332"><tspan
           id="tspan953-6-3-0-2-1-6-3"
           style="font-style:normal;font-variant:normal;font-weight:normal;font-stretch:normal;font-size:16px;font-family:sans-serif;-inkscape-font-specification:'sans-serif, Normal';font-variant-ligatures:normal;font-variant-caps:normal;font-variant-numeric:normal;font-variant-east-asian:normal;stroke-width:1.1394"
           font-size="3.1059px"
           y="563.31592"
           x="-501.65332"
           shvAlarmPosition="right">SI02</tspan></text>
      <path
         d="m 519.3693,553.61884 12.02082,-12.02081 -12.02082,-12.02082 -12.02081,12.02082 z"
         id="path887-5-7-6-2-0-2"
         inkscape:connector-curvature="0"
         style="fill:#000000;fill-opacity:0.241265;stroke:#8e8e8e;stroke-width:3;stroke-linejoin:bevel;stroke-miterlimit:4;stroke-dasharray:none;stroke-opacity:1"
         chid="detector" />
    </g>
    <g
       style="display:inline"
       shvPath="devices/pd/SI22"
       id="g1006-7-4-1-8-0-9"
       transform="matrix(-1,0,0,1,896.54988,1559.5255)">
      <text
         transform="scale(-1,1)"
         id="text955-3-5-1-0-4-8-4"
         xml:space="preserve"
         style="font-style:normal;font-variant:normal;font-weight:normal;font-stretch:normal;font-size:16px;line-height:1.25;font-family:sans-serif;-inkscape-font-specification:'sans-serif, Normal';font-variant-ligatures:normal;font-variant-caps:normal;font-variant-numeric:normal;font-variant-east-asian:normal;fill:#000000;stroke-width:1.1394"
         font-size="3.1059px"
         y="554.26147"
         x="-523.55719"><tspan
           id="tspan953-6-3-0-22-7-2-2"
           style="font-style:normal;font-variant:normal;font-weight:normal;font-stretch:normal;font-size:16px;font-family:sans-serif;-inkscape-font-specification:'sans-serif, Normal';font-variant-ligatures:normal;font-variant-caps:normal;font-variant-numeric:normal;font-variant-east-asian:normal;stroke-width:1.1394"
           font-size="3.1059px"
           y="554.26147"
           x="-523.55719"
           shvAlarmPosition="right">SI22</tspan></text>
      <path
         d="m 546.94434,541.56804 12.02081,-12.02082 -12.02081,-12.02081 -12.02082,12.02081 z"
         id="path887-5-7-7-2-7-8"
         inkscape:connector-curvature="0"
         style="fill:#000000;fill-opacity:0.241265;stroke:#8e8e8e;stroke-width:3;stroke-linejoin:bevel;stroke-miterlimit:4;stroke-dasharray:none;stroke-opacity:1"
         chid="detector" />
    </g>
  </g>
  <g
     transform="translate(-47.673226,53.061522)"
     id="layer1"
     inkscape:groupmode="layer"
     inkscape:label="all"
     style="display:inline">
    <text
       id="text1061-1-3"
       y="-0.79805571"
       x="59.060734"
       style="font-style:normal;font-variant:normal;font-weight:normal;font-stretch:normal;font-size:4.23333px;line-height:1.25;font-family:sans-serif;-inkscape-font-specification:'sans-serif, Normal';font-variant-ligatures:normal;font-variant-caps:normal;font-variant-numeric:normal;font-variant-east-asian:normal;letter-spacing:0px;word-spacing:0px;display:inline;fill:#000000;fill-opacity:1;stroke:none;stroke-width:0.264583"
       xml:space="preserve"><tspan
         y="-0.79805571"
         x="59.060734"
         id="tspan1059-3-4"
         sodipodi:role="line"
         style="stroke-width:0.264583" /></text>
  </g>
  <g
     transform="translate(-47.673226,53.061522)"
     inkscape:groupmode="layer"
     id="layer4"
     inkscape:label="ppi"
     style="display:inline" />
  <g
     inkscape:groupmode="layer"
     id="layer5"
     inkscape:label="Vecom"
     style="display:inline;stroke-width:3.77953"
     transform="matrix(0.26458333,0,0,0.26458333,-33.991995,-437.65802)" />
  <g
     transform="translate(-47.673226,53.061522)"
     style="display:inline"
     inkscape:label="PME"
     id="layer3"
     inkscape:groupmode="layer" />
  <g
     transform="translate(-47.673226,53.061522)"
     inkscape:groupmode="layer"
     id="layer7"
     inkscape:label="Pantograf"
     style="display:inline" />
</svg>
