{
	"type": "DepotG3",
	"name": "Clarissenstraat - 2104",
	"gps": [51.04410526393811, 3.7339675251416593],
    "HP3": {
        "syncPath": ".app/history"
    },
 "visu": {
    "svgPath": "_files/site.svg",
    "svgPaths": [
      { "path": "_files/site.svg", "name": "Default" },
      { "path": "_files/site2.svg", "name": "Rotated" }
    ]
}
}
