{
    "name": "Wilanów Odc. D4",
    "siteware": {
        "shvUser": "viewer",
        "shvPassword": "42view",
        "defaultLanguage": "pl",
        "languageArray": [
            "en",
            "pl"
        ]
    }
}