{
    "HP": {
    },
    "gps": [
        50.1352272,
        14.4510861
    ],
    "name": "Conv50el",
    "type": "Conv50el",
    "visu": {
        "svgPath": "_files/site.svg",
        "svgPaths": [
          { "path": "_files/site.svg", "name": "Default" }
        ]
    }
}
