{
    "type": "DepotG3",
    "name": "Z01",
    "gps": [48.18975028317365, 17.18376996335908],
    "HP3": {
        "syncPath": ".app/history"
    },
    "visu": {
        "svgPath": "_files/site.svg"
    }
}
