key;en
type.StatusButtons.fields.RTS.description;YES = button active, NO = button inactive
type.StatusButtons.fields.RTS.label;READY TO START
device.GPIO_G3/inputs.description;Input to PLC, project-specific
device.GPIO_G3/inputs.label;General purpose input
type.GPIOInputs.fields.destinationDisabled_3.description;yes=Destination 3 disabled, NO= Destination 3 enabled
type.GPIOInputs.fields.destinationDisabled_3.label;Destination 3 disabled
type.DataRouteCodeMel.fields.branch.description;Branch
type.DataRouteCodeMel.fields.branch.label;Branch
type.DataRouteCodeMel.fields.prime.description;Prime
type.DataRouteCodeMel.fields.prime.label;Prime
type.DataRouteCodeMel.fields.upDown.description;Dir
type.DataRouteCodeMel.fields.upDown.label;Dir
