key;en
device.GPIO_A.method.OUT-OPEN-A1.description;Requesting the entry Gate to open and remain open (for an inbound tram)
device.GPIO_A.method.OUT-OPEN-A1.label;OUT-OPEN-A1
device.GPIO_A.method.OUT-OPEN-A2.description;Requesting the entry Gate to open and remain open (for an outbound tram)
device.GPIO_A.method.OUT-OPEN-A2.label;OUT-OPEN-A2
device.GPIO_A/inputs.description;Input to PLC, project-specific.
device.GPIO_A/inputs.label;General purpose input
type.GPIOInputs_A.fields.PME-CS-ST.description;Blocking PME movement
type.GPIOInputs_A.fields.PME-CS-ST.label;PME-CS-ST
type.GPIOInputs_A.fields.OUT-OPEN-A1_ST.description;Output state
type.GPIOInputs_A.fields.OUT-OPEN-A1_ST.label;OUT-OPEN-A1
type.GPIOInputs_A.fields.OUT-OPEN-A2_ST.description;Output state
type.GPIOInputs_A.fields.OUT-OPEN-A2_ST.label;OUT-OPEN-A2
static.GPIO_A;General purpose I/O