<?xml version="1.0" encoding="UTF-8" standalone="no"?>
<svg
   inkscape:version="1.3.2 (091e20ef0f, 2023-11-25)"
   sodipodi:docname="tsc_right_left_gate.svg"
   viewBox="0 0 602.76819 708.66589"
   version="1.1"
   height="708.66589"
   width="602.76819"
   id="svg-container"
   xmlns:inkscape="http://www.inkscape.org/namespaces/inkscape"
   xmlns:sodipodi="http://sodipodi.sourceforge.net/DTD/sodipodi-0.dtd"
   xmlns="http://www.w3.org/2000/svg"
   xmlns:svg="http://www.w3.org/2000/svg"
   xmlns:rdf="http://www.w3.org/1999/02/22-rdf-syntax-ns#"
   xmlns:cc="http://creativecommons.org/ns#"
   xmlns:dc="http://purl.org/dc/elements/1.1/">
  <sodipodi:namedview
     inkscape:document-rotation="0"
     inkscape:snap-page="false"
     fit-margin-bottom="10"
     fit-margin-right="10"
     fit-margin-left="10"
     fit-margin-top="10"
     inkscape:current-layer="svg-container"
     inkscape:window-maximized="1"
     inkscape:window-y="0"
     inkscape:window-x="0"
     inkscape:cy="271.21758"
     inkscape:cx="278.65892"
     inkscape:zoom="5.1066012"
     showgrid="false"
     id="namedview1252"
     inkscape:window-height="1033"
     inkscape:window-width="1920"
     inkscape:pageshadow="2"
     inkscape:pageopacity="0"
     guidetolerance="10"
     gridtolerance="10"
     objecttolerance="10"
     borderopacity="1"
     bordercolor="#666666"
     pagecolor="#ffffff"
     inkscape:showpageshadow="2"
     inkscape:pagecheckerboard="0"
     inkscape:deskcolor="#d1d1d1">
    <inkscape:grid
       originy="-186.2021"
       originx="-37.89998"
       type="xygrid"
       id="grid1049"
       spacingy="1"
       spacingx="1"
       units="px"
       visible="false" />
  </sodipodi:namedview>
  <defs
     id="defs849" />
  <metadata
     id="metadata851">
    <rdf:RDF>
      <cc:Work
         rdf:about="">
        <dc:format>image/svg+xml</dc:format>
        <dc:type
           rdf:resource="http://purl.org/dc/dcmitype/StillImage" />
      </cc:Work>
    </rdf:RDF>
  </metadata>
  <style
     id="style853">@keyframes redChange {
    0%{fill:#ff0000}
    50%{fill:#000}
    100%{fill: #ff0000}
  }
  @keyframes whiteChange {
    0%{fill: #fff}
    50%{fill: #000}
    100%{fill: #fff}
  }
  @keyframes blueChange {
    0%{fill: white}
    50%{fill: blue}
    100%{fill: white}
  }
.blue-blinking {
  animation: blueChange 1s infinite;
}
  .red-blinking {
    animation: redChange 1s infinite;
  }
  .white-blinking {
    animation: whiteChange 1s infinite;
  }</style>
  <path
     sodipodi:nodetypes="cc"
     id="path919"
     d="M 314.47853,303.36277 498.50805,129.08382"
     style="fill:none;stroke:#6e6e6e;stroke-width:9.11504;stroke-linecap:round"
     inkscape:connector-curvature="0" />
  <g
     transform="matrix(3.9130435,0,0,3.9130435,-111.79955,-252.37554)"
     visibility="hidden"
     id="g1039"
     style="visibility:hidden">
    <g
       transform="matrix(1.6196,0,0,1.6196,-144.52,-145.06)"
       id="g1037" />
  </g>
  <g
     style="visibility:hidden"
     transform="matrix(6.3375653,0,0,6.3375653,-683.88652,-913.60163)"
     visibility="hidden"
     id="g1083" />
  <g
     style="visibility:hidden"
     transform="matrix(6.3375653,0,0,6.3375653,-836.76912,-829.04076)"
     visibility="hidden"
     id="g1125" />
  <g
     style="visibility:hidden"
     transform="matrix(6.3375653,0,0,6.3375653,-858.83869,-911.29293)"
     visibility="hidden"
     id="g1161" />
  <g
     style="visibility:hidden"
     transform="matrix(6.3375653,0,0,6.3375653,-687.56478,-441.61815)"
     visibility="hidden"
     id="g1199" />
  <g
     transform="translate(-24.746152,-27.207237)"
     id="g222" />
  <g
     transform="matrix(3.9130435,0,0,3.9130435,-125.12308,-332.89423)"
     id="g186"
     style="fill:#000000;fill-opacity:1" />
  <path
     sodipodi:nodetypes="ccc"
     id="path915"
     d="M 314.93874,684.3199 314.69848,395.17778 314.93874,42.022142"
     inkscape:connector-curvature="0"
     style="fill:none;stroke:#6e6e6e;stroke-width:9.10599;stroke-linecap:round" />
  <g
     transform="matrix(-3.7795276,0,0,3.7795276,493.5791,-36.971534)"
     shvPath="tc/TC02"
     id="g4138-2">
    <g
       transform="matrix(-0.26458333,0,0,0.26458333,154.29468,-68.594502)"
       id="g1006"
       shvPath="">
      <text
         x="437.05072"
         y="611.55383"
         font-size="3.1059px"
         style="font-size:12.1535px;line-height:1.25;font-family:sans-serif;font-variant-ligatures:normal;font-variant-caps:normal;font-variant-numeric:normal;fill:#000000;stroke-width:1.1394"
         xml:space="preserve"
         id="text955-3"><tspan
           sodipodi:role="line"
           id="tspan4"
           x="437.05072"
           y="611.55383"><tspan
             shvAlarmPosition="right"
             x="437.05072"
             y="611.55383"
             font-size="3.1059px"
             style="font-size:16px;font-family:sans-serif;font-variant-ligatures:normal;font-variant-caps:normal;font-variant-numeric:normal;stroke-width:1.1394"
             id="tspan953-6">TC02</tspan></tspan></text>
      <path
         chid="tc"
         style="fill:#ffcc00;fill-opacity:0.241265;stroke:#bf9c0b;stroke-width:2.83516;stroke-linejoin:bevel;stroke-miterlimit:4;stroke-dasharray:none;stroke-opacity:1"
         inkscape:connector-curvature="0"
         id="path887-1"
         d="m 384.58158,625.17933 h 39.29527 v -68.48217 h -39.29527 z" />
    </g>
    <g
       chid="alarm"
       id="g103-9-2"
       visibility="hidden"
       transform="matrix(1.6768141,0,0,1.6768141,-232.34631,-238.7862)"
       style="visibility:hidden" />
  </g>
  <g
     transform="matrix(-3.7795276,0,0,3.7795276,492.35878,-147.32295)"
     shvPath="tc/TC02"
     id="g4138-2-1">
    <g
       transform="matrix(-0.26458333,0,0,0.26458333,154.29468,-68.594502)"
       id="g1006-8"
       shvPath="">
      <text
         x="437.05072"
         y="611.55383"
         font-size="3.1059px"
         style="font-size:12.1535px;line-height:1.25;font-family:sans-serif;font-variant-ligatures:normal;font-variant-caps:normal;font-variant-numeric:normal;fill:#000000;stroke-width:1.1394"
         xml:space="preserve"
         id="text955-3-7"><tspan
           sodipodi:role="line"
           id="tspan4-9"
           x="437.05072"
           y="611.55383"><tspan
             shvAlarmPosition="right"
             x="437.05072"
             y="611.55383"
             font-size="3.1059px"
             style="font-size:16px;font-family:sans-serif;font-variant-ligatures:normal;font-variant-caps:normal;font-variant-numeric:normal;stroke-width:1.1394"
             id="tspan953-6-2">TC03</tspan></tspan></text>
      <path
         chid="tc"
         style="fill:#ffcc00;fill-opacity:0.241265;stroke:#bf9c0b;stroke-width:2.83516;stroke-linejoin:bevel;stroke-miterlimit:4;stroke-dasharray:none;stroke-opacity:1"
         inkscape:connector-curvature="0"
         id="path887-1-0"
         d="m 384.58158,625.17933 h 39.29527 v -68.48217 h -39.29527 z" />
    </g>
    <g
       chid="alarm"
       id="g103-9-2-2"
       visibility="hidden"
       transform="matrix(1.6768141,0,0,1.6768141,-232.34631,-238.7862)"
       style="visibility:hidden" />
  </g>
  <g
     shvPath="tc/TC01"
     id="g1184">
    <path
       chid="tc"
       style="fill:#ffcc00;fill-opacity:0.241265;stroke:#bf9c0b;stroke-width:2.92934;stroke-linejoin:bevel;stroke-miterlimit:4;stroke-dasharray:none;stroke-opacity:1"
       inkscape:connector-curvature="0"
       id="path887"
       d="m 296.32182,544.07469 h 37.30001 v -176.1282 h -37.30001 z" />
    <g
       id="g1174"
       transform="translate(157.30097,-2.2155066)">
      <g
         style="visibility:hidden"
         transform="matrix(6.3375652,0,0,6.3375652,-742.58568,-724.7619)"
         visibility="hidden"
         id="g103-9"
         chid="alarm" />
    </g>
    <text
       x="349.68692"
       y="456.01553"
       font-size="3.1059px"
       style="font-size:12.1535px;line-height:1.25;font-family:sans-serif;font-variant-ligatures:normal;font-variant-caps:normal;font-variant-numeric:normal;fill:#000000;stroke-width:1.1394"
       xml:space="preserve"
       id="text955-3-3"><tspan
         sodipodi:role="line"
         x="349.68692"
         y="456.01553"
         id="tspan5"><tspan
           shvAlarmPosition="right"
           x="349.68692"
           y="456.01553"
           font-size="3.1059px"
           style="font-size:16px;font-family:sans-serif;font-variant-ligatures:normal;font-variant-caps:normal;font-variant-numeric:normal;stroke-width:1.1394"
           id="tspan953-6-5">TC01</tspan></tspan></text>
  </g>
  <g
     transform="matrix(3.7795276,0,0,3.7795276,-171.15691,522.97574)"
     shvVisuType="VetraTransceiver"
     shvPath="vetra/VET01"
     shvType="Vetra"
     id="g4082">
    <g
       style="visibility:hidden"
       transform="matrix(1.6768141,0,0,1.6768141,-157.70294,-300.54342)"
       visibility="hidden"
       id="g103-3-03"
       chid="alarm" />
    <text
       x="136.35406"
       y="34.991837"
       font-size="3.1059px"
       style="font-size:3.21562px;line-height:1.25;font-family:sans-serif;font-variant-ligatures:normal;font-variant-caps:normal;font-variant-numeric:normal;fill:#000000;fill-opacity:1;stroke-width:0.301466"
       xml:space="preserve"
       id="text1152"><tspan
         shvAlarmPosition="top"
         style="fill:#000000;fill-opacity:1;stroke-width:0.301466"
         x="136.35406"
         y="34.991837"
         id="tspan1150">VET01</tspan></text>
    <path
       chid="transceiver"
       id="path1071"
       d="m 125.89976,31.504847 h 5.17667 v 5.176663 h -5.17667 z"
       inkscape:connector-curvature="0"
       style="fill:#ffffff;stroke:#000000;stroke-width:0.273927" />
  </g>
  <g
     id="g1240"
     shvPath="cabinet/ELBOX01"
     transform="translate(42.520554,346.41402)">
    <text
       x="478.05798"
       y="111.64639"
       font-size="3.1059px"
       style="font-size:12.1535px;line-height:1.25;font-family:sans-serif;font-variant-ligatures:normal;font-variant-caps:normal;font-variant-numeric:normal;fill:#000000;stroke-width:1.1394"
       xml:space="preserve"
       id="text955"><tspan
         x="478.05798"
         y="111.64639"
         font-size="3.1059px"
         style="font-size:12.1535px;font-family:sans-serif;font-variant-ligatures:normal;font-variant-caps:normal;font-variant-numeric:normal;stroke-width:1.1394"
         id="tspan953"
         shvAlarmPosition="right">Elbox</tspan></text>
    <g
       id="g1230"
       transform="translate(3.1202814e-6)">
      <path
         id="path1215"
         style="fill:none;stroke:#4d4d4d;stroke-width:1px;stroke-linecap:butt;stroke-linejoin:miter;stroke-opacity:1"
         d="m 470.5261,77.138812 52.85225,22.294318 v 0 0 0 0 m 0.002,-22.288889 -52.87057,22.283889"
         inkscape:connector-curvature="0" />
      <path
         sodipodi:nodetypes="ccccc"
         style="opacity:1;vector-effect:none;fill:#c8beb7;fill-opacity:0.239216;stroke:#4d4d4d;stroke-width:0.909;stroke-linecap:round;stroke-linejoin:bevel;stroke-miterlimit:4;stroke-dasharray:none;stroke-dashoffset:0;stroke-opacity:1"
         inkscape:connector-curvature="0"
         id="path1486-2"
         d="m 523.37835,99.43313 -52.86828,-0.005 0.002,-22.28752 52.86828,0.005 z"
         chid="box" />
      <g
         style="fill:none;stroke:#ff2a2a;stroke-width:0.410168;stroke-miterlimit:4;stroke-dasharray:none"
         id="g1492-3"
         chid="doors"
         transform="matrix(3.5276366e-4,-3.4343434,3.4343434,3.5276366e-4,-229.67423,473.66487)">
        <path
           style="stroke:#ff2a2a;stroke-width:0.410168;stroke-miterlimit:4;stroke-dasharray:none"
           inkscape:connector-curvature="0"
           id="path1488-7"
           d="m 115.48,219.26 5.4427,5.4427 a 7.6971,7.6971 0 0 0 2.2544,-5.4427 7.6971,7.6971 0 0 0 -7.6972,-7.6972 v 7.6972" />
        <path
           style="stroke:#ff2a2a;stroke-width:0.410168;stroke-miterlimit:4;stroke-dasharray:none"
           inkscape:connector-curvature="0"
           id="path1490-5"
           d="m 115.48,203.87 5.4427,-5.4427 a 7.6971,7.6971 0 0 1 2.2544,5.4427 7.6971,7.6971 0 0 1 -7.6972,7.6972 V 203.87" />
      </g>
    </g>
  </g>
  <g
     shvVisuType="VetraData"
     shvPath="vetra/VET01"
     id="g537"
     transform="translate(-25.906133,-1528.8114)">
    <text
       x="502.00565"
       y="2123.8701"
       font-size="3.1059px"
       style="font-size:12.1535px;line-height:1.25;font-family:sans-serif;font-variant-ligatures:normal;font-variant-caps:normal;font-variant-numeric:normal;fill:#000000;stroke-width:1.1394"
       xml:space="preserve"
       id="text1062"><tspan
         style="stroke-width:1.1394"
         x="502.00565"
         y="2123.8701"
         id="tspan1060"
         shvAlarmPosition="right">VET01</tspan></text>
    <rect
       style="fill:none;fill-opacity:0.239216;stroke:#4d4d4d;stroke-width:0.909;stroke-linecap:round;stroke-linejoin:bevel;stroke-miterlimit:4;stroke-dasharray:none;stroke-dashoffset:0;stroke-opacity:1"
       id="rect1044-8"
       width="114.58488"
       height="16.231249"
       x="501.22086"
       y="2161.4321"
       ry="0.16663547" />
    <g
       id="g519">
      <rect
         ry="0.16663547"
         y="2145.2419"
         x="501.29434"
         height="16.231249"
         width="57.19875"
         id="rect1056"
         style="fill:#c8beb7;fill-opacity:0.239216;stroke:#4d4d4d;stroke-width:0.909;stroke-linecap:round;stroke-linejoin:bevel;stroke-miterlimit:4;stroke-dasharray:none;stroke-dashoffset:0;stroke-opacity:1" />
      <rect
         style="fill:#c8beb7;fill-opacity:0.239216;stroke:#4d4d4d;stroke-width:0.909;stroke-linecap:round;stroke-linejoin:bevel;stroke-miterlimit:4;stroke-dasharray:none;stroke-dashoffset:0;stroke-opacity:1"
         id="rect1058"
         width="57.198719"
         height="16.231249"
         x="501.29434"
         y="2129.0107"
         ry="0.16663547" />
      <rect
         ry="0.16663547"
         y="2129.0107"
         x="501.29434"
         height="16.231249"
         width="114.58488"
         id="rect1024"
         style="fill:none;fill-opacity:0.239216;stroke:#4d4d4d;stroke-width:0.909;stroke-linecap:round;stroke-linejoin:bevel;stroke-miterlimit:4;stroke-dasharray:none;stroke-dashoffset:0;stroke-opacity:1" />
      <text
         id="text1099"
         xml:space="preserve"
         style="font-size:45.5752px;line-height:1.25;font-family:sans-serif;fill:#000000;stroke-width:1.1394"
         font-size="11.647px"
         y="2141.1619"
         x="504.61337"><tspan
           id="tspan1097"
           style="font-size:9.11504px;font-family:sans-serif;font-variant-ligatures:normal;font-variant-caps:normal;font-variant-numeric:normal;stroke-width:1.5705"
           font-size="2.3294px"
           y="2141.1619"
           x="504.61337">Tram ID</tspan></text>
      <text
         id="text1107"
         xml:space="preserve"
         style="font-size:12.5217px;line-height:1.25;font-family:sans-serif;text-align:end;text-anchor:end;fill:#0055d4;stroke-width:1.5705"
         font-size="3.2px"
         y="2142.9302"
         x="705.5993"><tspan
           chid="tramId"
           id="tspan1105"
           style="font-size:12.564px;font-family:sans-serif;font-variant-ligatures:normal;font-variant-caps:normal;font-variant-numeric:normal;text-align:end;text-anchor:end;fill:#0055d4;stroke-width:1.5705"
           font-size="3.2108px"
           y="2142.9302"
           x="614.39984">tram-id</tspan></text>
      <rect
         style="fill:none;fill-opacity:0.239216;stroke:#4d4d4d;stroke-width:0.909;stroke-linecap:round;stroke-linejoin:bevel;stroke-miterlimit:4;stroke-dasharray:none;stroke-dashoffset:0;stroke-opacity:1"
         id="rect1044"
         width="114.58488"
         height="16.231249"
         x="501.29434"
         y="2145.2419"
         ry="0.16663547" />
      <text
         x="504.61337"
         y="2157.3931"
         font-size="11.647px"
         style="font-size:45.5752px;line-height:1.25;font-family:sans-serif;fill:#000000;stroke-width:1.1394"
         xml:space="preserve"
         id="text1048"><tspan
           x="504.61337"
           y="2157.3931"
           font-size="2.3294px"
           style="font-size:9.11504px;font-family:sans-serif;font-variant-ligatures:normal;font-variant-caps:normal;font-variant-numeric:normal;stroke-width:1.5705"
           id="tspan1046">Route code</tspan></text>
      <text
         x="642.36481"
         y="2158.2581"
         font-size="3.2px"
         style="font-size:12.5217px;line-height:1.25;font-family:sans-serif;text-align:end;text-anchor:end;fill:#0055d4;stroke-width:1.5705"
         xml:space="preserve"
         id="text1052"><tspan
           x="614.12646"
           y="2158.2581"
           font-size="3.2108px"
           style="font-size:12.564px;font-family:sans-serif;font-variant-ligatures:normal;font-variant-caps:normal;font-variant-numeric:normal;text-align:end;text-anchor:end;fill:#0055d4;stroke-width:1.5705"
           id="tspan1050"
           chid="routeCode">code</tspan></text>
      <text
         x="611.06805"
         y="2173.5635"
         font-size="3.2px"
         style="font-style:normal;font-variant:normal;font-weight:normal;font-stretch:normal;font-size:12.5217px;line-height:1.25;font-family:sans-serif;-inkscape-font-specification:'sans-serif, Normal';font-variant-ligatures:normal;font-variant-caps:normal;font-variant-numeric:normal;font-feature-settings:normal;text-align:end;writing-mode:lr-tb;text-anchor:end;fill:#0055d4;stroke-width:1.5705"
         xml:space="preserve"
         id="text1052-3"><tspan
           chid="direction"
           y="2173.5635"
           x="611.06805"
           id="tspan4971"
           sodipodi:role="line">direction</tspan></text>
      <text
         transform="scale(0.97591347,1.024681)"
         id="text1048-8"
         xml:space="preserve"
         style="font-style:normal;font-variant:normal;font-weight:normal;font-stretch:normal;font-size:10.4677px;line-height:1.25;font-family:sans-serif;-inkscape-font-specification:'sans-serif, Normal';font-variant-ligatures:normal;font-variant-caps:normal;font-variant-numeric:normal;font-feature-settings:normal;text-align:start;writing-mode:lr-tb;text-anchor:start;fill:#000000;stroke-width:0.261699"
         font-size="11.647px"
         y="2120.9377"
         x="517.15741"><tspan
           sodipodi:role="line"
           id="tspan4951"
           x="517.15741"
           y="2120.9377"
           style="stroke-width:0.261699">Direction</tspan></text>
      <rect
         style="fill:#c8beb7;fill-opacity:0.239216;stroke:#4d4d4d;stroke-width:0.909;stroke-linecap:round;stroke-linejoin:bevel;stroke-miterlimit:4;stroke-dasharray:none;stroke-dashoffset:0;stroke-opacity:1"
         id="rect1056-3"
         width="57.19875"
         height="16.231249"
         x="501.22086"
         y="2161.4321"
         ry="0.16663547" />
      <rect
         y="2129.0842"
         x="501.36783"
         height="48.578987"
         width="114.43792"
         id="rect249-3"
         style="opacity:1;fill:none;fill-opacity:1;stroke:#000000;stroke-width:0.807581;stroke-miterlimit:4;stroke-dasharray:none;stroke-dashoffset:0;stroke-opacity:1"
         chid="boundingBox" />
    </g>
  </g>
  <g
     transform="matrix(-3.7795276,0,0,3.7795276,614.28449,-276.10522)"
     shvPath="pme/PME01"
     id="g4254">
    <path
       id="path1524"
       style="fill:#293cfa;fill-opacity:1;stroke:#293cfa;stroke-width:3.5;stroke-linecap:butt;stroke-linejoin:miter;stroke-miterlimit:4;stroke-dasharray:none;stroke-opacity:1"
       d="m 289.74221,322.24128 c 1.14534,3.28549 -0.58957,6.87737 -3.87506,8.02272 -3.28548,1.14535 -6.87736,-0.58957 -8.02271,-3.87505 -1.14535,-3.28549 0.58957,-6.87737 3.87505,-8.02272 3.28549,-1.14535 6.87737,0.58957 8.02272,3.87505 z m -5.94902,2.07346 20.56007,22.79973"
       inkscape:connector-curvature="0"
       chid="leverInSocket"
       transform="matrix(-0.26458333,0,0,0.26458333,162.52944,73.052839)" />
    <path
       chid="posRight"
       style="visibility:hidden;fill:none;stroke:#ff33ff;stroke-width:3.06727;stroke-linecap:round"
       inkscape:connector-curvature="0"
       id="path1019"
       visibility="hidden"
       d="m 59.94323,134.83458 19.658614,18.76117" />
    <path
       chid="posLeft"
       style="visibility:hidden;fill:none;stroke:#ff33ff;stroke-width:3.62364;stroke-linecap:round"
       inkscape:connector-curvature="0"
       id="path1021"
       visibility="hidden"
       d="M 79.323661,153.31757 V 126.1092" />
    <text
       id="text1191-7-3-6-6"
       xml:space="preserve"
       style="font-size:3.21561px;line-height:1.25;font-family:sans-serif;font-variant-ligatures:normal;font-variant-caps:normal;font-variant-numeric:normal;fill:#000000;stroke-width:0.301466"
       font-size="3.1059px"
       y="161.31702"
       x="-103.4631"
       transform="scale(-1,1)"><tspan
         sodipodi:role="line"
         id="tspan2-2"
         x="-103.4631"
         y="161.31702"
         style="stroke-width:0.301466"><tspan
           shvAlarmPosition="right"
           id="tspan1189-5-1-1-6"
           y="161.31702"
           x="-103.4631"
           style="stroke-width:0.301466"
           transform="translate(0.06385386)">PME01</tspan></tspan></text>
    <path
       chid="box"
       style="fill:#28a638;fill-opacity:0.44758;stroke:#000000;stroke-width:0.273927"
       inkscape:connector-curvature="0"
       id="path1017"
       d="m 74.022792,160.19214 h 10.35326 v 10.35326 h -10.35326 z" />
  </g>
  <g
     transform="translate(-326.65119,198.29209)"
     shvPath="ppi/PPI01"
     id="g383-3-7">
    <text
       x="486.54568"
       y="286.46494"
       font-size="3.1059px"
       style="font-size:12.1535px;line-height:1.25;font-family:sans-serif;font-variant-ligatures:normal;font-variant-caps:normal;font-variant-numeric:normal;fill:#000000;stroke-width:1.1394"
       xml:space="preserve"
       id="text1005-7-6-5"><tspan
         x="486.54568"
         y="286.46494"
         font-size="3.1059px"
         style="font-size:16px;font-family:sans-serif;font-variant-ligatures:normal;font-variant-caps:normal;font-variant-numeric:normal;stroke-width:1.1394"
         id="tspan1003-5-7-3"
         shvAlarmPosition="right">PPI01</tspan></text>
    <g
       id="g1097-3-5-5"
       transform="translate(-11.308505,-43.202295)">
      <path
         inkscape:connector-curvature="0"
         chid="chambers"
         id="path981-56-3-6"
         d="m 468.63477,192.13086 a 19.565218,19.565218 0 0 0 -19.11719,19.68359 19.565218,19.565218 0 0 0 18.53906,19.64453 19.565217,19.565217 0 0 0 -18.53906,19.64063 19.565217,19.565217 0 0 0 17.33594,19.53906 19.565217,19.565217 0 0 0 -17.33594,19.55274 19.56543,19.56543 0 1 0 39.13086,0 19.565217,19.565217 0 0 0 -17.33594,-19.53907 19.565217,19.565217 0 0 0 17.33594,-19.55273 19.565217,19.565217 0 0 0 -18.53516,-19.64453 19.565218,19.565218 0 0 0 18.53516,-19.64063 19.565218,19.565218 0 0 0 -20.01367,-19.68359 z"
         style="fill:#000000;fill-opacity:1;stroke:#000000;stroke-width:1.03531;stroke-opacity:1" />
      <path
         transform="matrix(3.9130435,0,0,3.9130435,-100.37692,-305.68699)"
         style="fill:#ffffff;fill-opacity:1;stroke:#000000;stroke-width:0.26458"
         inkscape:connector-curvature="0"
         d="m 145.55,131.22 -2.1225,-2.1225 -1.0606,1.0606 2.1225,2.1225 -2.1225,2.1225 1.0606,1.0606 2.1225,-2.1225 2.1225,2.1225 1.0606,-1.0606 -2.1225,-2.1225 2.1225,-2.1225 -1.0606,-1.0606 z"
         id="path1001-9-5-2"
         chid="symbol/cross" />
      <g
         transform="matrix(3.9130435,0,0,3.9130435,-100.37692,-305.68699)"
         id="g183-06-9-9"
         style="fill:#000000;fill-opacity:1">
        <path
           id="path997-2-3-1"
           d="m 145.67967,157.28 v 5"
           inkscape:connector-curvature="0"
           style="fill:#000000;fill-opacity:1;stroke:#000000;stroke-width:0.26458" />
        <path
           id="path999-61-6-2"
           d="m 140.54,162.28 h 9.9998"
           inkscape:connector-curvature="0"
           style="fill:#000000;fill-opacity:1;stroke:#000000;stroke-width:0.26458" />
      </g>
      <path
         chid="symbol/right"
         inkscape:connector-curvature="0"
         d="m 486.23117,290.20712 -24.73363,-17.15617 -3.3511,4.83129 17.76804,12.32436 -17.76804,12.32437 3.3511,4.83129 z"
         id="path989-3-7-7"
         style="fill:#ffffff;fill-opacity:1;stroke:#000000;stroke-width:1.035;stroke-miterlimit:4;stroke-dasharray:none;stroke-opacity:1" />
      <path
         chid="symbol/straight"
         transform="matrix(1.035313,0,0,1.035313,-198.57083,-382.02264)"
         inkscape:connector-curvature="0"
         d="m 645.47789,594.7 -16.571,23.89 4.6665,3.2368 11.904,-17.162 11.904,17.162 4.6665,-3.2368 z"
         id="path983-0-1-0"
         style="fill:#ffffff;fill-opacity:1;stroke:#000000;stroke-opacity:1" />
    </g>
  </g>
  <path
     inkscape:connector-curvature="0"
     style="fill:none;stroke:#6e6e6e;stroke-width:6.55374;stroke-linecap:round"
     d="M 314.6212,191.27827 181.29477,66.919109"
     id="path919-3"
     sodipodi:nodetypes="cc" />
  <g
     transform="translate(-200.36343,-440.61464)"
     shvPath="pme/PME02"
     id="g1225">
    <path
       id="path1524-9"
       style="fill:#293cfa;fill-opacity:1;stroke:#293cfa;stroke-width:3.5;stroke-linecap:butt;stroke-linejoin:miter;stroke-miterlimit:4;stroke-dasharray:none;stroke-opacity:1"
       d="m 492.98122,657.67424 c 1.14534,3.28549 -0.58957,6.87737 -3.87506,8.02272 -3.28548,1.14535 -6.87736,-0.58957 -8.02271,-3.87505 -1.14535,-3.28549 0.58957,-6.87737 3.87505,-8.02272 3.28549,-1.14535 6.87737,0.58957 8.02272,3.87505 z m -5.94902,2.07346 20.56007,22.79973"
       inkscape:connector-curvature="0"
       chid="leverInSocket" />
    <g
       id="g1216">
      <path
         chid="box"
         style="fill:#28a638;fill-opacity:0.44758;stroke:#000000;stroke-width:1.03531"
         inkscape:connector-curvature="0"
         id="path1017-4"
         d="m 494.56605,660.20122 h 39.13044 v 39.1304 h -39.13043 z" />
      <path
         chid="posLeft"
         style="fill:none;stroke:#ff33ff;stroke-width:13.6957;stroke-linecap:round"
         inkscape:connector-curvature="0"
         id="path1019-5"
         d="M 513.46681,634.72662 457.7568,578.92752" />
      <path
         chid="posRight"
         style="fill:none;stroke:#ff33ff;stroke-width:15.0852;stroke-linecap:round"
         inkscape:connector-curvature="0"
         id="path1021-0"
         d="M 514.60085,634.67365 V 544.31419" />
    </g>
    <text
       id="text1191-7-3-6"
       xml:space="preserve"
       style="font-size:12.1535px;line-height:1.25;font-family:sans-serif;font-variant-ligatures:normal;font-variant-caps:normal;font-variant-numeric:normal;fill:#000000;stroke-width:1.1394"
       font-size="3.1059px"
       y="671.15253"
       x="429.51721"><tspan
         sodipodi:role="line"
         id="tspan2"
         x="429.51721"
         y="671.15253"><tspan
           shvAlarmPosition="right"
           id="tspan1189-5-1-1"
           y="671.15253"
           x="429.51721"
           style="stroke-width:1.1394"
           transform="translate(0.06385386)">PME02</tspan></tspan></text>
  </g>
  <g
     transform="translate(-325.7188,15.759333)"
     shvPath="ppi/PPI02"
     id="g383-3">
    <text
       x="486.54568"
       y="286.46494"
       font-size="3.1059px"
       style="font-size:12.1535px;line-height:1.25;font-family:sans-serif;font-variant-ligatures:normal;font-variant-caps:normal;font-variant-numeric:normal;fill:#000000;stroke-width:1.1394"
       xml:space="preserve"
       id="text1005-7-6"><tspan
         x="486.54568"
         y="286.46494"
         font-size="3.1059px"
         style="font-size:16px;font-family:sans-serif;font-variant-ligatures:normal;font-variant-caps:normal;font-variant-numeric:normal;stroke-width:1.1394"
         id="tspan1003-5-7"
         shvAlarmPosition="right">PPI02</tspan></text>
    <g
       id="g1097-3-5"
       transform="translate(-11.308505,-43.202295)">
      <path
         inkscape:connector-curvature="0"
         chid="chambers"
         id="path981-56-3"
         d="m 468.63477,192.13086 a 19.565218,19.565218 0 0 0 -19.11719,19.68359 19.565218,19.565218 0 0 0 18.53906,19.64453 19.565217,19.565217 0 0 0 -18.53906,19.64063 19.565217,19.565217 0 0 0 17.33594,19.53906 19.565217,19.565217 0 0 0 -17.33594,19.55274 19.56543,19.56543 0 1 0 39.13086,0 19.565217,19.565217 0 0 0 -17.33594,-19.53907 19.565217,19.565217 0 0 0 17.33594,-19.55273 19.565217,19.565217 0 0 0 -18.53516,-19.64453 19.565218,19.565218 0 0 0 18.53516,-19.64063 19.565218,19.565218 0 0 0 -20.01367,-19.68359 z"
         style="fill:#000000;fill-opacity:1;stroke:#000000;stroke-width:1.03531;stroke-opacity:1" />
      <path
         transform="matrix(3.9130435,0,0,3.9130435,-100.37692,-305.68699)"
         style="fill:#ffffff;fill-opacity:1;stroke:#000000;stroke-width:0.26458"
         inkscape:connector-curvature="0"
         d="m 145.55,131.22 -2.1225,-2.1225 -1.0606,1.0606 2.1225,2.1225 -2.1225,2.1225 1.0606,1.0606 2.1225,-2.1225 2.1225,2.1225 1.0606,-1.0606 -2.1225,-2.1225 2.1225,-2.1225 -1.0606,-1.0606 z"
         id="path1001-9-5"
         chid="symbol/cross" />
      <g
         transform="matrix(3.9130435,0,0,3.9130435,-100.37692,-305.68699)"
         id="g183-06-9"
         style="fill:#000000;fill-opacity:1">
        <path
           id="path997-2-3"
           d="m 145.67967,157.28 v 5"
           inkscape:connector-curvature="0"
           style="fill:#000000;fill-opacity:1;stroke:#000000;stroke-width:0.26458" />
        <path
           id="path999-61-6"
           d="m 140.54,162.28 h 9.9998"
           inkscape:connector-curvature="0"
           style="fill:#000000;fill-opacity:1;stroke:#000000;stroke-width:0.26458" />
      </g>
      <path
         chid="symbol/left"
         transform="matrix(1.035313,0,0,1.035313,-198.57083,-382.02264)"
         inkscape:connector-curvature="0"
         d="m 628.66789,649.3 23.89,16.571 3.2368,-4.6665 -17.162,-11.904 17.162,-11.904 -3.2368,-4.6665 z"
         id="path989-3-7"
         style="fill:#ffffff;fill-opacity:1;stroke:#000000;stroke-width:0.999698;stroke-miterlimit:4;stroke-dasharray:none;stroke-opacity:1" />
      <path
         chid="symbol/straight"
         transform="matrix(1.035313,0,0,1.035313,-198.57083,-382.02264)"
         inkscape:connector-curvature="0"
         d="m 645.47789,594.7 -16.571,23.89 4.6665,3.2368 11.904,-17.162 11.904,17.162 4.6665,-3.2368 z"
         id="path983-0-1"
         style="fill:#ffffff;fill-opacity:1;stroke:#000000;stroke-opacity:1" />
    </g>
  </g>
  <g
     id="g2617-8-4-9-8-9"
     shvPath="heating/HT01/rod/1"
     transform="rotate(-90,192.10699,923.85083)"
     style="display:inline">
    <path
       style="fill:none;stroke:#000000;stroke-width:0.664957"
       inkscape:connector-curvature="0"
       d="m 864.49053,1016.5088 10e-6,4.2834 h 22.11968 l 10e-6,-4.2835 z"
       id="path1133-3-6-4-8-8"
       chid="rod" />
    <text
       transform="rotate(90)"
       id="text1191-7-3-6-9-5-40-8-9-8"
       xml:space="preserve"
       style="font-size:13.3333px;line-height:1.25;font-family:sans-serif;font-variant-ligatures:normal;font-variant-caps:normal;font-variant-numeric:normal;fill:#000000;stroke-width:1.1394;-inkscape-font-specification:'sans-serif, Normal';font-weight:normal;font-style:normal;font-stretch:normal;font-variant:normal;font-variant-east-asian:normal"
       font-size="3.1059px"
       y="-869.66541"
       x="1006.6395"><tspan
         shvAlarmPosition="left"
         id="tspan1189-5-1-1-2-7-9-8-5-0"
         y="-869.66541"
         x="1006.6395"
         style="font-size:13.33333333px;stroke-width:1.1394;-inkscape-font-specification:'sans-serif, Normal';font-family:sans-serif;font-weight:normal;font-style:normal;font-stretch:normal;font-variant:normal;font-variant-ligatures:normal;font-variant-caps:normal;font-variant-numeric:normal;font-variant-east-asian:normal">1</tspan></text>
  </g>
  <g
     id="g2617-8-4-9-8-9-3"
     shvPath="heating/HT01/rod/2"
     transform="rotate(-90,246.96285,976.60929)"
     style="display:inline">
    <path
       style="fill:none;stroke:#000000;stroke-width:0.664957"
       inkscape:connector-curvature="0"
       d="m 864.49053,1016.5088 10e-6,4.2834 h 22.11968 l 10e-6,-4.2835 z"
       id="path1133-3-6-4-8-8-6"
       chid="rod" />
    <text
       transform="rotate(90)"
       id="text1191-7-3-6-9-5-40-8-9-8-7"
       xml:space="preserve"
       style="font-size:12.1535px;line-height:1.25;font-family:sans-serif;font-variant-ligatures:normal;font-variant-caps:normal;font-variant-numeric:normal;fill:#000000;stroke-width:1.1394"
       font-size="3.1059px"
       y="-869.66541"
       x="1006.0208"><tspan
         shvAlarmPosition="left"
         id="tspan1189-5-1-1-2-7-9-8-5-0-5"
         y="-869.66541"
         x="1006.0208"
         style="font-style:normal;font-variant:normal;font-weight:normal;font-stretch:normal;font-size:13.3333px;font-family:Sans;-inkscape-font-specification:'Sans, Normal';font-variant-ligatures:normal;font-variant-caps:normal;font-variant-numeric:normal;font-variant-east-asian:normal;stroke-width:1.1394">2</tspan></text>
  </g>
  <g
     id="g2617-8-4-9-8-9-35"
     shvPath="heating/HT01/rod/3"
     transform="rotate(-90,218.11834,897.20311)"
     style="display:inline">
    <path
       style="fill:none;stroke:#000000;stroke-width:0.664957"
       inkscape:connector-curvature="0"
       d="m 864.49053,1016.5088 10e-6,4.2834 h 22.11968 l 10e-6,-4.2835 z"
       id="path1133-3-6-4-8-8-62"
       chid="rod" />
    <text
       transform="rotate(90)"
       id="text1191-7-3-6-9-5-40-8-9-8-9"
       xml:space="preserve"
       style="font-size:13.3333px;line-height:1.25;font-family:Sans;font-variant-ligatures:normal;font-variant-caps:normal;font-variant-numeric:normal;fill:#000000;stroke-width:1.1394;-inkscape-font-specification:'Sans, Normal';font-weight:normal;font-style:normal;font-stretch:normal;font-variant:normal;font-variant-east-asian:normal"
       font-size="3.1059px"
       y="-870.16541"
       x="1023.3895"><tspan
         shvAlarmPosition="right"
         id="tspan1189-5-1-1-2-7-9-8-5-0-1"
         y="-870.16541"
         x="1023.3895"
         style="font-size:13.33333333px;stroke-width:1.1394;-inkscape-font-specification:'Sans, Normal';font-family:Sans;font-weight:normal;font-style:normal;font-stretch:normal;font-variant:normal;font-variant-ligatures:normal;font-variant-caps:normal;font-variant-numeric:normal;font-variant-east-asian:normal">3</tspan></text>
  </g>
  <g
     id="g2617-8-4-9-8-9-35-2"
     shvPath="heating/HT01/rod/4"
     transform="rotate(-90,272.76445,950.76573)"
     style="display:inline">
    <path
       style="fill:none;stroke:#000000;stroke-width:0.664957"
       inkscape:connector-curvature="0"
       d="m 864.49053,1016.5088 10e-6,4.2834 h 22.11968 l 10e-6,-4.2835 z"
       id="path1133-3-6-4-8-8-62-7"
       chid="rod" />
    <text
       transform="rotate(90)"
       id="text1191-7-3-6-9-5-40-8-9-8-9-0"
       xml:space="preserve"
       style="font-size:13.3333px;line-height:1.25;font-family:Sans;font-variant-ligatures:normal;font-variant-caps:normal;font-variant-numeric:normal;fill:#000000;stroke-width:1.1394;-inkscape-font-specification:'Sans, Normal';font-weight:normal;font-style:normal;font-stretch:normal;font-variant:normal;font-variant-east-asian:normal"
       font-size="3.1059px"
       y="-870.16541"
       x="1023.3895"><tspan
         shvAlarmPosition="right"
         id="tspan1189-5-1-1-2-7-9-8-5-0-1-9"
         y="-870.16541"
         x="1023.3895"
         style="font-size:13.33333333px;stroke-width:1.1394;-inkscape-font-specification:'Sans, Normal';font-family:Sans;font-weight:normal;font-style:normal;font-stretch:normal;font-variant:normal;font-variant-ligatures:normal;font-variant-caps:normal;font-variant-numeric:normal;font-variant-east-asian:normal">4</tspan></text>
  </g>
</svg>
