<?xml version="1.0" encoding="UTF-8" standalone="no"?>
<svg
   id="svg-container"
   width="770.2005"
   height="369.71274"
   version="1.1"
   viewBox="0 0 770.20056 369.71276"
   sodipodi:docname="site2.svg"
   inkscape:version="1.2.2 (732a01da63, 2022-12-09)"
   xmlns:inkscape="http://www.inkscape.org/namespaces/inkscape"
   xmlns:sodipodi="http://sodipodi.sourceforge.net/DTD/sodipodi-0.dtd"
   xmlns="http://www.w3.org/2000/svg"
   xmlns:svg="http://www.w3.org/2000/svg"
   xmlns:rdf="http://www.w3.org/1999/02/22-rdf-syntax-ns#"
   xmlns:cc="http://creativecommons.org/ns#"
   xmlns:dc="http://purl.org/dc/elements/1.1/">
  <sodipodi:namedview
     inkscape:snap-nodes="false"
     inkscape:pagecheckerboard="true"
     inkscape:snap-text-baseline="true"
     inkscape:guide-bbox="true"
     showguides="true"
     pagecolor="#ffffff"
     bordercolor="#666666"
     borderopacity="1"
     objecttolerance="10"
     gridtolerance="10"
     guidetolerance="10"
     inkscape:pageopacity="0"
     inkscape:pageshadow="2"
     inkscape:window-width="1920"
     inkscape:window-height="1017"
     id="namedview1252"
     showgrid="false"
     inkscape:zoom="0.59131812"
     inkscape:cx="-217.31112"
     inkscape:cy="302.71354"
     inkscape:window-x="-8"
     inkscape:window-y="-8"
     inkscape:window-maximized="1"
     inkscape:current-layer="layerPME"
     fit-margin-top="0"
     fit-margin-left="0"
     fit-margin-right="0"
     fit-margin-bottom="0"
     inkscape:document-rotation="0"
     inkscape:snap-bbox="false"
     inkscape:showpageshadow="2"
     inkscape:deskcolor="#d1d1d1">
    <inkscape:grid
       id="grid1049"
       type="xygrid"
       originx="-355.48537"
       originy="3185.739" />
  </sodipodi:namedview>
  <defs
     id="defs849">
    <linearGradient
       id="linearGradient1449"
       inkscape:swatch="solid">
      <stop
         id="stop1447"
         offset="0"
         style="stop-color:#848484;stop-opacity:1;" />
    </linearGradient>
  </defs>
  <metadata
     id="metadata851">
    <rdf:RDF>
      <cc:Work
         rdf:about="">
        <dc:format>image/svg+xml</dc:format>
        <dc:type
           rdf:resource="http://purl.org/dc/dcmitype/StillImage" />
      </cc:Work>
    </rdf:RDF>
  </metadata>
  <style
     id="style853">.redChange { 0% }
.whiteChange { 0% }
.blueChange { 0% }
.white { 50% }
.blue { 100% }
.white {   }
.blue-blinking { animation: blueChange 1s infinite; }
.red-blinking { animation: redChange 1s infinite; }
.white-blinking { animation: whiteChange 1s infinite; }
</style>
  <g
     inkscape:label="layerTracks"
     id="layerTracks"
     inkscape:groupmode="layer"
     style="display:inline"
     transform="translate(-578.96072,-1276.4729)">
    <path
       id="path913-86"
       d="m 583.51444,1488.3478 492.92286,-0.5016 192.0145,0.5016"
       inkscape:connector-curvature="0"
       style="display:inline;fill:none;stroke:#6e6e6e;stroke-width:9.10744;stroke-linecap:round"
       sodipodi:nodetypes="ccc" />
    <path
       sodipodi:nodetypes="cc"
       id="path919"
       d="m 1096.4924,1487.8683 c 52.1572,51.2533 104.3144,102.5065 156.4716,153.7598"
       style="display:inline;fill:none;stroke:#6e6e6e;stroke-width:9.11504;stroke-linecap:round"
       inkscape:connector-curvature="0" />
    <path
       sodipodi:nodetypes="cc"
       id="path919-6"
       d="m 1268.4518,1488.3478 67.4115,66.5739"
       style="display:inline;fill:none;stroke:#6e6e6e;stroke-width:9.11504;stroke-linecap:round"
       inkscape:connector-curvature="0" />
  </g>
  <g
     inkscape:label="layerZone"
     id="layerZone"
     inkscape:groupmode="layer"
     style="display:inline"
     transform="translate(-578.96072,-1276.4729)" />
  <g
     inkscape:label="layerGate"
     id="layerGate"
     inkscape:groupmode="layer"
     style="display:inline"
     transform="translate(-578.96072,-1276.4729)">
    <g
       transform="matrix(1,0,0,-1,16.79554,1608.6565)"
       shvVisuType="Gate"
       shvPath="devices/zone/Z01/gate/G01"
       id="g5588"
       shvDeviceType="Gate_G3">
      <text
         id="text5584"
         xml:space="preserve"
         style="font-size:12.1535px;line-height:1.25;font-family:sans-serif;font-variant-ligatures:normal;font-variant-caps:normal;font-variant-numeric:normal;fill:#000000;stroke-width:1.1394"
         font-size="3.1059px"
         y="-151.48523"
         x="705.89429"
         transform="scale(1,-1)"><tspan
           shvAlarmPosition="right"
           id="tspan5582"
           style="font-size:16px;font-family:sans-serif;font-variant-ligatures:normal;font-variant-caps:normal;font-variant-numeric:normal;stroke-width:1.1394"
           font-size="3.1059px"
           y="-151.48523"
           x="705.89429">G01</tspan></text>
      <path
         chid="gate"
         inkscape:connector-curvature="0"
         d="m 724.6728,141.54674 10.55368,-0.008 -0.0337,-42.229534 -10.5537,0.008"
         style="display:inline;fill:none;stroke:#cc0033;stroke-width:3.895;stroke-miterlimit:4;stroke-dasharray:none"
         id="path5586" />
    </g>
    <g
       transform="rotate(-135,1155.2056,575.99093)"
       shvPath="devices/cabinet/TRX01"
       id="g1240"
       style="display:inline">
      <text
         id="text955"
         xml:space="preserve"
         style="font-size:12.1535px;line-height:1.25;font-family:sans-serif;font-variant-ligatures:normal;font-variant-caps:normal;font-variant-numeric:normal;fill:#000000;stroke-width:1.1394"
         font-size="3.1059px"
         y="-392.30936"
         x="-350.09409"
         transform="rotate(135)"><tspan
           shvAlarmPosition="right"
           id="tspan953"
           style="font-size:16px;font-family:sans-serif;font-variant-ligatures:normal;font-variant-caps:normal;font-variant-numeric:normal;stroke-width:1.1394"
           font-size="3.1059px"
           y="-392.30936"
           x="-350.09409">TRX01</tspan></text>
      <g
         transform="rotate(180,460.95529,65.068728)"
         id="g1230">
        <path
           inkscape:connector-curvature="0"
           d="m 470.5261,77.138812 52.85225,22.294318 v 0 0 0 0 m 0.002,-22.288889 -52.87057,22.283889"
           style="fill:none;stroke:#4d4d4d;stroke-width:1px;stroke-linecap:butt;stroke-linejoin:miter;stroke-opacity:1"
           id="path1215" />
        <path
           chid="box"
           d="m 523.37835,99.43313 -52.86828,-0.005 0.002,-22.28752 52.86828,0.005 z"
           id="path1486"
           inkscape:connector-curvature="0"
           style="opacity:1;vector-effect:none;fill:#c8beb7;fill-opacity:0.239216;stroke:#4d4d4d;stroke-width:0.909;stroke-linecap:round;stroke-linejoin:bevel;stroke-miterlimit:4;stroke-dasharray:none;stroke-dashoffset:0;stroke-opacity:1"
           sodipodi:nodetypes="ccccc" />
        <g
           transform="matrix(3.5276366e-4,-3.4343434,3.4343434,3.5276366e-4,-229.67423,473.66487)"
           chid="doors"
           id="g1492"
           style="fill:none;stroke:#ff2a2a;stroke-width:0.410168;stroke-miterlimit:4;stroke-dasharray:none">
          <path
             d="m 115.48,219.26 5.4427,5.4427 a 7.6971,7.6971 0 0 0 2.2544,-5.4427 7.6971,7.6971 0 0 0 -7.6972,-7.6972 v 7.6972"
             id="path1488"
             inkscape:connector-curvature="0"
             style="stroke:#ff2a2a;stroke-width:0.410168;stroke-miterlimit:4;stroke-dasharray:none" />
          <path
             d="m 115.48,203.87 5.4427,-5.4427 a 7.6971,7.6971 0 0 1 2.2544,5.4427 7.6971,7.6971 0 0 1 -7.6972,7.6972 V 203.87"
             id="path1490"
             inkscape:connector-curvature="0"
             style="stroke:#ff2a2a;stroke-width:0.410168;stroke-miterlimit:4;stroke-dasharray:none" />
        </g>
      </g>
    </g>
    <g
       transform="matrix(1,0,0,-1,262.05044,2530.5995)"
       shvPath="devices/heating/HT01/contactor/K1/rod/PM01_HRR"
       id="g2617">
      <path
         chid="rod"
         id="path1133"
         d="m 771.24407,1014.8395 v 3.913 h 58.69562 v -3.913 z"
         inkscape:connector-curvature="0"
         style="fill:none;stroke:#000000;stroke-width:1.03531" />
      <text
         x="744.84015"
         y="-992.88531"
         font-size="3.1059px"
         style="font-size:12.1535px;line-height:1.25;font-family:sans-serif;font-variant-ligatures:normal;font-variant-caps:normal;font-variant-numeric:normal;fill:#000000;stroke-width:1.1394"
         xml:space="preserve"
         id="text1191-7-3-6-9"
         transform="scale(1,-1)"><tspan
           style="font-size:16px;stroke-width:1.1394"
           x="744.84015"
           y="-992.88531"
           id="tspan1189-5-1-1-2"
           shvAlarmPosition="right">PM01_HRR</tspan></text>
    </g>
    <g
       id="g2617-5"
       shvPath="devices/heating/HT01/contactor/K1/rod/PM01_HRL"
       transform="matrix(1,0,0,-1,192.40124,2524.9658)">
      <path
         style="fill:none;stroke:#000000;stroke-width:1.03531"
         inkscape:connector-curvature="0"
         d="m 840.89324,1060.2493 v 3.913 h 58.69562 v -3.913 z"
         id="path1133-1"
         chid="rod" />
      <text
         id="text1191-7-3-6-9-2"
         xml:space="preserve"
         style="font-size:12.1535px;line-height:1.25;font-family:sans-serif;font-variant-ligatures:normal;font-variant-caps:normal;font-variant-numeric:normal;fill:#000000;stroke-width:1.1394"
         font-size="3.1059px"
         y="-1077.9889"
         x="814.4895"
         transform="scale(1,-1)"><tspan
           shvAlarmPosition="right"
           id="tspan1189-5-1-1-2-8"
           y="-1077.9889"
           x="814.4895"
           style="font-size:16px;stroke-width:1.1394">PM01_HRL</tspan></text>
    </g>
    <g
       transform="matrix(1,0,0,-1,299.10537,2328.4292)"
       shvPath="devices/heating/HT01/contactor/K1/rod/PM02_HRR"
       id="g2617-9"
       style="display:inline">
      <path
         chid="rod"
         id="path1133-11"
         d="m 771.24407,1005.4988 v 3.913 h 58.69562 v -3.913 z"
         inkscape:connector-curvature="0"
         style="fill:none;stroke:#000000;stroke-width:1.03531" />
      <text
         x="744.84015"
         y="-987.20551"
         font-size="3.1059px"
         style="font-size:12.1535px;line-height:1.25;font-family:sans-serif;font-variant-ligatures:normal;font-variant-caps:normal;font-variant-numeric:normal;fill:#000000;stroke-width:1.1394"
         xml:space="preserve"
         id="text1191-7-3-6-9-22"
         transform="scale(1,-1)"><tspan
           style="font-size:16px;stroke-width:1.1394"
           x="744.84015"
           y="-987.20551"
           id="tspan1189-5-1-1-2-0"
           shvAlarmPosition="right">PM02_HRR</tspan></text>
    </g>
    <g
       id="g2617-5-3"
       shvPath="devices/heating/HT01/contactor/K1/rod/PM02_HRL"
       transform="matrix(1,0,0,-1,229.4562,2368.8907)"
       style="display:inline">
      <path
         style="fill:none;stroke:#000000;stroke-width:1.03531"
         inkscape:connector-curvature="0"
         d="m 840.89324,1060.2493 v 3.913 h 58.69562 v -3.913 z"
         id="path1133-1-5"
         chid="rod" />
      <text
         id="text1191-7-3-6-9-2-9"
         xml:space="preserve"
         style="font-size:12.1535px;line-height:1.25;font-family:sans-serif;font-variant-ligatures:normal;font-variant-caps:normal;font-variant-numeric:normal;fill:#000000;stroke-width:1.1394"
         font-size="3.1059px"
         y="-1074.076"
         x="816.31744"
         transform="scale(1,-1)"><tspan
           shvAlarmPosition="right"
           id="tspan1189-5-1-1-2-8-8"
           y="-1074.076"
           x="816.31744"
           style="font-size:16px;stroke-width:1.1394">PM02_HRL</tspan></text>
    </g>
    <g
       id="g2617-5-3-2"
       shvPath="devices/heating/HT01/contactor/K1/rod/PM03_HRL"
       transform="matrix(1,0,0,-1,341.18713,2368.8907)"
       style="display:inline">
      <path
         style="fill:none;stroke:#000000;stroke-width:1.03531"
         inkscape:connector-curvature="0"
         d="m 840.89324,1060.2493 v 3.913 h 58.69562 v -3.913 z"
         id="path1133-1-5-1"
         chid="rod" />
      <text
         id="text1191-7-3-6-9-2-9-1"
         xml:space="preserve"
         style="font-size:12.1535px;line-height:1.25;font-family:sans-serif;font-variant-ligatures:normal;font-variant-caps:normal;font-variant-numeric:normal;fill:#000000;stroke-width:1.1394"
         font-size="3.1059px"
         y="-1074.0759"
         x="814.4895"
         transform="scale(1,-1)"><tspan
           shvAlarmPosition="right"
           id="tspan1189-5-1-1-2-8-8-7"
           y="-1074.0759"
           x="814.4895"
           style="font-size:16px;stroke-width:1.1394">PM03_HRL</tspan></text>
    </g>
    <g
       transform="matrix(1,0,0,-1,410.83689,2337.7703)"
       shvPath="devices/heating/HT01/contactor/K1/rod/PM03_HRR"
       id="g2617-7"
       style="display:inline">
      <path
         chid="rod"
         id="path1133-5"
         d="m 771.24407,1014.8395 v 3.913 h 58.69562 v -3.913 z"
         inkscape:connector-curvature="0"
         style="fill:none;stroke:#000000;stroke-width:1.03531" />
      <text
         x="744.84015"
         y="-996.54657"
         font-size="3.1059px"
         style="font-size:12.1535px;line-height:1.25;font-family:sans-serif;font-variant-ligatures:normal;font-variant-caps:normal;font-variant-numeric:normal;fill:#000000;stroke-width:1.1394"
         xml:space="preserve"
         id="text1191-7-3-6-9-5"
         transform="scale(1,-1)"><tspan
           style="font-size:16px;stroke-width:1.1394"
           x="744.84015"
           y="-996.54657"
           id="tspan1189-5-1-1-2-05"
           shvAlarmPosition="right">PM03_HRR</tspan></text>
    </g>
    <g
       transform="matrix(1,0,0,-1,518.70385,2337.8138)"
       shvPath="devices/heating/HT01/contactor/K1/rod/PM04_HRR"
       id="g2617-75"
       style="display:inline">
      <path
         chid="rod"
         id="path1133-2"
         d="m 771.24407,1014.8395 v 3.913 h 58.69562 v -3.913 z"
         inkscape:connector-curvature="0"
         style="fill:none;stroke:#000000;stroke-width:1.03531" />
      <text
         x="744.84015"
         y="-996.44678"
         font-size="3.1059px"
         style="font-size:12.1535px;line-height:1.25;font-family:sans-serif;font-variant-ligatures:normal;font-variant-caps:normal;font-variant-numeric:normal;fill:#000000;stroke-width:1.1394"
         xml:space="preserve"
         id="text1191-7-3-6-9-0"
         transform="scale(1,-1)"><tspan
           style="font-size:16px;stroke-width:1.1394"
           x="744.84015"
           y="-996.44678"
           id="tspan1189-5-1-1-2-9"
           shvAlarmPosition="right">PM04_HRR</tspan></text>
    </g>
    <g
       id="g2617-5-0"
       shvPath="devices/heating/HT01/contactor/K1/rod/PM04_HRL"
       transform="matrix(1,0,0,-1,449.05465,2368.1801)"
       style="display:inline">
      <path
         style="fill:none;stroke:#000000;stroke-width:1.03531"
         inkscape:connector-curvature="0"
         d="m 840.89324,1060.2493 v 3.913 h 58.69562 v -3.913 z"
         id="path1133-1-80"
         chid="rod" />
      <text
         id="text1191-7-3-6-9-2-4"
         xml:space="preserve"
         style="font-size:12.1535px;line-height:1.25;font-family:sans-serif;font-variant-ligatures:normal;font-variant-caps:normal;font-variant-numeric:normal;fill:#000000;stroke-width:1.1394"
         font-size="3.1059px"
         y="-1074.0759"
         x="814.48907"
         transform="scale(1,-1)"><tspan
           shvAlarmPosition="right"
           id="tspan1189-5-1-1-2-8-51"
           y="-1074.0759"
           x="814.48907"
           style="font-size:16px;stroke-width:1.1394">PM04_HRL</tspan></text>
    </g>
    <g
       id="g4446"
       transform="matrix(3.7795276,0,0,3.7795276,352.83001,521.17294)"
       shvPath="devices/zone/Z01"
       shvVisuType="zoneStatusText"
       style="display:inline;stroke-width:14.2848">
      <text
         xml:space="preserve"
         style="font-style:normal;font-variant:normal;font-weight:normal;font-stretch:normal;font-size:4.37095px;line-height:1.25;font-family:sans-serif;font-variant-ligatures:normal;font-variant-position:normal;font-variant-caps:normal;font-variant-numeric:normal;font-variant-alternates:normal;font-feature-settings:normal;text-indent:0;text-align:start;text-decoration:none;text-decoration-line:none;text-decoration-style:solid;text-decoration-color:#000000;letter-spacing:normal;word-spacing:normal;text-transform:none;writing-mode:lr-tb;direction:ltr;text-orientation:mixed;dominant-baseline:auto;baseline-shift:baseline;text-anchor:start;white-space:normal;shape-padding:0;opacity:1;vector-effect:none;fill:#4d4d4d;fill-opacity:1;stroke:none;stroke-width:0.301466;stroke-linecap:butt;stroke-linejoin:miter;stroke-miterlimit:4;stroke-dasharray:none;stroke-dashoffset:0;stroke-opacity:1"
         x="64.806824"
         y="203.02621"
         id="text164-4"><tspan
           sodipodi:role="line"
           id="tspan162-9"
           x="64.806824"
           y="203.02621"
           style="stroke-width:0.301466">Zone state:</tspan></text>
      <text
         xml:space="preserve"
         style="font-style:normal;font-variant:normal;font-weight:bold;font-stretch:normal;font-size:4.23333px;line-height:1.25;font-family:sans-serif;-inkscape-font-specification:'sans-serif Bold';letter-spacing:0px;word-spacing:0px;fill:#000000;fill-opacity:1;stroke:none;stroke-width:0.264583"
         x="64.614571"
         y="207.89192"
         id="text164-3-5"><tspan
           sodipodi:role="line"
           id="tspan162-6-7"
           x="64.614571"
           y="207.89192"
           chid="statusText"
           style="stroke-width:0.264583"
           shvAlarmPosition="left">Undefined</tspan></text>
    </g>
    <g
       transform="translate(-310.93522,-562.67415)"
       shvVisuType="VecomData"
       shvPath="devices/vehicleCommunicator/VCM01/loop/TWC01"
       id="g489"
       shvDeviceType="VecomLoop_G3"
       shvVisuTypeVariant="TramId-LineNumber">
      <text
         x="901.16583"
         y="2123.5703"
         font-size="3.1059px"
         style="font-size:12.1535px;line-height:1.25;font-family:sans-serif;font-variant-ligatures:normal;font-variant-caps:normal;font-variant-numeric:normal;fill:#000000;stroke-width:1.1394"
         xml:space="preserve"
         id="text1062-8"><tspan
           style="font-size:16px;stroke-width:1.1394"
           x="901.16583"
           y="2123.5703"
           id="tspan1060-7"
           shvAlarmPosition="right">TWC01</tspan></text>
      <g
         id="g471">
        <rect
           ry="0.16663547"
           y="2145.2422"
           x="900.45453"
           height="16.231249"
           width="65.029037"
           id="rect1056-6"
           style="fill:#c8beb7;fill-opacity:0.239216;stroke:#4d4d4d;stroke-width:0.909;stroke-linecap:round;stroke-linejoin:bevel;stroke-miterlimit:4;stroke-dasharray:none;stroke-dashoffset:0;stroke-opacity:1"
           rx="0.16663547" />
        <rect
           style="fill:#c8beb7;fill-opacity:0.239216;stroke:#4d4d4d;stroke-width:0.909;stroke-linecap:round;stroke-linejoin:bevel;stroke-miterlimit:4;stroke-dasharray:none;stroke-dashoffset:0;stroke-opacity:1"
           id="rect1058-1"
           width="65.029037"
           height="16.231249"
           x="900.45453"
           y="2129.011"
           ry="0.16663547"
           rx="0.16663547" />
        <rect
           ry="0.16663547"
           y="2129.011"
           x="900.45453"
           height="16.231249"
           width="117.53395"
           id="rect1024-1"
           style="fill:none;fill-opacity:0.239216;stroke:#4d4d4d;stroke-width:0.909;stroke-linecap:round;stroke-linejoin:bevel;stroke-miterlimit:4;stroke-dasharray:none;stroke-dashoffset:0;stroke-opacity:1"
           rx="0.16663547" />
        <text
           id="text1099-2"
           xml:space="preserve"
           style="font-size:45.5752px;line-height:1.25;font-family:sans-serif;fill:#000000;stroke-width:1.1394"
           font-size="11.647px"
           y="2141.1619"
           x="903.77356"><tspan
             id="tspan1097-7"
             style="font-size:9.11504px;font-family:sans-serif;font-variant-ligatures:normal;font-variant-caps:normal;font-variant-numeric:normal;stroke-width:1.5705"
             font-size="2.3294px"
             y="2141.1619"
             x="903.77356">Tram ID</tspan></text>
        <text
           id="text1107-0"
           xml:space="preserve"
           style="font-size:12.5217px;line-height:1.25;font-family:sans-serif;text-align:end;text-anchor:end;fill:#0055d4;stroke-width:1.5705"
           font-size="3.2px"
           y="2141.113"
           x="1106.1854"><tspan
             chid="tramId"
             id="tspan1105-9"
             style="font-size:12.564px;font-family:sans-serif;font-variant-ligatures:normal;font-variant-caps:normal;font-variant-numeric:normal;text-align:end;text-anchor:end;fill:#0055d4;stroke-width:1.5705"
             font-size="3.2108px"
             y="2141.113"
             x="1014.986">tram-id</tspan></text>
        <rect
           style="fill:none;fill-opacity:0.239216;stroke:#4d4d4d;stroke-width:0.909;stroke-linecap:round;stroke-linejoin:bevel;stroke-miterlimit:4;stroke-dasharray:none;stroke-dashoffset:0;stroke-opacity:1"
           id="rect1044-3"
           width="117.53899"
           height="16.231249"
           x="900.44946"
           y="2145.2422"
           ry="0.16663547"
           rx="0.16663547" />
        <text
           x="903.77356"
           y="2157.3931"
           font-size="11.647px"
           style="font-size:45.5752px;line-height:1.25;font-family:sans-serif;fill:#000000;stroke-width:1.1394"
           xml:space="preserve"
           id="text1048-6"><tspan
             x="903.77356"
             y="2157.3931"
             font-size="2.3294px"
             style="font-size:9.11504px;font-family:sans-serif;font-variant-ligatures:normal;font-variant-caps:normal;font-variant-numeric:normal;stroke-width:1.5705"
             id="tspan1046-0">Line number</tspan></text>
        <text
           x="1042.9509"
           y="2157.344"
           font-size="3.2px"
           style="font-size:12.5217px;line-height:1.25;font-family:sans-serif;text-align:end;text-anchor:end;fill:#0055d4;stroke-width:1.5705"
           xml:space="preserve"
           id="text1052-6"><tspan
             x="1014.7126"
             y="2157.344"
             font-size="3.2108px"
             style="font-size:12.564px;font-family:sans-serif;font-variant-ligatures:normal;font-variant-caps:normal;font-variant-numeric:normal;text-align:end;text-anchor:end;fill:#0055d4;stroke-width:1.5705"
             id="tspan1050-2"
             chid="lineNumber">num</tspan></text>
        <rect
           y="2129.011"
           x="900.44946"
           height="32.462524"
           width="117.53901"
           id="rect249-3-9"
           style="opacity:1;fill:none;fill-opacity:1;stroke:#000000;stroke-width:0.66059;stroke-miterlimit:4;stroke-dasharray:none;stroke-dashoffset:0;stroke-opacity:1"
           chid="boundingBox" />
      </g>
    </g>
    <g
       shvVisuType="VecomTransceiver"
       shvPath="devices/vehicleCommunicator/VCM01/loop/TWC01"
       id="g1539"
       transform="matrix(-1,0,0,1,2135.9341,-1849.9666)"
       shvDeviceType="VecomLoop_G3">
      <text
         x="-1539.5776"
         y="3303.9739"
         font-size="3.1059px"
         style="font-size:12.1535px;line-height:1.25;font-family:sans-serif;font-variant-ligatures:normal;font-variant-caps:normal;font-variant-numeric:normal;fill:#000000;stroke-width:1.1394"
         xml:space="preserve"
         id="text1191-9"
         transform="scale(-1,1)"><tspan
           style="font-size:16px;stroke-width:1.1394"
           x="-1539.5776"
           y="3303.9739"
           id="tspan1189-2"
           shvAlarmPosition="right">TWC01</tspan></text>
      <g
         id="g1532">
        <path
           style="fill:#00d900;fill-opacity:0.5;stroke:#000000;stroke-width:1.637;stroke-linecap:butt;stroke-linejoin:miter;stroke-miterlimit:4;stroke-dasharray:none;stroke-opacity:1"
           d="m 1509.4553,3332.7092 -10.1074,0.018 v 10.8867 h 10.2734 l 0.2735,-0.1309 6.2832,-5.2051 z m 6.7227,5.5683 6.2832,5.2051 0.2734,0.1309 h 10.2715 v -10.8867 l -10.1054,-0.018 z"
           id="path345"
           chid="transceiver"
           inkscape:connector-curvature="0" />
        <path
           chid="radioBeams"
           d="m 1536.4248,3313.9738 a 31.5,31.5 0 0 0 -40.4956,0 m 35.6747,5.7453 a 24,24 0 0 0 -30.8538,0 m 26.0329,5.7454 a 16.5,16.5 0 0 0 -21.212,0 m 30.8538,36.8839 a 31.5,31.5 0 0 1 -40.4956,0 m 35.6747,-5.7454 a 24,24 0 0 1 -30.8538,0 m 26.0329,-5.7453 a 16.5,16.5 0 0 1 -21.212,0"
           style="opacity:0.99;fill:none;fill-opacity:1;fill-rule:nonzero;stroke:#34a800;stroke-width:2.3;stroke-linecap:round;stroke-linejoin:round;stroke-miterlimit:4;stroke-dasharray:none;stroke-dashoffset:0;stroke-opacity:1;paint-order:stroke fill markers"
           id="path994-5-5-6-9-3"
           inkscape:connector-curvature="0" />
      </g>
    </g>
    <g
       id="g2231"
       shvDeviceType="Heating_G3"
       shvVisuType="HeatingTable"
       shvPath="devices/heating/HT01"
       transform="translate(426.14293,60.434519)"
       shvVisuTypeVariant="State-Rail-Air-Wet">
      <text
         id="text1103-9-4-4-3"
         xml:space="preserve"
         style="font-size:12.1535px;line-height:1.25;font-family:sans-serif;font-variant-ligatures:normal;font-variant-caps:normal;font-variant-numeric:normal;fill:#000000;stroke-width:1.1394"
         font-size="3.1059px"
         y="1287.025"
         x="399.16232"><tspan
           shvAlarmPosition="right"
           id="tspan1101-3-4-9-6"
           y="1287.025"
           x="399.16232"
           style="font-size:16px;stroke-width:1.1394">HT01</tspan></text>
      <g
         id="g2198">
        <rect
           style="fill:none;fill-opacity:0.239216;stroke:#4d4d4d;stroke-width:1.04335;stroke-linecap:round;stroke-linejoin:bevel;stroke-miterlimit:4;stroke-dasharray:none;stroke-dashoffset:0;stroke-opacity:1"
           id="rect1077-6-7-0-7"
           width="231.78195"
           height="16.194473"
           x="400.54428"
           y="1308.944"
           ry="0.16625792"
           rx="0.16625792" />
        <rect
           style="fill:none;fill-opacity:0.239216;stroke:#4d4d4d;stroke-width:1.04335;stroke-linecap:round;stroke-linejoin:bevel;stroke-miterlimit:4;stroke-dasharray:none;stroke-dashoffset:0;stroke-opacity:1"
           id="rect1077-6-7-0-2"
           width="231.78207"
           height="16.194473"
           x="400.54422"
           y="1292.7495"
           ry="0.16625792"
           rx="0.1662579" />
        <text
           x="414.57507"
           y="1336.7103"
           font-size="11.647px"
           style="font-size:45.5752px;line-height:1.25;font-family:sans-serif;fill:#000000;stroke-width:1.1394"
           xml:space="preserve"
           id="text1081-7-6-6-5"><tspan
             x="414.57507"
             y="1336.7103"
             font-size="2.3294px"
             style="font-size:9.11504px;font-family:sans-serif;font-variant-ligatures:normal;font-variant-caps:normal;font-variant-numeric:normal;stroke-width:1.5705"
             id="tspan1079-5-5-8-3">Air</tspan></text>
        <text
           x="628.39069"
           y="1337.6287"
           font-size="3.2px"
           style="font-size:12.5217px;line-height:1.25;font-family:sans-serif;text-align:end;text-anchor:end;fill:#0055d4;stroke-width:1.5705"
           xml:space="preserve"
           id="text1085-3-6-9-5"><tspan
             x="628.39069"
             y="1337.6287"
             font-size="3.2108px"
             style="font-size:12.564px;font-family:sans-serif;font-variant-ligatures:normal;font-variant-caps:normal;font-variant-numeric:normal;text-align:end;text-anchor:end;fill:#0055d4;stroke-width:1.5705"
             id="tspan1083-5-9-2-6"
             chid="tempAir">tempAir</tspan></text>
        <rect
           ry="0.16625792"
           y="1325.1384"
           x="400.54428"
           height="16.194473"
           width="231.78203"
           id="rect1087-6-3-6-2"
           style="fill:none;fill-opacity:0.239216;stroke:#4d4d4d;stroke-width:1.04335;stroke-linecap:round;stroke-linejoin:bevel;stroke-miterlimit:4;stroke-dasharray:none;stroke-dashoffset:0;stroke-opacity:1"
           rx="0.16625792" />
        <rect
           style="fill:#c8beb7;fill-opacity:0.239216;stroke:#4d4d4d;stroke-width:0.909;stroke-linecap:round;stroke-linejoin:bevel;stroke-miterlimit:4;stroke-dasharray:none;stroke-dashoffset:0;stroke-opacity:1"
           id="rect1097-7-4-0-0"
           width="89.533264"
           height="16.231249"
           x="400.46375"
           y="1325.132"
           ry="0.16663547"
           rx="0.16663547" />
        <rect
           ry="0.16663547"
           y="1308.9008"
           x="400.46381"
           height="16.231249"
           width="89.533157"
           id="rect1099-0-7-4-9"
           style="fill:#c8beb7;fill-opacity:0.239216;stroke:#4d4d4d;stroke-width:0.909;stroke-linecap:round;stroke-linejoin:bevel;stroke-miterlimit:4;stroke-dasharray:none;stroke-dashoffset:0;stroke-opacity:1"
           rx="0.16663547" />
        <rect
           ry="0.16663547"
           y="1292.6694"
           x="400.46378"
           height="16.231249"
           width="89.533157"
           id="rect1099-0-7-4-2"
           style="fill:#c8beb7;fill-opacity:0.239216;stroke:#4d4d4d;stroke-width:0.909;stroke-linecap:round;stroke-linejoin:bevel;stroke-miterlimit:4;stroke-dasharray:none;stroke-dashoffset:0;stroke-opacity:1"
           rx="0.16663547" />
        <text
           x="402.97421"
           y="1304.4607"
           font-size="11.647px"
           style="font-size:45.5752px;line-height:1.25;font-family:sans-serif;fill:#000000;stroke-width:1.1394"
           xml:space="preserve"
           id="text1091-2-1-6-2-5"><tspan
             x="402.97421"
             y="1304.4607"
             font-size="2.3294px"
             style="font-size:9.11504px;font-family:sans-serif;font-variant-ligatures:normal;font-variant-caps:normal;font-variant-numeric:normal;stroke-width:1.5705"
             id="tspan1089-9-8-8-7-9">Heating state</tspan></text>
        <rect
           style="fill:none;fill-opacity:0.239216;stroke:#4d4d4d;stroke-width:1.04335;stroke-linecap:round;stroke-linejoin:bevel;stroke-miterlimit:4;stroke-dasharray:none;stroke-dashoffset:0;stroke-opacity:1"
           id="rect1087-6-0-0-8-3"
           width="188.12711"
           height="0.014874518"
           x="400.54425"
           y="1341.3328"
           ry="0.16625793"
           rx="0.16625792" />
        <text
           x="628.2049"
           y="1321.2378"
           font-size="3.2px"
           style="font-size:12.5217px;line-height:1.25;font-family:sans-serif;text-align:end;text-anchor:end;fill:#0055d4;stroke-width:1.5705"
           xml:space="preserve"
           id="text1095-1-6-7-71-6"><tspan
             x="628.2049"
             y="1321.2378"
             font-size="3.2108px"
             style="font-size:12.564px;font-family:sans-serif;font-variant-ligatures:normal;font-variant-caps:normal;font-variant-numeric:normal;fill:#0055d4;stroke-width:1.5705"
             id="tspan1093-2-2-8-7-0"
             chid="tempRail">tempRail</tspan></text>
        <text
           x="628.26013"
           y="1305.6632"
           font-size="3.2px"
           style="font-size:12.5217px;line-height:1.25;font-family:sans-serif;text-align:end;text-anchor:end;fill:#0055d4;stroke-width:1.5705"
           xml:space="preserve"
           id="text1095-1-6-7-71-3"><tspan
             x="628.26013"
             y="1305.6632"
             font-size="3.2108px"
             style="font-size:12.564px;font-family:sans-serif;font-variant-ligatures:normal;font-variant-caps:normal;font-variant-numeric:normal;fill:#0055d4;stroke-width:1.5705"
             id="tspan1093-2-2-8-7-7"
             chid="heatingState">heatingState</tspan></text>
        <text
           x="413.75171"
           y="1320.4546"
           font-size="11.647px"
           style="font-size:45.5752px;line-height:1.25;font-family:sans-serif;fill:#000000;stroke-width:1.1394"
           xml:space="preserve"
           id="text1091-2-1-6-2-6"><tspan
             x="413.75171"
             y="1320.4546"
             font-size="2.3294px"
             style="font-size:9.11504px;font-family:sans-serif;font-variant-ligatures:normal;font-variant-caps:normal;font-variant-numeric:normal;stroke-width:1.5705"
             id="tspan1089-9-8-8-7-2">Rail</tspan></text>
        <path
           style="fill:#4d4d4d;fill-opacity:1;stroke:none;stroke-width:0.559421;stroke-opacity:1"
           id="path2-4-2-1"
           d="m 408.52804,1333.8058 v -4.4753 a 1.6782668,1.6782668 0 0 0 -3.35653,0 v 4.4753 a 2.7971061,2.7971061 0 1 0 3.35653,0 m -1.67827,-5.0348 a 0.55942121,0.55942121 0 0 1 0.55942,0.5595 v 1.6782 h -1.11883 v -1.6782 a 0.55942121,0.55942121 0 0 1 0.55941,-0.5595 z"
           inkscape:connector-curvature="0" />
        <path
           style="fill:#4d4d4d;fill-opacity:1;stroke:none;stroke-width:0.559421;stroke-opacity:1"
           id="path2-9-1-1-8"
           d="m 408.52796,1317.6146 v -4.4753 a 1.6782668,1.6782668 0 0 0 -3.35653,0 v 4.4753 a 2.7971061,2.7971061 0 1 0 3.35653,0 m -1.67827,-5.0347 a 0.55942121,0.55942121 0 0 1 0.55942,0.5594 v 1.6782 h -1.11883 v -1.6782 a 0.55942121,0.55942121 0 0 1 0.55941,-0.5594 z"
           inkscape:connector-curvature="0" />
        <rect
           y="1292.6632"
           x="400.53659"
           height="48.669525"
           width="231.78972"
           id="rect249-4-0-7"
           style="fill:none;fill-opacity:1;stroke:#000000;stroke-width:1.07316;stroke-miterlimit:4;stroke-dasharray:none;stroke-dashoffset:0;stroke-opacity:1"
           chid="boundingBox" />
      </g>
    </g>
    <g
       shvPath="devices/localRouteSelector/KSW01"
       id="g566"
       transform="matrix(0.74501168,0,0,0.74502804,-195.17222,840.91524)"
       shvDeviceType="RequestorDigital"
       shvVisuType="RequestorDigital">
      <g
         style="display:inline;stroke-width:0.720284"
         id="g4296-5-5"
         transform="matrix(3.3793567,-3.3792825,3.394893,3.3948184,1657.8038,142.29227)"
         inkscape:transform-center-x="62.994861"
         inkscape:transform-center-y="-88.36192">
        <path
           inkscape:connector-curvature="0"
           id="path74-9-8"
           style="fill:#ffffff;fill-opacity:1;stroke:#000000;stroke-width:0.190575"
           d="m -55.945701,141.22819 h 4.98493 v 5.00002 h -4.98493 z"
           chid="box" />
        <path
           inkscape:connector-curvature="0"
           id="path72-4-2"
           style="fill:#ffffff;fill-opacity:1;stroke:#000000;stroke-width:0.190575"
           d="m -53.353501,143.93903 -1.28968,0.51589 v -1.49418 l 1.28968,0.51585 a 0.6225704,0.6225704 0 1 1 0,0.46244 z" />
      </g>
      <text
         id="text1191-7-3-6-3"
         xml:space="preserve"
         style="font-size:16.5885px;line-height:1.25;font-family:sans-serif;font-variant-ligatures:normal;font-variant-caps:normal;font-variant-numeric:normal;fill:#000000;stroke-width:1.52936"
         font-size="3.1059px"
         y="784.94421"
         x="1890.2166"><tspan
           shvAlarmPosition="right"
           id="tspan1189-5-1-1-6"
           y="784.94421"
           x="1890.2166"
           style="font-size:21.4759px;stroke-width:1.52936">KSW01</tspan></text>
    </g>
    <g
       id="g1905-9-4-6-1"
       shvPath="devices/signal/PPI01"
       transform="rotate(90,1355.3802,2010.951)"
       style="display:inline"
       shvVisuType="Signal"
       shvDeviceType="Signal_G3"
       shvVisuTypeVariant="type_10">
      <text
         id="text1191-7-66-7-7-1-7-4-8-4"
         xml:space="preserve"
         style="font-size:12.1535px;line-height:1.25;font-family:sans-serif;font-variant-ligatures:normal;font-variant-caps:normal;font-variant-numeric:normal;fill:#000000;stroke-width:1.1394"
         font-size="3.1059px"
         y="941.47131"
         x="-2417.9551"
         transform="rotate(-90)"><tspan
           shvAlarmPosition="right"
           id="tspan1189-5-49-1-2-2-1-5-1-9"
           y="941.47131"
           x="-2417.9551"
           style="font-size:16px;stroke-width:1.1394">PPI01</tspan></text>
      <g
         style="display:inline;stroke-width:0.999999"
         id="g1372-1"
         transform="matrix(1.0000022,0,0,1,285.75132,2023.298)">
        <path
           inkscape:connector-curvature="0"
           chid="chambers"
           id="path981-4-4"
           d="m 648.84427,194.59596 a 19.565218,19.565218 0 0 0 -19.11719,19.68359 19.565218,19.565218 0 0 0 18.53906,19.64453 19.565217,19.565217 0 0 0 -18.53906,19.64063 19.565217,19.565217 0 0 0 17.33594,19.53906 19.565217,19.565217 0 0 0 -17.33594,19.55274 19.56543,19.56543 0 1 0 39.13086,0 19.565217,19.565217 0 0 0 -17.33594,-19.53907 19.565217,19.565217 0 0 0 17.33594,-19.55273 19.565217,19.565217 0 0 0 -18.53516,-19.64453 19.565218,19.565218 0 0 0 18.53516,-19.64063 19.565218,19.565218 0 0 0 -20.01367,-19.68359 z"
           style="fill:#000000;fill-opacity:1;stroke:#000000;stroke-width:1.03531;stroke-opacity:1" />
        <g
           style="fill:#000000;fill-opacity:1;stroke-width:0.999999"
           id="g183-6-0"
           transform="matrix(3.9130435,0,0,3.9130435,79.154398,-302.73233)">
          <path
             style="fill:#000000;fill-opacity:1;stroke:#000000;stroke-width:0.26458"
             inkscape:connector-curvature="0"
             d="m 145.67967,157.28 v 5"
             id="path997-2-6-5" />
          <path
             style="fill:#000000;fill-opacity:1;stroke:#000000;stroke-width:0.26458"
             inkscape:connector-curvature="0"
             d="m 140.54,162.28 h 9.9998"
             id="path999-9-1" />
        </g>
        <g
           transform="matrix(0.83006906,0,0,0.83085089,113.24128,-286.52545)"
           style="display:inline;fill:#ffffff;fill-opacity:1;stroke:#000000;stroke-width:1.24668"
           chid="symbol/W13"
           id="g176-9-3-5">
          <path
             style="fill:#ffa800;fill-opacity:1;stroke-width:1.24668"
             id="path989-3-9-2"
             d="m 628.66789,649.3 23.89,16.571 3.2368,-4.6665 -17.162,-11.904 17.162,-11.904 -3.2368,-4.6665 z"
             inkscape:connector-curvature="0" />
          <path
             style="fill:#ffa800;fill-opacity:1;stroke-width:1.24668"
             id="path991-6-4-9"
             d="m 653.19789,640.11 v 18.39 h 5.7394 v -18.39 z"
             inkscape:connector-curvature="0" />
        </g>
        <path
           chid="symbol/W16"
           id="path1001-9-9-1"
           d="m 652.45081,213.74602 8.30548,-8.3055 -4.15019,-4.1501 -8.30538,8.3054 -8.30549,-8.3054 -4.15019,4.1501 8.30549,8.3055 -8.30549,8.3054 4.15019,4.1502 8.30549,-8.3054 8.30538,8.3054 4.15019,-4.1502 z"
           inkscape:connector-curvature="0"
           style="display:inline;fill:#ffa800;fill-opacity:1;stroke:#000000;stroke-width:1.035;stroke-dasharray:none" />
        <g
           transform="matrix(-0.83006906,0,0,-0.83085089,1183.7054,832.41835)"
           style="display:inline;fill:#ffa800;fill-opacity:1;stroke:#000000;stroke-width:1.24668"
           chid="symbol/W12"
           id="g176-9-3-0-9">
          <path
             style="fill:#ffa800;fill-opacity:1;stroke-width:1.24668"
             id="path989-3-9-6-4"
             d="m 628.66789,649.3 23.89,16.571 3.2368,-4.6665 -17.162,-11.904 17.162,-11.904 -3.2368,-4.6665 z"
             inkscape:connector-curvature="0" />
          <path
             style="fill:#ffa800;fill-opacity:1;stroke-width:1.24668"
             id="path991-6-4-3-4"
             d="m 653.19789,640.11 v 18.39 h 5.7394 v -18.39 z"
             inkscape:connector-curvature="0" />
        </g>
      </g>
    </g>
  </g>
  <g
     inkscape:label="layerRoute"
     id="layerRoute"
     inkscape:groupmode="layer"
     style="display:inline"
     transform="translate(-578.96072,-1276.4729)">
    <g
       id="g2169"
       shvPath="devices/zone/Z01/route/R_Links"
       transform="matrix(1,0,0,-1,74.69334,3799.0812)"
       shvDeviceType="Route_G3"
       shvVisuType="Route">
      <path
         chid="route"
         id="path855"
         d="m 1163.7584,2310.7334 -141.9593,0.4795 -332.60392,-0.4135"
         inkscape:connector-curvature="0"
         style="fill:none;stroke:#ffbb33;stroke-width:20;stroke-linecap:round"
         sodipodi:nodetypes="ccc" />
      <text
         x="595.53918"
         y="-2271.9351"
         font-size="3.1059px"
         style="font-size:12.1535px;line-height:1.25;font-family:sans-serif;font-variant-ligatures:normal;font-variant-caps:normal;font-variant-numeric:normal;fill:#000000;stroke-width:1.1394"
         xml:space="preserve"
         id="text1191-97"
         transform="scale(1,-1)"><tspan
           style="font-size:16px;stroke-width:1.1394"
           x="595.53918"
           y="-2271.9351"
           id="tspan1189-3"
           shvAlarmPosition="right">R_Links</tspan></text>
    </g>
    <g
       id="g5633"
       shvPath="devices/zone/Z01/route/R_Rechts"
       transform="matrix(1,0,0,-1,-2.3389,2957.7687)"
       shvDeviceType="Route_G3"
       shvVisuType="Route">
      <path
         chid="route"
         id="path5627"
         d="m 1240.1712,1331.0101 -140.1432,138.1698 -334.0109,0.7205"
         inkscape:connector-curvature="0"
         style="fill:none;stroke:#ffbb33;stroke-width:20;stroke-linecap:round"
         sodipodi:nodetypes="ccc" />
      <text
         x="672.57141"
         y="-1406.7974"
         font-size="3.1059px"
         style="font-size:12.1535px;line-height:1.25;font-family:sans-serif;font-variant-ligatures:normal;font-variant-caps:normal;font-variant-numeric:normal;fill:#000000;stroke-width:1.1394"
         xml:space="preserve"
         id="text5631"
         transform="scale(1,-1)"><tspan
           style="font-size:16px;stroke-width:1.1394"
           x="672.57141"
           y="-1406.7974"
           id="tspan5629"
           shvAlarmPosition="right">R_Rechts</tspan></text>
    </g>
    <path
       sodipodi:nodetypes="cccccc"
       inkscape:connector-curvature="0"
       d="m 809.74054,1521.5432 -7.3884,-2.0839 v 4.0531 l 7.3898,-1.9692 m -7.3898,0 h -39.3696"
       style="display:inline;fill:#6e6e6e;fill-opacity:1;stroke:#6e6e6e;stroke-width:1.5;stroke-linecap:round;stroke-linejoin:round;stroke-miterlimit:4;stroke-dasharray:none;stroke-opacity:1;paint-order:normal"
       id="path1177-4-6-1-1"
       chid="direction" />
    <path
       sodipodi:nodetypes="cccccc"
       inkscape:connector-curvature="0"
       d="m 809.79254,1560.9051 -7.4404,-1.8894 2.0265,-3.5103 5.4152,5.4004 m -6.3997,-3.6949 -17.3275,-10.0041"
       style="display:inline;fill:#6e6e6e;fill-opacity:1;stroke:#6e6e6e;stroke-width:1.5;stroke-linecap:round;stroke-linejoin:round;stroke-miterlimit:4;stroke-dasharray:none;stroke-opacity:1;paint-order:normal"
       id="path1177-4-6-5-9"
       chid="direction" />
    <path
       chid="direction"
       id="path1177-5-0-8-1"
       style="display:inline;fill:#b50600;fill-opacity:1;stroke:#6e6e6e;stroke-width:1.5;stroke-linecap:round;stroke-linejoin:round;stroke-miterlimit:4;stroke-dasharray:none;stroke-opacity:1;paint-order:normal"
       d="m 762.98254,1546.9848 23.0841,0.2219"
       inkscape:connector-curvature="0"
       sodipodi:nodetypes="cc" />
  </g>
  <g
     inkscape:label="layerTrackCircuit"
     id="layerTrackCircuit"
     inkscape:groupmode="layer"
     style="display:inline"
     transform="translate(-578.96072,-1276.4729)">
    <g
       transform="matrix(1,0,0,-1,448.59134,2005.9948)"
       id="g1006"
       shvPath="devices/detector/TC01"
       shvDeviceType="TC_G3"
       shvVisuType="TC">
      <text
         x="418.11932"
         y="-545.00507"
         font-size="3.1059px"
         style="font-size:12.1535px;line-height:1.25;font-family:sans-serif;font-variant-ligatures:normal;font-variant-caps:normal;font-variant-numeric:normal;fill:#000000;stroke-width:1.1394"
         xml:space="preserve"
         id="text955-3"
         transform="scale(1,-1)"><tspan
           shvAlarmPosition="right"
           x="418.11932"
           y="-545.00507"
           font-size="3.1059px"
           style="font-size:16px;font-family:sans-serif;font-variant-ligatures:normal;font-variant-caps:normal;font-variant-numeric:normal;stroke-width:1.1394"
           id="tspan953-6">TC01</tspan></text>
      <path
         chid="tc"
         style="fill:#ffcc00;fill-opacity:0.241265;stroke:#bf9c0b;stroke-width:3.00001;stroke-linejoin:bevel;stroke-miterlimit:4;stroke-dasharray:none;stroke-opacity:1"
         inkscape:connector-curvature="0"
         id="path887"
         d="m 314.29683,498.1478 v 39.13043 h 266.5366 V 498.1478 Z" />
    </g>
    <g
       transform="matrix(1,0,0,-1,763.12794,2005.9948)"
       id="g1006-1"
       shvPath="devices/detector/TC02"
       shvDeviceType="TC_G3"
       shvVisuType="TC"
       style="display:inline">
      <text
         x="397.95639"
         y="-484.7728"
         font-size="3.1059px"
         style="font-size:12.1535px;line-height:1.25;font-family:sans-serif;font-variant-ligatures:normal;font-variant-caps:normal;font-variant-numeric:normal;fill:#000000;stroke-width:1.1394"
         xml:space="preserve"
         id="text955-3-8"
         transform="scale(1,-1)"><tspan
           shvAlarmPosition="right"
           x="397.95639"
           y="-484.7728"
           font-size="3.1059px"
           style="font-size:16px;font-family:sans-serif;font-variant-ligatures:normal;font-variant-caps:normal;font-variant-numeric:normal;stroke-width:1.1394"
           id="tspan953-6-1">TC02</tspan></text>
      <path
         chid="tc"
         style="fill:#ffcc00;fill-opacity:0.241265;stroke:#bf9c0b;stroke-width:3.00001;stroke-linejoin:bevel;stroke-miterlimit:4;stroke-dasharray:none;stroke-opacity:1"
         inkscape:connector-curvature="0"
         id="path887-0"
         d="m 314.29683,498.1478 v 39.13043 h 38.5366 l 38,-39.13043 z"
         sodipodi:nodetypes="ccccc" />
    </g>
    <g
       transform="matrix(1,0,0,-1,507.73369,1977.5849)"
       id="g5646"
       shvPath="devices/detector/MD01"
       shvDeviceType="TC_G3"
       shvVisuType="TC">
      <text
         x="439.62079"
         y="-516.59521"
         font-size="3.1059px"
         style="font-size:12.1535px;line-height:1.25;font-family:sans-serif;font-variant-ligatures:normal;font-variant-caps:normal;font-variant-numeric:normal;fill:#000000;stroke-width:1.1394"
         xml:space="preserve"
         id="text5642"
         transform="scale(1,-1)"><tspan
           shvAlarmPosition="right"
           x="439.62079"
           y="-516.59521"
           font-size="3.1059px"
           style="font-size:16px;font-family:sans-serif;font-variant-ligatures:normal;font-variant-caps:normal;font-variant-numeric:normal;stroke-width:1.1394"
           id="tspan5640">MD01</tspan></text>
      <path
         chid="tc"
         style="fill:#ffcc00;fill-opacity:0.241265;stroke:#bf9c0b;stroke-width:3;stroke-linejoin:bevel;stroke-miterlimit:4;stroke-dasharray:none;stroke-opacity:1"
         inkscape:connector-curvature="0"
         id="path5644"
         d="m 488.23786,469.73789 v 39.13043 h 33.45322 v -39.13043 z" />
    </g>
    <g
       transform="translate(-305.91784,842.00914)"
       shvVisuType="GateData"
       shvPath="devices/zone/Z01/gate/G01"
       id="g1837-1"
       shvDeviceType="Gate_G3"
       shvVisuTypeVariant="RowCount2">
      <text
         x="902.24036"
         y="502.60812"
         font-size="3.1059px"
         style="font-size:12.1535px;line-height:1.25;font-family:sans-serif;font-variant-ligatures:normal;font-variant-caps:normal;font-variant-numeric:normal;fill:#000000;stroke-width:1.1394"
         xml:space="preserve"
         id="text1062-8-9-5-3-5"><tspan
           style="font-size:16px;stroke-width:1.1394"
           x="902.24036"
           y="502.60812"
           id="tspan1060-7-3-6-6-9"
           shvAlarmPosition="right">G01</tspan></text>
      <g
         id="g1752-7">
        <g
           transform="translate(-468.64413,1.9285083e-4)"
           id="g1867-7">
          <rect
             ry="0.16663547"
             y="511.05978"
             x="1369.0985"
             height="16.231232"
             width="206.14299"
             id="rect1044-3-6-6-7-7-6"
             style="fill:#c8beb7;fill-opacity:0.239216;stroke:#4d4d4d;stroke-width:0.909;stroke-linecap:round;stroke-linejoin:bevel;stroke-miterlimit:4;stroke-dasharray:none;stroke-dashoffset:0;stroke-opacity:1"
             rx="0.16663547" />
          <rect
             style="fill:none;fill-opacity:0.239216;stroke:#4d4d4d;stroke-width:0.909;stroke-linecap:round;stroke-linejoin:bevel;stroke-miterlimit:4;stroke-dasharray:none;stroke-dashoffset:0;stroke-opacity:1"
             id="rect1024-1-6-0-5-7"
             width="206.14301"
             height="16.264343"
             x="1369.0986"
             y="543.52222"
             ry="0.16663547"
             rx="0.16663547" />
          <text
             x="1392.7852"
             y="523.26862"
             font-size="11.647px"
             style="font-size:45.5752px;line-height:1.25;font-family:sans-serif;fill:#000000;stroke-width:1.1394"
             xml:space="preserve"
             id="text1099-2-7-9-3-3"><tspan
               x="1392.7852"
               y="523.26862"
               font-size="2.3294px"
               style="font-size:9.11504px;font-family:sans-serif;font-variant-ligatures:normal;font-variant-caps:normal;font-variant-numeric:normal;stroke-width:1.5705"
               id="tspan1097-7-5-3-5-6">Time</tspan></text>
          <rect
             ry="0.16663547"
             y="527.29102"
             x="1369.0985"
             height="16.231262"
             width="206.14299"
             id="rect1044-3-6-62-6-5"
             style="fill:none;fill-opacity:0.239216;stroke:#4d4d4d;stroke-width:0.909;stroke-linecap:round;stroke-linejoin:bevel;stroke-miterlimit:4;stroke-dasharray:none;stroke-dashoffset:0;stroke-opacity:1"
             rx="0.16663547" />
          <text
             id="text1048-6-2-2-2-12-6"
             xml:space="preserve"
             style="font-size:45.5752px;line-height:1.25;font-family:sans-serif;fill:#000000;stroke-width:1.1394"
             font-size="11.647px"
             y="522.94336"
             x="1450.6304"><tspan
               id="tspan1046-0-9-6-0-70-3"
               style="font-size:9.11504px;font-family:sans-serif;font-variant-ligatures:normal;font-variant-caps:normal;font-variant-numeric:normal;stroke-width:1.5705"
               font-size="2.3294px"
               y="522.94336"
               x="1450.6304">Vehicle Id</tspan></text>
          <rect
             style="fill:none;fill-opacity:0.239216;stroke:#4d4d4d;stroke-width:0.909;stroke-linecap:round;stroke-linejoin:bevel;stroke-miterlimit:4;stroke-dasharray:none;stroke-dashoffset:0;stroke-opacity:1"
             id="rect1056-6-7-1-7-28-3-9"
             width="68.668579"
             height="48.726917"
             x="1369.2357"
             y="511.0596"
             ry="0.16663547"
             rx="0.16663547" />
          <rect
             style="fill:none;fill-opacity:0.239216;stroke:#4d4d4d;stroke-width:0.909;stroke-linecap:round;stroke-linejoin:bevel;stroke-miterlimit:4;stroke-dasharray:none;stroke-dashoffset:0;stroke-opacity:1"
             id="rect1056-6-7-1-7-60-4"
             width="68.668579"
             height="48.726917"
             x="1437.9043"
             y="511.0596"
             ry="0.16663547"
             rx="0.16663547" />
          <text
             x="1526.4197"
             y="539.69415"
             font-size="3.2px"
             style="font-size:12.5217px;line-height:1.25;font-family:sans-serif;text-align:end;text-anchor:end;fill:#0055d4;stroke-width:1.5705"
             xml:space="preserve"
             id="text1107-0-3-6-9-62-8"><tspan
               x="1435.2202"
               y="539.69415"
               font-size="3.2108px"
               style="font-size:12.564px;font-family:sans-serif;font-variant-ligatures:normal;font-variant-caps:normal;font-variant-numeric:normal;text-align:end;text-anchor:end;fill:#0055d4;stroke-width:1.5705"
               id="tspan1105-9-5-0-7-61-12"
               chid="row0/timeCreated">row0/time</tspan></text>
          <text
             x="1595.4025"
             y="539.69434"
             font-size="3.2px"
             style="font-size:12.5217px;line-height:1.25;font-family:sans-serif;text-align:end;text-anchor:end;fill:#0055d4;stroke-width:1.5705"
             xml:space="preserve"
             id="text1107-0-3-6-1-92-9"><tspan
               x="1504.203"
               y="539.69434"
               font-size="3.2108px"
               style="font-size:12.564px;font-family:sans-serif;font-variant-ligatures:normal;font-variant-caps:normal;font-variant-numeric:normal;text-align:end;text-anchor:end;fill:#0055d4;stroke-width:1.5705"
               id="tspan1105-9-5-0-2-0-3"
               chid="row0/vehicleId">row0/ve...</tspan></text>
          <text
             x="1526.4197"
             y="555.70013"
             font-size="3.2px"
             style="font-size:12.5217px;line-height:1.25;font-family:sans-serif;text-align:end;text-anchor:end;fill:#0055d4;stroke-width:1.5705"
             xml:space="preserve"
             id="text1107-0-3-6-9-3-23-9"><tspan
               x="1435.2202"
               y="555.70013"
               font-size="3.2108px"
               style="font-size:12.564px;font-family:sans-serif;font-variant-ligatures:normal;font-variant-caps:normal;font-variant-numeric:normal;text-align:end;text-anchor:end;fill:#0055d4;stroke-width:1.5705"
               id="tspan1105-9-5-0-7-6-7-0"
               chid="row1/timeCreated">row1/time</tspan></text>
          <text
             x="1595.4025"
             y="555.70032"
             font-size="3.2px"
             style="font-size:12.5217px;line-height:1.25;font-family:sans-serif;text-align:end;text-anchor:end;fill:#0055d4;stroke-width:1.5705"
             xml:space="preserve"
             id="text1107-0-3-6-9-35-28-8"><tspan
               x="1504.203"
               y="555.70032"
               font-size="3.2108px"
               style="font-size:12.564px;font-family:sans-serif;font-variant-ligatures:normal;font-variant-caps:normal;font-variant-numeric:normal;text-align:end;text-anchor:end;fill:#0055d4;stroke-width:1.5705"
               id="tspan1105-9-5-0-7-62-9-8"
               chid="row1/vehicleId">row1/ve...</tspan></text>
          <text
             id="text1048-6-2-2-2-1-5"
             xml:space="preserve"
             style="font-size:45.5752px;line-height:1.25;font-family:sans-serif;fill:#000000;stroke-width:1.1394"
             font-size="11.647px"
             y="522.94336"
             x="1527.4661"><tspan
               id="tspan1046-0-9-6-0-8-0"
               style="font-size:9.11504px;font-family:sans-serif;font-variant-ligatures:normal;font-variant-caps:normal;font-variant-numeric:normal;stroke-width:1.5705"
               font-size="2.3294px"
               y="522.94336"
               x="1527.4661">Route</tspan></text>
          <rect
             style="fill:none;fill-opacity:0.239216;stroke:#4d4d4d;stroke-width:0.909;stroke-linecap:round;stroke-linejoin:bevel;stroke-miterlimit:4;stroke-dasharray:none;stroke-dashoffset:0;stroke-opacity:1"
             id="rect1056-6-7-1-7-7-96"
             width="68.668579"
             height="48.726917"
             x="1506.5729"
             y="511.05963"
             ry="0.16663547"
             rx="0.16663547" />
          <text
             x="1664.071"
             y="539.69434"
             font-size="3.2px"
             style="font-size:12.5217px;line-height:1.25;font-family:sans-serif;text-align:end;text-anchor:end;fill:#0055d4;stroke-width:1.5705"
             xml:space="preserve"
             id="text1107-0-3-6-1-9-3"><tspan
               x="1572.8716"
               y="539.69434"
               font-size="3.2108px"
               style="font-size:12.564px;font-family:sans-serif;font-variant-ligatures:normal;font-variant-caps:normal;font-variant-numeric:normal;text-align:end;text-anchor:end;fill:#0055d4;stroke-width:1.5705"
               id="tspan1105-9-5-0-2-2-8"
               chid="row0/route">row0/ro...</tspan></text>
          <text
             x="1664.071"
             y="555.70032"
             font-size="3.2px"
             style="font-size:12.5217px;line-height:1.25;font-family:sans-serif;text-align:end;text-anchor:end;fill:#0055d4;stroke-width:1.5705"
             xml:space="preserve"
             id="text1107-0-3-6-9-35-0-56"><tspan
               x="1572.8716"
               y="555.70032"
               font-size="3.2108px"
               style="font-size:12.564px;font-family:sans-serif;font-variant-ligatures:normal;font-variant-caps:normal;font-variant-numeric:normal;text-align:end;text-anchor:end;fill:#0055d4;stroke-width:1.5705"
               id="tspan1105-9-5-0-7-62-2-1"
               chid="row1/route">row1/ro...</tspan></text>
          <rect
             chid="boundingBox"
             style="opacity:1;fill:none;fill-opacity:1;stroke:#000000;stroke-width:0.661;stroke-miterlimit:4;stroke-dasharray:none;stroke-dashoffset:0;stroke-opacity:1"
             id="rect249-3-9-6-9-7-1"
             width="206.14282"
             height="48.726776"
             x="1369.0986"
             y="511.05978" />
        </g>
      </g>
    </g>
  </g>
  <g
     inkscape:label="layerPME"
     id="layerPME"
     inkscape:groupmode="layer"
     style="display:inline"
     transform="translate(-578.96072,-1276.4729)">
    <g
       shvPath="devices/pointMachine/TSH01"
       id="g1615"
       transform="matrix(0,-1,-1,0,2392.9796,2053.6676)"
       shvDeviceType="PME_G3"
       shvVisuTypeVariant="LeverInSocketCircle"
       shvVisuType="PME">
      <text
         x="-1386.0889"
         y="-624.69067"
         font-size="3.1059px"
         style="font-size:12.1535px;line-height:1.25;font-family:sans-serif;font-variant-ligatures:normal;font-variant-caps:normal;font-variant-numeric:normal;fill:#000000;stroke-width:1.1394"
         xml:space="preserve"
         id="text1191-7-3-6-70"
         transform="matrix(0,-1,-1,0,0,0)"><tspan
           style="font-size:16px;stroke-width:1.1394"
           x="-1386.0889"
           y="-624.69067"
           id="tspan1189-5-1-1-9"
           shvAlarmPosition="right">TSH01</tspan></text>
      <g
         id="g732-3"
         transform="translate(1.1984861)">
        <path
           d="m 544.6221,1320.5547 h 39.13044 v 39.1304 h -39.13043 z"
           id="path1017-4-6"
           inkscape:connector-curvature="0"
           style="fill:#28a638;fill-opacity:0.44758;stroke:#000000;stroke-width:1.03531"
           chid="box" />
        <path
           d="M 563.46681,1295.0801 507.7568,1239.281"
           id="path1019-5-0"
           inkscape:connector-curvature="0"
           style="fill:none;stroke:#ff33ff;stroke-width:13.6957;stroke-linecap:round"
           chid="posRight" />
        <path
           d="m 564.60085,1296.4871 v -74.4802"
           id="path1021-0-62"
           inkscape:connector-curvature="0"
           style="fill:none;stroke:#ff33ff;stroke-width:13.6957;stroke-linecap:round"
           chid="posLeft" />
        <g
           chid="motorMoving"
           id="g1531-6"
           transform="translate(-35.68884,21.583777)">
          <circle
             r="15.1"
             style="opacity:1;fill:#ff6600;fill-opacity:1;fill-rule:nonzero;stroke:#000000;stroke-width:1.8;stroke-linecap:round;stroke-linejoin:round;stroke-miterlimit:4;stroke-dasharray:none;stroke-dashoffset:0;stroke-opacity:1;paint-order:stroke fill markers"
             id="path1511-1"
             cx="599.87634"
             cy="1318.5361" />
          <path
             inkscape:connector-curvature="0"
             id="path693-8"
             style="fill:#000000;fill-opacity:1;stroke:#000000;stroke-width:0.5;stroke-miterlimit:4;stroke-dasharray:none;stroke-opacity:1"
             d="m 607.55568,1311.4222 v 3.1354 l -10.5834,3.9688 10.5834,3.9896 v 3.1354 h -15.552 v -2.0521 h 13.6561 l -10.6666,-4.0104 v -2.1146 l 10.6666,-4.0104 h -13.6561 v -2.0417 z" />
        </g>
        <path
           id="path1524"
           style="fill:#293cfa;fill-opacity:1;stroke:#293cfa;stroke-width:3.5;stroke-linecap:butt;stroke-linejoin:miter;stroke-miterlimit:4;stroke-dasharray:none;stroke-opacity:1"
           d="m 589.58004,1345.3732 c -3.4794,0 -6.3,2.8206 -6.3,6.3 0,3.4794 2.8206,6.3 6.3,6.3 3.4794,0 6.3,-2.8206 6.3,-6.3 0,-3.4794 -2.8206,-6.3 -6.3,-6.3 z m 4e-4,6.3 -28.297,-11.909"
           inkscape:connector-curvature="0"
           chid="leverInSocket" />
      </g>
    </g>
  </g>
  <g
     inkscape:label="layerSignal"
     id="layerSignal"
     inkscape:groupmode="layer"
     style="display:inline"
     transform="translate(-578.96072,-1276.4729)" />
</svg>
