ID;en;sk
BS:BS2 cleaning switch activated;BS:BS2 cleaning switch activated;BS:BS2 prepínač čistenia aktivovaný
BS:BS2 error of cleaning switch;BS:BS2 error of cleaning switch;BS:BS2 - chyba prepínača čistenia
Button H1;Button 1;1
Button H2;Button 2;2
Button H3;Button 3;3
Button H4;Button 4;4
Button Z4;Button Z4;Z4
Direction straight;Direction straight;Smer rovno
General purpose input;General purpose input;
Input to PLC, project-specific.;Input to PLC, project-specific.;
YES = button active, NO = button inactive;YES = button active, NO = button inactive;ÁNO = tlačidlo aktívne, NIE = tlačidlo neaktívne
YES = cleaning active and point machine BS2 blocked, NO = cleaning not active;YES = cleaning active and point machine BS2 blocked, NO = cleaning not active;ÁNO = čistenie aktivované a prestavník BS2 blokovaný, NIE = čistenie neaktívne
YES = complementarity or IO error, NO = no error;YES = complementarity or IO error, NO = no error;ÁNO = chyba komplementarity alebo chyba vstupu, NIE = bez chyby
