<?xml version="1.0" encoding="UTF-8" standalone="no"?>
<svg
   width="600"
   height="100"
   id="svg2"
   sodipodi:version="0.32"
   inkscape:version="1.1.2 (0a00cf5339, 2022-02-04)"
   sodipodi:docname="signal_SG.svg"
   inkscape:export-filename="/home/juerd/data/jue/verkeer/buslicht.png"
   inkscape:export-xdpi="80.133026"
   inkscape:export-ydpi="80.133026"
   version="1.0"
   xmlns:inkscape="http://www.inkscape.org/namespaces/inkscape"
   xmlns:sodipodi="http://sodipodi.sourceforge.net/DTD/sodipodi-0.dtd"
   xmlns="http://www.w3.org/2000/svg"
   xmlns:svg="http://www.w3.org/2000/svg"
   xmlns:rdf="http://www.w3.org/1999/02/22-rdf-syntax-ns#"
   xmlns:cc="http://creativecommons.org/ns#"
   xmlns:dc="http://purl.org/dc/elements/1.1/">
  <defs
     id="defs4" />
  <sodipodi:namedview
     id="base"
     pagecolor="#ffffff"
     bordercolor="#666666"
     borderopacity="1.0"
     inkscape:pageopacity="0.0"
     inkscape:pageshadow="2"
     inkscape:zoom="5.4447927"
     inkscape:cx="480.55089"
     inkscape:cy="50.966128"
     inkscape:document-units="px"
     inkscape:current-layer="layer3"
     inkscape:window-width="2560"
     inkscape:window-height="1344"
     inkscape:window-x="0"
     inkscape:window-y="36"
     showgrid="false"
     inkscape:window-maximized="1"
     fit-margin-top="0"
     fit-margin-left="0"
     fit-margin-right="0"
     fit-margin-bottom="0"
     inkscape:pagecheckerboard="true"
     inkscape:document-rotation="0" />
  <metadata
     id="metadata7">
    <rdf:RDF>
      <cc:Work
         rdf:about="">
        <dc:format>image/svg+xml</dc:format>
        <dc:type
           rdf:resource="http://purl.org/dc/dcmitype/StillImage" />
      </cc:Work>
    </rdf:RDF>
  </metadata>
  <g
     inkscape:groupmode="layer"
     id="layer3"
     inkscape:label="Background"
     style="display:inline"
     transform="translate(1.1780978,-300.00001)">
    <g
       id="g3110-3"
       transform="matrix(0.86172587,0,0,0.84325145,-485.84493,200.62769)"
       style="display:inline;fill:#000000;fill-opacity:0;stroke-width:0.988741">
      <circle
         style="fill:#000000;fill-opacity:0;stroke:#7d7d7d;stroke-width:19.7748;stroke-linecap:butt;stroke-linejoin:round;stroke-miterlimit:4;stroke-dasharray:none;stroke-dashoffset:0;stroke-opacity:1"
         id="path3113-6"
         transform="matrix(0.25083911,0,0,0.25633463,652.29637,78.393471)"
         cx="335.71429"
         cy="385.21933"
         r="221.42857" />
    </g>
    <g
       id="g3110-3-7"
       transform="matrix(0.86172587,0,0,0.84325145,-385.84493,200.62769)"
       style="display:inline;fill:#000000;fill-opacity:0;stroke-width:0.988741">
      <circle
         style="fill:#000000;fill-opacity:0;stroke:#7d7d7d;stroke-width:19.7748;stroke-linecap:butt;stroke-linejoin:round;stroke-miterlimit:4;stroke-dasharray:none;stroke-dashoffset:0;stroke-opacity:1"
         id="path3113-6-5"
         transform="matrix(0.25083911,0,0,0.25633463,652.29637,78.393471)"
         cx="335.71429"
         cy="385.21933"
         r="221.42857" />
    </g>
    <g
       id="g3110-9"
       transform="matrix(0.86172587,0,0,0.84325145,-85.844927,200.62769)"
       style="display:inline;fill:#000000;fill-opacity:0;stroke-width:0.988741">
      <circle
         style="fill:#000000;fill-opacity:0;stroke:#7d7d7d;stroke-width:19.7748;stroke-linecap:butt;stroke-linejoin:round;stroke-miterlimit:4;stroke-dasharray:none;stroke-dashoffset:0;stroke-opacity:1"
         id="path3113-7"
         transform="matrix(0.25083911,0,0,0.25633463,652.29637,78.393471)"
         cx="335.71429"
         cy="385.21933"
         r="221.42857" />
    </g>
    <g
       id="g3110-36"
       transform="matrix(0.8617267,0,0,0.84325064,-585.84549,200.62779)"
       style="display:inline;fill:#000000;stroke-width:0.988741">
      <circle
         style="fill:#000000;fill-opacity:1;stroke:#7d7d7d;stroke-width:19.7748;stroke-linecap:butt;stroke-linejoin:round;stroke-miterlimit:4;stroke-dasharray:none;stroke-dashoffset:0;stroke-opacity:1"
         id="path3113-75"
         transform="matrix(0.25083911,0,0,0.25633463,652.29637,78.393471)"
         cx="335.71429"
         cy="385.21933"
         r="221.42857" />
    </g>
    <circle
       style="fill:#ff0000;stroke:#ff0000;stroke-width:5.00001"
       id="path1063"
       cx="533.71759"
       cy="376.98135"
       r="5.2723145" />
  </g>
  <g
     inkscape:label="Symbols"
     inkscape:groupmode="layer"
     id="layer1"
     transform="translate(119.69407,-336.43405)">
    <g
       style="display:inline;fill:#ffffff;fill-rule:evenodd;stroke-width:28.222;stroke-linejoin:round"
       id="g1237"
       inkscape:label="stop"
       transform="matrix(0.02373095,0,0,0.02167355,-412.44494,430.51976)">
      <g
         class="com.sun.star.drawing.PolyPolygonShape"
         id="g835"
         transform="matrix(1.44,0,0,0.81,932.14658,-3463.7291)"
         style="fill:#ffffff">
        <g
           id="id89"
           style="fill:#ffffff">
          <rect
             class="BoundingBox"
             x="11431"
             y="1441"
             width="1756"
             height="648"
             id="rect830"
             style="display:inline;fill:#ffffff;stroke:none" />
          <path
             d="m 11431,1764 v -323 h 1755 v 646 h -1755 z"
             id="path832"
             inkscape:connector-curvature="0"
             style="display:inline;fill:#ffffff;fill-opacity:1;stroke:none" />
        </g>
      </g>
    </g>
    <g
       id="g3110-3-6"
       transform="matrix(0.86172587,0,0,0.84325145,-404.36091,237.06173)"
       style="display:inline;fill:#000000;fill-opacity:0;stroke-width:0.988741">
      <circle
         style="fill:#000000;fill-opacity:0;stroke:#7d7d7d;stroke-width:19.7748;stroke-linecap:butt;stroke-linejoin:round;stroke-miterlimit:4;stroke-dasharray:none;stroke-dashoffset:0;stroke-opacity:1"
         id="path3113-6-1"
         transform="matrix(0.25083911,0,0,0.25633463,652.29637,78.393471)"
         cx="335.71429"
         cy="385.21933"
         r="221.42857" />
    </g>
    <g
       id="g3110-3-7-8"
       transform="matrix(0.86172587,0,0,0.84325145,-304.3609,237.06173)"
       style="display:inline;fill:#000000;fill-opacity:0.00449518;stroke-width:0.988741">
      <circle
         style="fill:#000000;fill-opacity:0.00449518;stroke:#7d7d7d;stroke-width:19.7748;stroke-linecap:butt;stroke-linejoin:round;stroke-miterlimit:4;stroke-dasharray:none;stroke-dashoffset:0;stroke-opacity:1"
         id="path3113-6-5-7"
         transform="matrix(0.25083911,0,0,0.25633463,652.29637,78.393471)"
         cx="335.71429"
         cy="385.21933"
         r="221.42857" />
    </g>
    <g
       style="display:inline;fill:#ffffff;fill-rule:evenodd;stroke-width:28.222;stroke-linejoin:round"
       id="g1237-3"
       inkscape:label="stop"
       transform="matrix(0,0.02373095,-0.02167355,0,86.220209,-56.316815)">
      <g
         class="com.sun.star.drawing.PolyPolygonShape"
         id="g835-6"
         transform="matrix(1.44,0,0,0.81,932.14658,-3463.7291)"
         style="fill:#ffffff">
        <g
           id="id89-75"
           style="fill:#ffffff">
          <rect
             class="BoundingBox"
             x="11431"
             y="1441"
             width="1756"
             height="648"
             id="rect830-35"
             style="display:inline;fill:#ffffff;stroke:none" />
          <path
             d="m 11431,1764 v -323 h 1755 v 646 h -1755 z"
             id="path832-6"
             inkscape:connector-curvature="0"
             style="display:inline;fill:#ffffff;fill-opacity:1;stroke:none" />
        </g>
      </g>
    </g>
    <g
       style="display:inline;fill:#ffffff;fill-rule:evenodd;stroke-width:28.222;stroke-linejoin:round"
       id="g1237-3-2"
       inkscape:label="stop"
       transform="matrix(-0.01678032,0.01678032,-0.01532551,-0.01532551,512.20484,42.18853)">
      <g
         class="com.sun.star.drawing.PolyPolygonShape"
         id="g835-6-9"
         transform="matrix(1.44,0,0,0.81,932.14658,-3463.7291)"
         style="fill:#ffffff">
        <g
           id="id89-75-1"
           style="fill:#ffffff">
          <rect
             class="BoundingBox"
             x="11431"
             y="1441"
             width="1756"
             height="648"
             id="rect830-35-2"
             style="display:inline;fill:#ffffff;stroke:none" />
          <path
             d="m 11431,1764 v -323 h 1755 v 646 h -1755 z"
             id="path832-6-7"
             inkscape:connector-curvature="0"
             style="display:inline;fill:#ffffff;fill-opacity:1;stroke:none" />
        </g>
      </g>
    </g>
    <g
       style="display:inline;fill:#ffffff;fill-rule:evenodd;stroke-width:28.222;stroke-linejoin:round"
       id="g1237-3-0"
       inkscape:label="stop"
       transform="matrix(-0.01678032,-0.01678032,0.01532551,-0.01532551,674.55145,668.33297)">
      <g
         class="com.sun.star.drawing.PolyPolygonShape"
         id="g835-6-93"
         transform="matrix(1.44,0,0,0.81,932.14658,-3463.7291)"
         style="fill:#ffffff">
        <g
           id="id89-75-6"
           style="fill:#ffffff">
          <rect
             class="BoundingBox"
             x="11431"
             y="1441"
             width="1756"
             height="648"
             id="rect830-35-0"
             style="display:inline;fill:#ffffff;stroke:none" />
          <path
             d="m 11431,1764 v -323 h 1755 v 646 h -1755 z"
             id="path832-6-6"
             inkscape:connector-curvature="0"
             style="display:inline;fill:#ffffff;fill-opacity:1;stroke:none" />
        </g>
      </g>
    </g>
  </g>
</svg>
