<?xml version="1.0" encoding="UTF-8" standalone="no"?>
<svg
   inkscape:version="1.2.2 (732a01da63, 2022-12-09)"
   sodipodi:docname="site2.svg"
   viewBox="0 0 787.24634 886.00366"
   version="1.1"
   height="886.00366"
   width="787.24634"
   id="svg-container"
   xmlns:inkscape="http://www.inkscape.org/namespaces/inkscape"
   xmlns:sodipodi="http://sodipodi.sourceforge.net/DTD/sodipodi-0.dtd"
   xmlns="http://www.w3.org/2000/svg"
   xmlns:svg="http://www.w3.org/2000/svg"
   xmlns:rdf="http://www.w3.org/1999/02/22-rdf-syntax-ns#"
   xmlns:cc="http://creativecommons.org/ns#"
   xmlns:dc="http://purl.org/dc/elements/1.1/">
  <sodipodi:namedview
     inkscape:snap-bbox="false"
     inkscape:document-rotation="0"
     fit-margin-bottom="10"
     fit-margin-right="10"
     fit-margin-left="10"
     fit-margin-top="10"
     inkscape:current-layer="layerHeating"
     inkscape:window-maximized="1"
     inkscape:window-y="-8"
     inkscape:window-x="0"
     inkscape:cy="397.01046"
     inkscape:cx="523.1689"
     inkscape:zoom="0.83625001"
     showgrid="false"
     id="namedview1252"
     inkscape:window-height="1057"
     inkscape:window-width="1920"
     inkscape:pageshadow="2"
     inkscape:pageopacity="0"
     guidetolerance="10"
     gridtolerance="10"
     objecttolerance="10"
     borderopacity="1"
     bordercolor="#666666"
     pagecolor="#ffffff"
     showguides="false"
     inkscape:guide-bbox="true"
     inkscape:snap-text-baseline="true"
     inkscape:pagecheckerboard="true"
     inkscape:snap-nodes="true"
     inkscape:snap-center="true"
     inkscape:snap-object-midpoints="true"
     inkscape:showpageshadow="2"
     inkscape:deskcolor="#d1d1d1">
    <inkscape:grid
       originy="2569.1084"
       originx="1059.0527"
       type="xygrid"
       id="grid1049" />
  </sodipodi:namedview>
  <defs
     id="defs849">
    <linearGradient
       id="linearGradient1449"
       inkscape:swatch="solid">
      <stop
         style="stop-color:#848484;stop-opacity:1;"
         offset="0"
         id="stop1447" />
    </linearGradient>
  </defs>
  <metadata
     id="metadata851">
    <rdf:RDF>
      <cc:Work
         rdf:about="">
        <dc:format>image/svg+xml</dc:format>
        <dc:type
           rdf:resource="http://purl.org/dc/dcmitype/StillImage" />
        <dc:title />
      </cc:Work>
    </rdf:RDF>
  </metadata>
  <style
     id="style853">@keyframes redChange {
    0%{fill:#ff0000}
    50%{fill:#000}
    100%{fill: #ff0000}
  }
  @keyframes whiteChange {
    0%{fill: #fff}
    50%{fill: #000}
    100%{fill: #fff}
  }
  @keyframes blueChange {
    0%{fill: white}
    50%{fill: blue}
    100%{fill: white}
  }
.blue-blinking {
  animation: blueChange 1s infinite;
}
  .red-blinking {
    animation: redChange 1s infinite;
  }
  .white-blinking {
    animation: whiteChange 1s infinite;
  }</style>
  <g
     transform="translate(443.98635,-160.14128)"
     style="display:inline"
     inkscape:groupmode="layer"
     id="layerCabinet"
     inkscape:label="Cabinet">
    <g
       shvVisuType="Cabinet"
       shvDeviceType="Cabinet_G3"
       transform="rotate(180,114.00891,435.90844)"
       shvPath="devices/cabinet/SIG01"
       id="g1240">
      <text
         transform="scale(-1)"
         id="text955"
         xml:space="preserve"
         style="font-size:12.1535px;line-height:1.25;font-family:sans-serif;font-variant-ligatures:normal;font-variant-caps:normal;font-variant-numeric:normal;fill:#000000;stroke-width:1.1394"
         font-size="3.1059px"
         y="-33.705055"
         x="-520.11298"><tspan
           shvAlarmPosition="right"
           id="tspan953"
           style="font-size:16px;font-family:sans-serif;font-variant-ligatures:normal;font-variant-caps:normal;font-variant-numeric:normal;stroke-width:1.1394"
           font-size="3.1059px"
           y="-33.705055"
           x="-520.11298">SIG01</tspan></text>
      <g
         transform="rotate(180,496.95529,75.068728)"
         id="g1230">
        <path
           chid="box"
           d="m 523.37835,99.43313 -52.86828,-0.005 0.002,-22.28752 52.86828,0.005 z"
           id="path1486"
           inkscape:connector-curvature="0"
           style="opacity:1;vector-effect:none;fill:#c8beb7;fill-opacity:0.239216;stroke:#4d4d4d;stroke-width:0.909;stroke-linecap:round;stroke-linejoin:bevel;stroke-miterlimit:4;stroke-dasharray:none;stroke-dashoffset:0;stroke-opacity:1"
           sodipodi:nodetypes="ccccc" />
        <g
           transform="matrix(3.5276366e-4,-3.4343434,3.4343434,3.5276366e-4,-229.67423,473.66487)"
           chid="doors"
           id="g1492"
           style="fill:none;stroke:#ff2a2a;stroke-width:0.410168;stroke-miterlimit:4;stroke-dasharray:none">
          <path
             d="m 115.48,219.26 5.4427,5.4427 a 7.6971,7.6971 0 0 0 2.2544,-5.4427 7.6971,7.6971 0 0 0 -7.6972,-7.6972 v 7.6972"
             id="path1488"
             inkscape:connector-curvature="0"
             style="stroke:#ff2a2a;stroke-width:0.410168;stroke-miterlimit:4;stroke-dasharray:none" />
          <path
             d="m 115.48,203.87 5.4427,-5.4427 a 7.6971,7.6971 0 0 1 2.2544,5.4427 7.6971,7.6971 0 0 1 -7.6972,7.6972 V 203.87"
             id="path1490"
             inkscape:connector-curvature="0"
             style="stroke:#ff2a2a;stroke-width:0.410168;stroke-miterlimit:4;stroke-dasharray:none" />
        </g>
        <path
           inkscape:connector-curvature="0"
           d="m 470.5261,77.138812 52.85225,22.294318 v 0 0 0 0 m 0.002,-22.288889 -52.87057,22.283889"
           style="fill:none;stroke:#4d4d4d;stroke-width:1px;stroke-linecap:butt;stroke-linejoin:miter;stroke-opacity:1"
           id="path1215" />
      </g>
    </g>
    <path
       style="display:inline;fill:none;stroke:#6e6e6e;stroke-width:9.10744;stroke-linecap:round"
       inkscape:connector-curvature="0"
       d="m 11.200601,196.64989 -0.50159,492.92294 0.50159,327.42807"
       id="path913" />
    <path
       style="display:inline;fill:none;stroke:#6e6e6e;stroke-width:9.10599;stroke-linecap:round"
       inkscape:connector-curvature="0"
       d="m 148.1518,196.96049 0.24025,466.93658 -0.24025,353.15563"
       id="path915" />
    <path
       inkscape:connector-curvature="0"
       style="display:inline;fill:none;stroke:#6e6e6e;stroke-width:9.11504;stroke-linecap:round"
       d="m 10.721061,709.62793 92.745049,93.91181 225.21438,228.04766"
       id="path919"
       sodipodi:nodetypes="ccc" />
    <path
       inkscape:connector-curvature="0"
       style="display:inline;fill:none;stroke:#6e6e6e;stroke-width:9.115;stroke-linecap:round;stroke-miterlimit:4;stroke-dasharray:none"
       d="M 148.57292,676.53058 328.70249,848.1258"
       id="path933"
       sodipodi:nodetypes="cc" />
    <path
       sodipodi:nodetypes="cc"
       id="path1692"
       d="M -312.50836,382.76859 H -83.359259"
       style="display:inline;fill:none;stroke:#000000;stroke-width:1.4;stroke-linecap:butt;stroke-linejoin:miter;stroke-miterlimit:4;stroke-dasharray:4.2, 4.2;stroke-dashoffset:0.14;stroke-opacity:0.591281" />
    <path
       style="fill:none;stroke:#000000;stroke-width:1.4;stroke-linecap:butt;stroke-linejoin:miter;stroke-miterlimit:4;stroke-dasharray:4.2, 4.2;stroke-dashoffset:0.14;stroke-opacity:0.591281"
       d="M -312.50836,522.76859 H -83.359259"
       id="path1692-0"
       sodipodi:nodetypes="cc" />
    <path
       id="path1712"
       d="m -83.359259,522.76859 v -140"
       style="fill:none;stroke:#000000;stroke-width:1.4;stroke-linecap:butt;stroke-linejoin:miter;stroke-miterlimit:4;stroke-dasharray:4.2, 4.2;stroke-dashoffset:0.14;stroke-opacity:0.591281" />
    <path
       style="display:inline;fill:none;stroke:#000000;stroke-width:1.4;stroke-linecap:butt;stroke-linejoin:miter;stroke-miterlimit:4;stroke-dasharray:4.2, 4.2;stroke-dashoffset:0.14;stroke-opacity:0.591281"
       d="m -312.50836,522.76859 v -140"
       id="path1712-4" />
    <text
       id="text1739"
       y="538.03479"
       x="-276.04425"
       style="font-style:normal;font-variant:normal;font-weight:normal;font-stretch:normal;font-size:16px;line-height:1.45;font-family:sans-serif;-inkscape-font-specification:'sans-serif, Normal';font-variant-ligatures:normal;font-variant-caps:normal;font-variant-numeric:normal;font-variant-east-asian:normal;letter-spacing:0px;word-spacing:0px;fill:#000000;fill-opacity:0.592157"
       xml:space="preserve"><tspan
         y="538.03479"
         x="-276.04425"
         id="tspan1737"
         sodipodi:role="line">optional equipment</tspan></text>
  </g>
  <g
     transform="translate(443.98635,-160.14128)"
     style="display:inline"
     inkscape:groupmode="layer"
     id="layerRoute"
     inkscape:label="Route">
    <g
       shvVisuType="Route"
       shvDeviceType="Route_G3"
       transform="rotate(180,439.35368,1136.8371)"
       shvPath="devices/zone/Zone/route/Straight"
       id="g2169">
      <path
         sodipodi:nodetypes="cc"
         style="fill:none;stroke:#ffbb33;stroke-width:20;stroke-linecap:round"
         inkscape:connector-curvature="0"
         d="m 867.50676,1911.0244 -4e-5,-495.2002"
         id="path855"
         chid="route" />
      <text
         transform="scale(-1)"
         id="text1191-97"
         xml:space="preserve"
         style="font-size:12.1535px;line-height:1.25;font-family:sans-serif;font-variant-ligatures:normal;font-variant-caps:normal;font-variant-numeric:normal;fill:#000000;stroke-width:1.1394"
         font-size="3.1059px"
         y="-1906.2013"
         x="-1021.5651"><tspan
           shvAlarmPosition="right"
           id="tspan1189-3"
           y="-1906.2013"
           x="-1021.5651"
           style="font-size:16px;stroke-width:1.1394">route Straight</tspan></text>
    </g>
    <g
       shvVisuType="Route"
       shvDeviceType="Route_G3"
       transform="rotate(180,158.44513,1196.6174)"
       shvPath="devices/zone/Zone/route/Left"
       id="g695">
      <path
         sodipodi:nodetypes="ccc"
         style="fill:none;stroke:#ffbb33;stroke-width:20;stroke-linecap:round"
         inkscape:connector-curvature="0"
         d="m 305.68966,2030.585 -0.65451,-348.3851 -84.93266,-85.9407"
         id="path689"
         chid="route" />
      <text
         transform="scale(-1)"
         id="text693"
         xml:space="preserve"
         style="font-size:12.1535px;line-height:1.25;font-family:sans-serif;font-variant-ligatures:normal;font-variant-caps:normal;font-variant-numeric:normal;fill:#000000;stroke-width:1.1394"
         font-size="3.1059px"
         y="-2050.6538"
         x="-426.01361"><tspan
           shvAlarmPosition="right"
           id="tspan691"
           y="-2050.6538"
           x="-426.01361"
           style="font-size:16px;stroke-width:1.1394">route Left</tspan></text>
    </g>
  </g>
  <g
     transform="translate(443.98635,-160.14128)"
     style="display:inline"
     inkscape:groupmode="layer"
     id="layerMPS"
     inkscape:label="MPS">
    <g
       shvVisuType="Matrix"
       shvDeviceType="MPS_G3"
       shvPath="devices/signal/MAT01"
       id="g1099"
       transform="rotate(180,110.88979,420.63329)">
      <text
         transform="scale(-1)"
         x="-499.71558"
         y="-374.60754"
         font-size="3.1059px"
         style="font-size:12.1535px;line-height:1.25;font-family:sans-serif;font-variant-ligatures:normal;font-variant-caps:normal;font-variant-numeric:normal;fill:#000000;stroke-width:0.2;stroke-miterlimit:4;stroke-dasharray:none"
         xml:space="preserve"
         id="text955-3-5-3-3-3"><tspan
           shvAlarmPosition="right"
           x="-499.71558"
           y="-374.60754"
           font-size="3.1059px"
           style="font-size:16px;font-family:sans-serif;font-variant-ligatures:normal;font-variant-caps:normal;font-variant-numeric:normal;stroke-width:0.2;stroke-miterlimit:4;stroke-dasharray:none"
           id="tspan953-6-3-6-6-6">MAT01</tspan></text>
      <g
         transform="rotate(180,374,359.15366)"
         id="g1087">
        <rect
           style="opacity:1;fill:#9b9b9b;fill-opacity:1;fill-rule:nonzero;stroke:#060606;stroke-width:3;stroke-linecap:butt;stroke-linejoin:round;stroke-miterlimit:4;stroke-dasharray:none;stroke-dashoffset:0;stroke-opacity:1;paint-order:normal"
           id="rect1233-7-7"
           width="105"
           height="50.77906"
           x="321.5"
           y="333.76413"
           chid="mps" />
        <text
           xml:space="preserve"
           style="font-style:normal;font-weight:normal;font-size:40px;line-height:1.25;font-family:sans-serif;letter-spacing:0px;word-spacing:0px;fill:#000000;fill-opacity:1;stroke:none;stroke-width:0.2;stroke-miterlimit:4;stroke-dasharray:none"
           x="320"
           y="349.2684"
           id="text1255-5-5"><tspan
             sodipodi:role="line"
             id="tspan1253-3-3"
             x="320"
             y="349.2684"
             chid="row0"
             style="font-size:12.564px;font-family:sans-serif;font-variant-ligatures:normal;font-variant-caps:normal;font-variant-numeric:normal;fill:#000000;fill-opacity:1;stroke-width:0.2;stroke-miterlimit:4;stroke-dasharray:none"> Row 0</tspan></text>
        <text
           id="text1255-5-7-5"
           y="377.13669"
           x="320"
           style="font-style:normal;font-weight:normal;font-size:40px;line-height:1.25;font-family:sans-serif;letter-spacing:0px;word-spacing:0px;fill:#000000;fill-opacity:1;stroke:none;stroke-width:0.2;stroke-miterlimit:4;stroke-dasharray:none"
           xml:space="preserve"><tspan
             style="font-size:12.564px;font-family:sans-serif;font-variant-ligatures:normal;font-variant-caps:normal;font-variant-numeric:normal;fill:#000000;fill-opacity:1;stroke-width:0.2;stroke-miterlimit:4;stroke-dasharray:none"
             chid="row2"
             y="377.13669"
             x="320"
             id="tspan1253-3-5-6"
             sodipodi:role="line"> Row 2               </tspan></text>
        <text
           xml:space="preserve"
           style="font-style:normal;font-weight:normal;font-size:40px;line-height:1.25;font-family:sans-serif;letter-spacing:0px;word-spacing:0px;fill:#000000;fill-opacity:1;stroke:none;stroke-width:0.2;stroke-miterlimit:4;stroke-dasharray:none"
           x="320"
           y="363.09818"
           id="text1255-5-3-2"><tspan
             sodipodi:role="line"
             id="tspan1253-3-6-9"
             x="320"
             y="363.09818"
             chid="row1"
             style="font-size:12.564px;font-family:sans-serif;font-variant-ligatures:normal;font-variant-caps:normal;font-variant-numeric:normal;fill:#000000;fill-opacity:1;stroke-width:0.2;stroke-miterlimit:4;stroke-dasharray:none"> Row 1               </tspan></text>
      </g>
    </g>
  </g>
  <g
     transform="translate(443.98635,-160.14128)"
     style="display:inline"
     inkscape:groupmode="layer"
     id="layerGate"
     inkscape:label="Gate">
    <g
       shvDeviceType="Gate_G3"
       id="g1575"
       shvPath="devices/zone/Zone/gate/G01"
       shvVisuType="Gate"
       transform="rotate(180,386.34594,324.86723)">
      <text
         transform="scale(-1)"
         x="-719.43243"
         y="-297.44113"
         font-size="3.1059px"
         style="font-size:12.1535px;line-height:1.25;font-family:sans-serif;font-variant-ligatures:normal;font-variant-caps:normal;font-variant-numeric:normal;fill:#000000;stroke-width:1.1394"
         xml:space="preserve"
         id="text955-36"><tspan
           x="-719.43243"
           y="-297.44113"
           font-size="3.1059px"
           style="font-size:16px;font-family:sans-serif;font-variant-ligatures:normal;font-variant-caps:normal;font-variant-numeric:normal;stroke-width:1.1394"
           id="tspan953-75"
           shvAlarmPosition="right">G01</tspan></text>
      <path
         id="path614"
         style="display:inline;fill:none;stroke:#cc0033;stroke-width:3.895;stroke-miterlimit:4;stroke-dasharray:none"
         d="m 782.42974,309.43434 -0.008,-10.55368 -42.22953,0.0337 0.008,10.5537"
         inkscape:connector-curvature="0"
         chid="gate" />
    </g>
    <g
       style="display:inline"
       transform="rotate(180,386.34557,584.38033)"
       id="g1575-3">
      <text
         transform="scale(-1)"
         id="text955-36-3"
         xml:space="preserve"
         style="font-size:12.1535px;line-height:1.25;font-family:sans-serif;font-variant-ligatures:normal;font-variant-caps:normal;font-variant-numeric:normal;fill:#000000;stroke-width:1.1394"
         font-size="3.1059px"
         y="-297.44113"
         x="-829.30743"><tspan
           shvAlarmPosition="right"
           id="tspan953-75-9"
           style="font-size:16px;font-family:sans-serif;font-variant-ligatures:normal;font-variant-caps:normal;font-variant-numeric:normal;stroke-width:1.1394"
           font-size="3.1059px"
           y="-297.44113"
           x="-829.30743">G02</tspan></text>
      <path
         chid="gate"
         inkscape:connector-curvature="0"
         d="m 782.42974,309.43434 -0.008,-10.55368 -42.22953,0.0337 0.008,10.5537"
         style="display:inline;fill:none;fill-opacity:1;stroke:#317c33;stroke-width:3.895;stroke-miterlimit:4;stroke-dasharray:none;stroke-opacity:1"
         id="path614-7" />
    </g>
    <g
       id="g1575-3-7"
       transform="rotate(180,413.56445,598.673)"
       style="display:inline">
      <text
         transform="scale(-1)"
         x="-785.02863"
         y="-368.40497"
         font-size="3.1059px"
         style="font-size:12.1535px;line-height:1.25;font-family:sans-serif;font-variant-ligatures:normal;font-variant-caps:normal;font-variant-numeric:normal;fill:#000000;stroke-width:1.1394"
         xml:space="preserve"
         id="text955-36-3-4"><tspan
           x="-785.02863"
           y="-368.40497"
           font-size="3.1059px"
           style="font-size:16px;font-family:sans-serif;font-variant-ligatures:normal;font-variant-caps:normal;font-variant-numeric:normal;stroke-width:1.1394"
           id="tspan953-75-9-8"
           shvAlarmPosition="right">G03</tspan></text>
      <path
         id="path614-7-2"
         style="display:inline;fill:none;fill-opacity:1;stroke:#317c33;stroke-width:3.895;stroke-miterlimit:4;stroke-dasharray:none;stroke-opacity:1"
         d="m 744.63798,384.0534 -7.46823,-7.45692 -29.83696,29.88461 7.46825,7.45694"
         inkscape:connector-curvature="0"
         chid="gate" />
    </g>
    <g
       transform="translate(-2132.4542,-188.21688)"
       shvVisuType="GateData"
       shvPath="devices/zone/Zone/gate/G01"
       id="g2122-1"
       shvDeviceType="Gate_G3"
       shvVisuTypeVariant="Default"
       style="display:inline">
      <text
         x="1702.2402"
         y="453.91443"
         font-size="3.1059px"
         style="font-size:12.1535px;line-height:1.25;font-family:sans-serif;font-variant-ligatures:normal;font-variant-caps:normal;font-variant-numeric:normal;fill:#000000;stroke-width:1.1394"
         xml:space="preserve"
         id="text1062-8-9-5-3-1-8"><tspan
           style="font-size:16px;stroke-width:1.1394"
           x="1702.2402"
           y="453.91443"
           id="tspan1060-7-3-6-6-2-2"
           shvAlarmPosition="right">G01</tspan></text>
      <g
         id="g2053-0">
        <g
           transform="translate(-4.0269453,-35.059223)"
           id="g2051-1">
          <rect
             ry="0.16663547"
             y="497.42551"
             x="1704.4814"
             height="16.231249"
             width="274.8605"
             id="rect1044-3-6-6-7-7-31-5"
             style="fill:#c8beb7;fill-opacity:0.239216;stroke:#4d4d4d;stroke-width:0.909;stroke-linecap:round;stroke-linejoin:bevel;stroke-miterlimit:4;stroke-dasharray:none;stroke-dashoffset:0;stroke-opacity:1"
             rx="0.16663547" />
          <rect
             style="fill:none;fill-opacity:0.239216;stroke:#4d4d4d;stroke-width:0.909;stroke-linecap:round;stroke-linejoin:bevel;stroke-miterlimit:4;stroke-dasharray:none;stroke-dashoffset:0;stroke-opacity:1"
             id="rect1024-1-6-0-5-9-7"
             width="274.8493"
             height="16.231249"
             x="1704.4926"
             y="529.88794"
             ry="0.16663547"
             rx="0.16663547" />
          <text
             x="1728.168"
             y="509.63434"
             font-size="11.647px"
             style="font-size:45.5752px;line-height:1.25;font-family:sans-serif;fill:#000000;stroke-width:1.1394"
             xml:space="preserve"
             id="text1099-2-7-9-3-4-3"><tspan
               x="1728.168"
               y="509.63434"
               font-size="2.3294px"
               style="font-size:9.11504px;font-family:sans-serif;font-variant-ligatures:normal;font-variant-caps:normal;font-variant-numeric:normal;stroke-width:1.5705"
               id="tspan1097-7-5-3-5-7-5">Time</tspan></text>
          <rect
             ry="0.16663547"
             y="513.65674"
             x="1704.4814"
             height="16.231249"
             width="274.86047"
             id="rect1044-3-6-62-6-8-0"
             style="fill:none;fill-opacity:0.239216;stroke:#4d4d4d;stroke-width:0.909;stroke-linecap:round;stroke-linejoin:bevel;stroke-miterlimit:4;stroke-dasharray:none;stroke-dashoffset:0;stroke-opacity:1"
             rx="0.16663547" />
          <text
             id="text1048-6-2-2-2-12-4-4"
             xml:space="preserve"
             style="font-size:45.5752px;line-height:1.25;font-family:sans-serif;fill:#000000;stroke-width:1.1394"
             font-size="11.647px"
             y="509.30908"
             x="1786.0132"><tspan
               id="tspan1046-0-9-6-0-70-5-6"
               style="font-size:9.11504px;font-family:sans-serif;font-variant-ligatures:normal;font-variant-caps:normal;font-variant-numeric:normal;stroke-width:1.5705"
               font-size="2.3294px"
               y="509.30908"
               x="1786.0132">Vehicle Id</tspan></text>
          <rect
             style="fill:none;fill-opacity:0.239216;stroke:#4d4d4d;stroke-width:0.909;stroke-linecap:round;stroke-linejoin:bevel;stroke-miterlimit:4;stroke-dasharray:none;stroke-dashoffset:0;stroke-opacity:1"
             id="rect1056-6-7-1-7-28-3-0-1"
             width="68.668579"
             height="48.726917"
             x="1704.6185"
             y="497.42532"
             ry="0.16663547"
             rx="0.16663547" />
          <rect
             style="fill:none;fill-opacity:0.239216;stroke:#4d4d4d;stroke-width:0.909;stroke-linecap:round;stroke-linejoin:bevel;stroke-miterlimit:4;stroke-dasharray:none;stroke-dashoffset:0;stroke-opacity:1"
             id="rect1056-6-7-1-7-60-3-2"
             width="68.668579"
             height="97.207085"
             x="1773.2871"
             y="497.492"
             ry="0.33242711"
             rx="0.33242711" />
          <text
             x="1861.8025"
             y="526.05988"
             font-size="3.2px"
             style="font-size:12.5217px;line-height:1.25;font-family:sans-serif;text-align:end;text-anchor:end;fill:#0055d4;stroke-width:1.5705"
             xml:space="preserve"
             id="text1107-0-3-6-9-62-6-3"><tspan
               x="1770.603"
               y="526.05988"
               font-size="3.2108px"
               style="font-size:12.564px;font-family:sans-serif;font-variant-ligatures:normal;font-variant-caps:normal;font-variant-numeric:normal;text-align:end;text-anchor:end;fill:#0055d4;stroke-width:1.5705"
               id="tspan1105-9-5-0-7-61-1-1"
               chid="row0/timeCreated">row0/time</tspan></text>
          <text
             x="1930.7853"
             y="526.06006"
             font-size="3.2px"
             style="font-size:12.5217px;line-height:1.25;font-family:sans-serif;text-align:end;text-anchor:end;fill:#0055d4;stroke-width:1.5705"
             xml:space="preserve"
             id="text1107-0-3-6-1-92-0-8"><tspan
               x="1839.5858"
               y="526.06006"
               font-size="3.2108px"
               style="font-size:12.564px;font-family:sans-serif;font-variant-ligatures:normal;font-variant-caps:normal;font-variant-numeric:normal;text-align:end;text-anchor:end;fill:#0055d4;stroke-width:1.5705"
               id="tspan1105-9-5-0-2-0-6-5"
               chid="row0/vehicleId">row0/ve...</tspan></text>
          <text
             x="1861.8025"
             y="542.06586"
             font-size="3.2px"
             style="font-size:12.5217px;line-height:1.25;font-family:sans-serif;text-align:end;text-anchor:end;fill:#0055d4;stroke-width:1.5705"
             xml:space="preserve"
             id="text1107-0-3-6-9-3-23-3-72"><tspan
               x="1770.603"
               y="542.06586"
               font-size="3.2108px"
               style="font-size:12.564px;font-family:sans-serif;font-variant-ligatures:normal;font-variant-caps:normal;font-variant-numeric:normal;text-align:end;text-anchor:end;fill:#0055d4;stroke-width:1.5705"
               id="tspan1105-9-5-0-7-6-7-2-4"
               chid="row1/timeCreated">row1/time</tspan></text>
          <text
             x="1930.7853"
             y="542.06604"
             font-size="3.2px"
             style="font-size:12.5217px;line-height:1.25;font-family:sans-serif;text-align:end;text-anchor:end;fill:#0055d4;stroke-width:1.5705"
             xml:space="preserve"
             id="text1107-0-3-6-9-35-28-0-9"><tspan
               x="1839.5858"
               y="542.06604"
               font-size="3.2108px"
               style="font-size:12.564px;font-family:sans-serif;font-variant-ligatures:normal;font-variant-caps:normal;font-variant-numeric:normal;text-align:end;text-anchor:end;fill:#0055d4;stroke-width:1.5705"
               id="tspan1105-9-5-0-7-62-9-6-0"
               chid="row1/vehicleId">row1/ve...</tspan></text>
          <text
             id="text1048-6-2-2-2-7-1-9"
             xml:space="preserve"
             style="font-size:45.5752px;line-height:1.25;font-family:sans-serif;fill:#000000;stroke-width:1.1394"
             font-size="11.647px"
             y="509.30945"
             x="1915.8131"><tspan
               id="tspan1046-0-9-6-0-09-5-3"
               style="font-size:9.11504px;font-family:sans-serif;font-variant-ligatures:normal;font-variant-caps:normal;font-variant-numeric:normal;stroke-width:1.5705"
               font-size="2.3294px"
               y="509.30945"
               x="1915.8131">Line number</tspan></text>
          <rect
             style="fill:none;fill-opacity:0.239216;stroke:#4d4d4d;stroke-width:0.909;stroke-linecap:round;stroke-linejoin:bevel;stroke-miterlimit:4;stroke-dasharray:none;stroke-dashoffset:0;stroke-opacity:1"
             id="rect1056-6-7-1-7-36-5-4"
             width="68.668579"
             height="97.207085"
             x="1910.6732"
             y="497.49237"
             ry="0.33242711"
             rx="0.33242711" />
          <text
             x="2068.1714"
             y="526.06042"
             font-size="3.2px"
             style="font-size:12.5217px;line-height:1.25;font-family:sans-serif;text-align:end;text-anchor:end;fill:#0055d4;stroke-width:1.5705"
             xml:space="preserve"
             id="text1107-0-3-6-1-0-4-1"><tspan
               x="1976.9719"
               y="526.06042"
               font-size="3.2108px"
               style="font-size:12.564px;font-family:sans-serif;font-variant-ligatures:normal;font-variant-caps:normal;font-variant-numeric:normal;text-align:end;text-anchor:end;fill:#0055d4;stroke-width:1.5705"
               id="tspan1105-9-5-0-2-6-7-1"
               chid="row0/lineNumber">row0/lin...</tspan></text>
          <text
             x="2068.1714"
             y="542.06641"
             font-size="3.2px"
             style="font-size:12.5217px;line-height:1.25;font-family:sans-serif;text-align:end;text-anchor:end;fill:#0055d4;stroke-width:1.5705"
             xml:space="preserve"
             id="text1107-0-3-6-9-35-2-6-9"><tspan
               x="1976.9719"
               y="542.06641"
               font-size="3.2108px"
               style="font-size:12.564px;font-family:sans-serif;font-variant-ligatures:normal;font-variant-caps:normal;font-variant-numeric:normal;text-align:end;text-anchor:end;fill:#0055d4;stroke-width:1.5705"
               id="tspan1105-9-5-0-7-62-6-5-7"
               chid="row1/lineNumber">row1/lin...</tspan></text>
          <text
             id="text1048-6-2-2-2-1-6-2"
             xml:space="preserve"
             style="font-size:45.5752px;line-height:1.25;font-family:sans-serif;fill:#000000;stroke-width:1.1394"
             font-size="11.647px"
             y="509.30939"
             x="1862.8978"><tspan
               id="tspan1046-0-9-6-0-8-9-6"
               style="font-size:9.11504px;font-family:sans-serif;font-variant-ligatures:normal;font-variant-caps:normal;font-variant-numeric:normal;stroke-width:1.5705"
               font-size="2.3294px"
               y="509.30939"
               x="1862.8978">Route</tspan></text>
          <rect
             style="fill:none;fill-opacity:0.239216;stroke:#4d4d4d;stroke-width:0.909;stroke-linecap:round;stroke-linejoin:bevel;stroke-miterlimit:4;stroke-dasharray:none;stroke-dashoffset:0;stroke-opacity:1"
             id="rect1056-6-7-1-7-7-3-7"
             width="68.668579"
             height="97.273811"
             x="1842.0046"
             y="497.42566"
             ry="0.33265531"
             rx="0.33265531" />
          <text
             x="1999.5027"
             y="526.06036"
             font-size="3.2px"
             style="font-size:12.5217px;line-height:1.25;font-family:sans-serif;text-align:end;text-anchor:end;fill:#0055d4;stroke-width:1.5705"
             xml:space="preserve"
             id="text1107-0-3-6-1-9-7-8"><tspan
               x="1908.3033"
               y="526.06036"
               font-size="3.2108px"
               style="font-size:12.564px;font-family:sans-serif;font-variant-ligatures:normal;font-variant-caps:normal;font-variant-numeric:normal;text-align:end;text-anchor:end;fill:#0055d4;stroke-width:1.5705"
               id="tspan1105-9-5-0-2-2-4-0"
               chid="row0/route">row0/ro...</tspan></text>
          <text
             x="1999.5027"
             y="542.06635"
             font-size="3.2px"
             style="font-size:12.5217px;line-height:1.25;font-family:sans-serif;text-align:end;text-anchor:end;fill:#0055d4;stroke-width:1.5705"
             xml:space="preserve"
             id="text1107-0-3-6-9-35-0-5-24"><tspan
               x="1908.3033"
               y="542.06635"
               font-size="3.2108px"
               style="font-size:12.564px;font-family:sans-serif;font-variant-ligatures:normal;font-variant-caps:normal;font-variant-numeric:normal;text-align:end;text-anchor:end;fill:#0055d4;stroke-width:1.5705"
               id="tspan1105-9-5-0-7-62-2-2-1"
               chid="row1/route">row1/ro...</tspan></text>
          <rect
             style="fill:none;fill-opacity:0.239216;stroke:#4d4d4d;stroke-width:0.909;stroke-linecap:round;stroke-linejoin:bevel;stroke-miterlimit:4;stroke-dasharray:none;stroke-dashoffset:0;stroke-opacity:1"
             id="rect1024-1-6-0-5-9-4-0"
             width="274.8493"
             height="16.231249"
             x="1704.6296"
             y="562.38342"
             ry="0.16663547"
             rx="0.16663547" />
          <rect
             ry="0.16663547"
             y="546.15222"
             x="1704.6185"
             height="16.231249"
             width="274.86047"
             id="rect1044-3-6-62-6-8-7-9"
             style="fill:none;fill-opacity:0.239216;stroke:#4d4d4d;stroke-width:0.909;stroke-linecap:round;stroke-linejoin:bevel;stroke-miterlimit:4;stroke-dasharray:none;stroke-dashoffset:0;stroke-opacity:1"
             rx="0.16663547" />
          <text
             x="1861.9396"
             y="558.55536"
             font-size="3.2px"
             style="font-size:12.5217px;line-height:1.25;font-family:sans-serif;text-align:end;text-anchor:end;fill:#0055d4;stroke-width:1.5705"
             xml:space="preserve"
             id="text1107-0-3-6-9-62-6-4-7"><tspan
               x="1770.7401"
               y="558.55536"
               font-size="3.2108px"
               style="font-size:12.564px;font-family:sans-serif;font-variant-ligatures:normal;font-variant-caps:normal;font-variant-numeric:normal;text-align:end;text-anchor:end;fill:#0055d4;stroke-width:1.5705"
               id="tspan1105-9-5-0-7-61-1-4-2"
               chid="row2/timeCreated">row2/time</tspan></text>
          <text
             x="1930.9224"
             y="558.55554"
             font-size="3.2px"
             style="font-size:12.5217px;line-height:1.25;font-family:sans-serif;text-align:end;text-anchor:end;fill:#0055d4;stroke-width:1.5705"
             xml:space="preserve"
             id="text1107-0-3-6-1-92-0-3-9"><tspan
               x="1839.7229"
               y="558.55554"
               font-size="3.2108px"
               style="font-size:12.564px;font-family:sans-serif;font-variant-ligatures:normal;font-variant-caps:normal;font-variant-numeric:normal;text-align:end;text-anchor:end;fill:#0055d4;stroke-width:1.5705"
               id="tspan1105-9-5-0-2-0-6-0-3"
               chid="row2/vehicleId">row2/ve...</tspan></text>
          <text
             x="1861.9396"
             y="574.56134"
             font-size="3.2px"
             style="font-size:12.5217px;line-height:1.25;font-family:sans-serif;text-align:end;text-anchor:end;fill:#0055d4;stroke-width:1.5705"
             xml:space="preserve"
             id="text1107-0-3-6-9-3-23-3-7-3"><tspan
               x="1770.7401"
               y="574.56134"
               font-size="3.2108px"
               style="font-size:12.564px;font-family:sans-serif;font-variant-ligatures:normal;font-variant-caps:normal;font-variant-numeric:normal;text-align:end;text-anchor:end;fill:#0055d4;stroke-width:1.5705"
               id="tspan1105-9-5-0-7-6-7-2-8-0"
               chid="row3/timeCreated">row3/time</tspan></text>
          <text
             x="1930.9224"
             y="574.56152"
             font-size="3.2px"
             style="font-size:12.5217px;line-height:1.25;font-family:sans-serif;text-align:end;text-anchor:end;fill:#0055d4;stroke-width:1.5705"
             xml:space="preserve"
             id="text1107-0-3-6-9-35-28-0-6-3"><tspan
               x="1839.7229"
               y="574.56152"
               font-size="3.2108px"
               style="font-size:12.564px;font-family:sans-serif;font-variant-ligatures:normal;font-variant-caps:normal;font-variant-numeric:normal;text-align:end;text-anchor:end;fill:#0055d4;stroke-width:1.5705"
               id="tspan1105-9-5-0-7-62-9-6-8-7"
               chid="row3/vehicleId">row3/ve...</tspan></text>
          <text
             x="2068.3086"
             y="558.55591"
             font-size="3.2px"
             style="font-size:12.5217px;line-height:1.25;font-family:sans-serif;text-align:end;text-anchor:end;fill:#0055d4;stroke-width:1.5705"
             xml:space="preserve"
             id="text1107-0-3-6-1-0-4-8-0"><tspan
               x="1977.109"
               y="558.55591"
               font-size="3.2108px"
               style="font-size:12.564px;font-family:sans-serif;font-variant-ligatures:normal;font-variant-caps:normal;font-variant-numeric:normal;text-align:end;text-anchor:end;fill:#0055d4;stroke-width:1.5705"
               id="tspan1105-9-5-0-2-6-7-4-3"
               chid="row2/lineNumber">row2/lin...</tspan></text>
          <text
             x="2068.3086"
             y="574.56189"
             font-size="3.2px"
             style="font-size:12.5217px;line-height:1.25;font-family:sans-serif;text-align:end;text-anchor:end;fill:#0055d4;stroke-width:1.5705"
             xml:space="preserve"
             id="text1107-0-3-6-9-35-2-6-3-6"><tspan
               x="1977.109"
               y="574.56189"
               font-size="3.2108px"
               style="font-size:12.564px;font-family:sans-serif;font-variant-ligatures:normal;font-variant-caps:normal;font-variant-numeric:normal;text-align:end;text-anchor:end;fill:#0055d4;stroke-width:1.5705"
               id="tspan1105-9-5-0-7-62-6-5-1-9"
               chid="row3/lineNumber">row3/lin...</tspan></text>
          <text
             x="1999.6396"
             y="558.55585"
             font-size="3.2px"
             style="font-size:12.5217px;line-height:1.25;font-family:sans-serif;text-align:end;text-anchor:end;fill:#0055d4;stroke-width:1.5705"
             xml:space="preserve"
             id="text1107-0-3-6-1-9-7-4-5"><tspan
               x="1908.4404"
               y="558.55585"
               font-size="3.2108px"
               style="font-size:12.564px;font-family:sans-serif;font-variant-ligatures:normal;font-variant-caps:normal;font-variant-numeric:normal;text-align:end;text-anchor:end;fill:#0055d4;stroke-width:1.5705"
               id="tspan1105-9-5-0-2-2-4-9-4"
               chid="row2/route">row2/ro...</tspan></text>
          <text
             x="1999.6396"
             y="574.56183"
             font-size="3.2px"
             style="font-size:12.5217px;line-height:1.25;font-family:sans-serif;text-align:end;text-anchor:end;fill:#0055d4;stroke-width:1.5705"
             xml:space="preserve"
             id="text1107-0-3-6-9-35-0-5-2-9"><tspan
               x="1908.4404"
               y="574.56183"
               font-size="3.2108px"
               style="font-size:12.564px;font-family:sans-serif;font-variant-ligatures:normal;font-variant-caps:normal;font-variant-numeric:normal;text-align:end;text-anchor:end;fill:#0055d4;stroke-width:1.5705"
               id="tspan1105-9-5-0-7-62-2-2-0-3"
               chid="row3/route">row3/ro...</tspan></text>
          <rect
             ry="0.16663547"
             y="578.61469"
             x="1704.6296"
             height="16.231249"
             width="274.86047"
             id="rect1044-3-6-62-6-8-8-0"
             style="fill:none;fill-opacity:0.239216;stroke:#4d4d4d;stroke-width:0.909;stroke-linecap:round;stroke-linejoin:bevel;stroke-miterlimit:4;stroke-dasharray:none;stroke-dashoffset:0;stroke-opacity:1"
             rx="0.16663547" />
          <text
             x="1861.9507"
             y="591.01782"
             font-size="3.2px"
             style="font-size:12.5217px;line-height:1.25;font-family:sans-serif;text-align:end;text-anchor:end;fill:#0055d4;stroke-width:1.5705"
             xml:space="preserve"
             id="text1107-0-3-6-9-62-6-9-0"><tspan
               x="1770.7512"
               y="591.01782"
               font-size="3.2108px"
               style="font-size:12.564px;font-family:sans-serif;font-variant-ligatures:normal;font-variant-caps:normal;font-variant-numeric:normal;text-align:end;text-anchor:end;fill:#0055d4;stroke-width:1.5705"
               id="tspan1105-9-5-0-7-61-1-2-2"
               chid="row4/timeCreated">row4/time</tspan></text>
          <text
             x="1930.9335"
             y="591.01801"
             font-size="3.2px"
             style="font-size:12.5217px;line-height:1.25;font-family:sans-serif;text-align:end;text-anchor:end;fill:#0055d4;stroke-width:1.5705"
             xml:space="preserve"
             id="text1107-0-3-6-1-92-0-6-2"><tspan
               x="1839.734"
               y="591.01801"
               font-size="3.2108px"
               style="font-size:12.564px;font-family:sans-serif;font-variant-ligatures:normal;font-variant-caps:normal;font-variant-numeric:normal;text-align:end;text-anchor:end;fill:#0055d4;stroke-width:1.5705"
               id="tspan1105-9-5-0-2-0-6-6-9"
               chid="row4/vehicleId">row4/ve...</tspan></text>
          <text
             x="2068.3196"
             y="591.01837"
             font-size="3.2px"
             style="font-size:12.5217px;line-height:1.25;font-family:sans-serif;text-align:end;text-anchor:end;fill:#0055d4;stroke-width:1.5705"
             xml:space="preserve"
             id="text1107-0-3-6-1-0-4-4-5"><tspan
               x="1977.1201"
               y="591.01837"
               font-size="3.2108px"
               style="font-size:12.564px;font-family:sans-serif;font-variant-ligatures:normal;font-variant-caps:normal;font-variant-numeric:normal;text-align:end;text-anchor:end;fill:#0055d4;stroke-width:1.5705"
               id="tspan1105-9-5-0-2-6-7-8-4"
               chid="row4/lineNumber">row4/lin...</tspan></text>
          <text
             x="1999.6509"
             y="591.01831"
             font-size="3.2px"
             style="font-size:12.5217px;line-height:1.25;font-family:sans-serif;text-align:end;text-anchor:end;fill:#0055d4;stroke-width:1.5705"
             xml:space="preserve"
             id="text1107-0-3-6-1-9-7-2-5"><tspan
               x="1908.4515"
               y="591.01831"
               font-size="3.2108px"
               style="font-size:12.564px;font-family:sans-serif;font-variant-ligatures:normal;font-variant-caps:normal;font-variant-numeric:normal;text-align:end;text-anchor:end;fill:#0055d4;stroke-width:1.5705"
               id="tspan1105-9-5-0-2-2-4-7-4"
               chid="row4/route">row4/ro...</tspan></text>
          <rect
             chid="boundingBox"
             style="opacity:1;fill:none;fill-opacity:1;stroke:#000000;stroke-width:0.66059;stroke-miterlimit:4;stroke-dasharray:none;stroke-dashoffset:0;stroke-opacity:1"
             id="rect249-3-9-6-9-7-5-4"
             width="274.86038"
             height="97.140991"
             x="1704.4814"
             y="497.49237" />
        </g>
      </g>
    </g>
  </g>
  <g
     transform="translate(443.98635,-160.14128)"
     style="display:inline"
     inkscape:groupmode="layer"
     id="layerTC"
     inkscape:label="TC">
    <g
       shvVisuType="TC"
       shvDeviceType="TC_G3"
       shvPath="devices/detector/TC01"
       id="g1006"
       transform="rotate(180,207.6819,587.26342)">
      <text
         transform="scale(-1)"
         id="text955-3"
         xml:space="preserve"
         style="font-size:12.1535px;line-height:1.25;font-family:sans-serif;font-variant-ligatures:normal;font-variant-caps:normal;font-variant-numeric:normal;fill:#000000;stroke-width:1.1394"
         font-size="3.1059px"
         y="-668.98291"
         x="-480.91061"><tspan
           id="tspan953-6"
           style="font-size:16px;font-family:sans-serif;font-variant-ligatures:normal;font-variant-caps:normal;font-variant-numeric:normal;stroke-width:1.1394"
           font-size="3.1059px"
           y="-668.98291"
           x="-480.91061"
           shvAlarmPosition="right">TC01</tspan></text>
      <path
         sodipodi:nodetypes="ccccc"
         d="m 384.664,793.70675 h 39.13043 V 548.09691 H 384.664 Z"
         id="path887"
         inkscape:connector-curvature="0"
         style="fill:#ffcc00;fill-opacity:0.241265;stroke:#bf9c0b;stroke-width:3;stroke-linejoin:bevel;stroke-miterlimit:4;stroke-dasharray:none;stroke-opacity:1"
         chid="tc" />
    </g>
    <g
       shvVisuType="TC"
       shvDeviceType="TC_G3"
       shvPath="devices/detector/TC02"
       id="g309"
       transform="rotate(180,207.6819,649.32862)">
      <text
         transform="scale(-1)"
         id="text305"
         xml:space="preserve"
         style="font-size:12.1535px;line-height:1.25;font-family:sans-serif;font-variant-ligatures:normal;font-variant-caps:normal;font-variant-numeric:normal;fill:#000000;stroke-width:1.1394"
         font-size="3.1059px"
         y="-598.98291"
         x="-488.78561"><tspan
           id="tspan303"
           style="font-size:16px;font-family:sans-serif;font-variant-ligatures:normal;font-variant-caps:normal;font-variant-numeric:normal;stroke-width:1.1394"
           font-size="3.1059px"
           y="-598.98291"
           x="-488.78561"
           shvAlarmPosition="right">TC02</tspan></text>
      <path
         sodipodi:nodetypes="ccccc"
         d="m 384.664,609.09691 h 39.13043 v -37 l -39.13043,-40 z"
         id="path307"
         inkscape:connector-curvature="0"
         style="fill:#ffcc00;fill-opacity:0.241265;stroke:#bf9c0b;stroke-width:3;stroke-linejoin:bevel;stroke-miterlimit:4;stroke-dasharray:none;stroke-opacity:1"
         chid="tc" />
    </g>
  </g>
  <g
     transform="translate(443.98635,-160.14128)"
     style="display:inline"
     inkscape:groupmode="layer"
     id="layerPME"
     inkscape:label="PME">
    <g
       shvVisuType="PME"
       shvVisuTypeVariant="LeverInSocketCircle"
       shvDeviceType="PME_G3"
       transform="rotate(180,288.2602,995.05752)"
       id="g1615"
       shvPath="devices/pointMachine/PME01">
      <text
         transform="scale(-1)"
         id="text1191-7-3-6-70"
         xml:space="preserve"
         style="font-size:12.1535px;line-height:1.25;font-family:sans-serif;font-variant-ligatures:normal;font-variant-caps:normal;font-variant-numeric:normal;fill:#000000;stroke-width:1.1394"
         font-size="3.1059px"
         y="-1346.3822"
         x="-714.73907"><tspan
           shvAlarmPosition="right"
           id="tspan1189-5-1-1-9"
           y="-1346.3822"
           x="-714.73907"
           style="font-size:16px;stroke-width:1.1394">PME01</tspan></text>
      <g
         transform="translate(1.1984861)"
         id="g732-3">
        <path
           chid="box"
           style="fill:#28a638;fill-opacity:0.44758;stroke:#000000;stroke-width:1.03531"
           inkscape:connector-curvature="0"
           id="path1017-4-6"
           d="m 544.6221,1320.5547 h 39.13044 v 39.1304 h -39.13043 z" />
        <path
           chid="posLeft"
           style="fill:none;stroke:#ff33ff;stroke-width:13.6957;stroke-linecap:round"
           inkscape:connector-curvature="0"
           id="path1019-5-0"
           d="M 563.46681,1279.0801 507.7568,1223.281" />
        <path
           chid="posRight"
           style="fill:none;stroke:#ff33ff;stroke-width:13.6957;stroke-linecap:round"
           inkscape:connector-curvature="0"
           id="path1021-0-62"
           d="m 564.60085,1280.4871 v -74.4802" />
        <g
           transform="translate(-35.68884,21.583777)"
           id="g1531-6"
           chid="motorMoving">
          <circle
             cy="1318.5361"
             cx="599.87634"
             id="path1511-1"
             style="opacity:1;fill:#ff6600;fill-opacity:1;fill-rule:nonzero;stroke:#000000;stroke-width:1.8;stroke-linecap:round;stroke-linejoin:round;stroke-miterlimit:4;stroke-dasharray:none;stroke-dashoffset:0;stroke-opacity:1;paint-order:stroke fill markers"
             r="15.1" />
          <path
             d="m 592.7618,1326.3121 h 3.13541 l 3.96875,-10.5834 3.98959,10.5834 h 3.13541 V 1310.76 h -2.05208 v 13.6562 l -4.01042,-10.6667 h -2.11458 l -4.01042,10.6667 V 1310.76 h -2.04166 z"
             style="fill:#000000;fill-opacity:1;stroke:#000000;stroke-width:0.5;stroke-miterlimit:4;stroke-dasharray:none;stroke-opacity:1"
             id="path693-8"
             inkscape:connector-curvature="0" />
        </g>
        <path
           chid="leverInSocket"
           inkscape:connector-curvature="0"
           d="m 559.777,1364.666 c 0,-3.4794 -2.8206,-6.3 -6.3,-6.3 -3.4794,0 -6.3,2.8206 -6.3,6.3 0,3.4794 2.8206,6.3 6.3,6.3 3.4794,0 6.3,-2.8206 6.3,-6.3 z m -6.3,4e-4 11.909,-28.297"
           style="fill:#293cfa;fill-opacity:1;stroke:#293cfa;stroke-width:3.5;stroke-linecap:butt;stroke-linejoin:miter;stroke-miterlimit:4;stroke-dasharray:none;stroke-opacity:1"
           id="path1524" />
      </g>
    </g>
    <g
       style="display:inline"
       id="g1615-1"
       transform="translate(-815.09862,-742.77659)">
      <g
         id="g732-3-7"
         transform="translate(1.1984861)">
        <g
           chid="motorMoving"
           id="g1531-6-1"
           transform="translate(-35.68884,21.583777)" />
      </g>
    </g>
    <g
       transform="rotate(180,431.16696,658.50452)"
       shvPath="devices/pointMachine/PMM01"
       id="g1247">
      <g
         id="g1238">
        <path
           d="m 694.67651,672.65568 h 39.13043 v 26.66231 h -39.13043 z"
           id="path1165"
           inkscape:connector-curvature="0"
           style="fill:#121ea6;fill-opacity:0.44758;stroke:#000000;stroke-width:1.1394"
           chid="box" />
        <rect
           transform="rotate(-90)"
           chid="leverInSocket"
           style="display:inline;fill:#293cfa;fill-opacity:1;stroke:none;stroke-width:2.34266;stroke-linecap:square;stroke-miterlimit:4;stroke-dasharray:none;stroke-opacity:1"
           id="rect15117-8-2"
           width="20.234634"
           height="20.44541"
           x="-696.93011"
           y="703.72241" />
        <path
           d="m 712.62697,641.07145 -55.71001,-55.7991"
           id="path1019-5-3"
           inkscape:connector-curvature="0"
           style="fill:none;stroke:#ff33ff;stroke-width:13.6957;stroke-linecap:round"
           chid="posLeft" />
        <path
           d="m 713.761,642.47845 v -74.4802"
           id="path1021-0-6"
           inkscape:connector-curvature="0"
           style="fill:none;stroke:#ff33ff;stroke-width:13.6957;stroke-linecap:round"
           chid="posRight" />
      </g>
      <text
         transform="scale(-1)"
         x="-680.95459"
         y="-685.07355"
         font-size="3.1059px"
         style="font-size:12.1535px;line-height:1.25;font-family:sans-serif;font-variant-ligatures:normal;font-variant-caps:normal;font-variant-numeric:normal;fill:#000000;stroke-width:1.1394"
         xml:space="preserve"
         id="text1191-7-3-6-7"><tspan
           style="font-size:16px;stroke-width:1.1394"
           x="-680.95459"
           y="-685.07355"
           id="tspan1189-5-1-1-5"
           shvAlarmPosition="right">PMM01</tspan></text>
    </g>
  </g>
  <g
     transform="translate(443.98635,-160.14128)"
     style="display:inline"
     inkscape:groupmode="layer"
     id="layerVetra"
     inkscape:label="Vetra">
    <g
       shvDeviceType="Vetra_G3"
       transform="rotate(180,342.49764,1787.8189)"
       id="g1553"
       shvPath="devices/vehicleCommunicator/VET01"
       shvVisuType="VetraTransceiver">
      <text
         transform="scale(-1)"
         x="-771.526"
         y="-3333.4939"
         font-size="3.1059px"
         style="font-size:12.1535px;line-height:1.25;font-family:sans-serif;font-variant-ligatures:normal;font-variant-caps:normal;font-variant-numeric:normal;fill:#000000;stroke-width:1.1394"
         xml:space="preserve"
         id="text1191"><tspan
           style="font-size:16px;stroke-width:1.1394"
           x="-771.526"
           y="-3333.4939"
           id="tspan1189"
           shvAlarmPosition="right">VET01</tspan></text>
      <g
         transform="rotate(-90,692.14017,3354.3827)"
         id="g1546">
        <path
           chid="transceiver"
           id="path1187"
           d="m 701.3575,3325.6 h 19.56535 v 19.5653 H 701.3575 Z"
           inkscape:connector-curvature="0"
           style="fill:#ffffff;stroke:#000000;stroke-width:1.03531" />
        <path
           inkscape:connector-curvature="0"
           id="path994-5-5-6-9"
           style="opacity:0.99;fill:none;fill-opacity:1;fill-rule:nonzero;stroke:#34a800;stroke-width:2.3;stroke-linecap:round;stroke-linejoin:round;stroke-miterlimit:4;stroke-dasharray:none;stroke-dashoffset:0;stroke-opacity:1;paint-order:stroke fill markers"
           d="m 731.38798,3311.1954 a 31.5,31.5 0 0 0 -40.49561,0 m 35.67471,5.7453 a 24,24 0 0 0 -30.85381,0 m 26.0329,5.7454 a 16.5,16.5 0 0 0 -21.21199,0 m 30.8538,36.8839 a 31.5,31.5 0 0 1 -40.49561,0 m 35.67471,-5.7454 a 24,24 0 0 1 -30.85381,0 m 26.0329,-5.7453 a 16.5,16.5 0 0 1 -21.21199,0"
           chid="radioBeams" />
      </g>
    </g>
    <g
       shvDeviceType="Vetra_G3"
       transform="rotate(180,268.6157,1993.6948)"
       id="g437"
       shvPath="devices/vehicleCommunicator/VET02"
       shvVisuType="VetraTransceiver">
      <text
         transform="scale(-1)"
         x="-621.63757"
         y="-3269.7153"
         font-size="3.1059px"
         style="font-size:12.1535px;line-height:1.25;font-family:sans-serif;font-variant-ligatures:normal;font-variant-caps:normal;font-variant-numeric:normal;fill:#000000;stroke-width:1.1394"
         xml:space="preserve"
         id="text429"><tspan
           style="font-size:16px;stroke-width:1.1394"
           x="-621.63757"
           y="-3269.7153"
           id="tspan427"
           shvAlarmPosition="right">VET02</tspan></text>
      <g
         transform="rotate(-90,596.74424,3406.7506)"
         id="g435">
        <path
           chid="transceiver"
           id="path431"
           d="m 717.3575,3325.6 h 19.56535 v 19.5653 H 717.3575 Z"
           inkscape:connector-curvature="0"
           style="fill:#ffffff;stroke:#000000;stroke-width:1.03531" />
        <path
           inkscape:connector-curvature="0"
           id="path433"
           style="opacity:0.99;fill:none;fill-opacity:1;fill-rule:nonzero;stroke:#34a800;stroke-width:2.3;stroke-linecap:round;stroke-linejoin:round;stroke-miterlimit:4;stroke-dasharray:none;stroke-dashoffset:0;stroke-opacity:1;paint-order:stroke fill markers"
           d="m 747.38798,3311.1954 a 31.5,31.5 0 0 0 -40.49561,0 m 35.67471,5.7453 a 24,24 0 0 0 -30.85381,0 m 26.0329,5.7454 a 16.5,16.5 0 0 0 -21.21199,0 m 30.8538,36.8839 a 31.5,31.5 0 0 1 -40.49561,0 m 35.67471,-5.7454 a 24,24 0 0 1 -30.85381,0 m 26.0329,-5.7453 a 16.5,16.5 0 0 1 -21.21199,0"
           chid="radioBeams" />
      </g>
    </g>
    <g
       shvVisuType="RequestorData"
       transform="translate(-1321.2153,-1300.3622)"
       shvPath="devices/vehicleCommunicator/VET02"
       id="g1322"
       shvVisuTypeVariant="Default"
       style="display:inline">
      <text
         x="1101.1709"
         y="2114.1997"
         font-size="3.1059px"
         style="font-size:12.1535px;line-height:1.25;font-family:sans-serif;font-variant-ligatures:normal;font-variant-caps:normal;font-variant-numeric:normal;fill:#000000;stroke-width:1.1394"
         xml:space="preserve"
         id="text1177"><tspan
           style="font-size:16px;stroke-width:1.1394"
           x="1101.1709"
           y="2114.1997"
           id="tspan1175"
           shvAlarmPosition="right">VET02</tspan></text>
      <g
         id="g1320"
         transform="translate(0,-2)">
        <g
           id="g67772">
          <rect
             style="fill:#c8beb7;fill-opacity:0.239216;stroke:#4d4d4d;stroke-width:0.909;stroke-linecap:round;stroke-linejoin:bevel;stroke-miterlimit:4;stroke-dasharray:none;stroke-dashoffset:0;stroke-opacity:1"
             id="rect1058-1-0-3"
             width="94.022324"
             height="16.231249"
             x="1100.4596"
             y="2121.6401"
             ry="0.16663547"
             rx="0.16663547" />
          <rect
             ry="0.16663547"
             y="2121.6401"
             x="1100.463"
             height="16.231249"
             width="211.992"
             id="rect1024-1-6-0"
             style="fill:none;fill-opacity:0.239216;stroke:#4d4d4d;stroke-width:0.909;stroke-linecap:round;stroke-linejoin:bevel;stroke-miterlimit:4;stroke-dasharray:none;stroke-dashoffset:0;stroke-opacity:1"
             rx="0.16663547" />
          <text
             id="text1099-2-7-4"
             xml:space="preserve"
             style="font-size:45.5752px;line-height:1.25;font-family:sans-serif;fill:#000000;stroke-width:1.1394"
             font-size="11.647px"
             y="2134.2092"
             x="1103.7786"><tspan
               id="tspan1097-7-5-2"
               style="font-size:9.11504px;font-family:sans-serif;font-variant-ligatures:normal;font-variant-caps:normal;font-variant-numeric:normal;stroke-width:1.5705"
               font-size="2.3294px"
               y="2134.2092"
               x="1103.7786">Tram ID</tspan></text>
          <text
             id="text1107-0-3-0"
             xml:space="preserve"
             style="font-size:12.5217px;line-height:1.25;font-family:sans-serif;text-align:end;text-anchor:end;fill:#0055d4;stroke-width:1.5705"
             font-size="3.2px"
             y="2134.1602"
             x="1402.533"><tspan
               chid="vehicleId"
               id="tspan1105-9-5-4"
               style="font-size:12.564px;font-family:sans-serif;font-variant-ligatures:normal;font-variant-caps:normal;font-variant-numeric:normal;text-align:end;text-anchor:end;fill:#0055d4;stroke-width:1.5705"
               font-size="3.2108px"
               y="2134.1602"
               x="1311.3335">tram-id</tspan></text>
        </g>
        <g
           id="g67756"
           transform="translate(0,-16.231201)">
          <rect
             ry="0.16663547"
             y="2154.1025"
             x="1100.4596"
             height="16.231249"
             width="94.022324"
             id="rect1056-6-7-0-5"
             style="fill:#c8beb7;fill-opacity:0.239216;stroke:#4d4d4d;stroke-width:0.909;stroke-linecap:round;stroke-linejoin:bevel;stroke-miterlimit:4;stroke-dasharray:none;stroke-dashoffset:0;stroke-opacity:1"
             rx="0.16663547" />
          <rect
             style="fill:none;fill-opacity:0.239216;stroke:#4d4d4d;stroke-width:0.909;stroke-linecap:round;stroke-linejoin:bevel;stroke-miterlimit:4;stroke-dasharray:none;stroke-dashoffset:0;stroke-opacity:1"
             id="rect1044-3-6-6-6"
             width="212.00063"
             height="16.231249"
             x="1100.4545"
             y="2154.1025"
             ry="0.16663547"
             rx="0.16663547" />
          <text
             x="1103.7787"
             y="2167.1143"
             font-size="11.647px"
             style="font-size:45.5752px;line-height:1.25;font-family:sans-serif;fill:#000000;stroke-width:1.1394"
             xml:space="preserve"
             id="text1048-6-2-1-1"><tspan
               x="1103.7787"
               y="2167.1143"
               font-size="2.3294px"
               style="font-size:9.11504px;font-family:sans-serif;font-variant-ligatures:normal;font-variant-caps:normal;font-variant-numeric:normal;stroke-width:1.5705"
               id="tspan1046-0-9-8-5">Route code</tspan></text>
          <text
             x="1339.298"
             y="2167.145"
             font-size="3.2px"
             style="font-size:12.5217px;line-height:1.25;font-family:sans-serif;text-align:end;text-anchor:end;fill:#0055d4;stroke-width:1.5705"
             xml:space="preserve"
             id="text1052-6-1-9-1"><tspan
               x="1311.0596"
               y="2167.145"
               font-size="3.2108px"
               style="font-size:12.564px;font-family:sans-serif;font-variant-ligatures:normal;font-variant-caps:normal;font-variant-numeric:normal;text-align:end;text-anchor:end;fill:#0055d4;stroke-width:1.5705"
               id="tspan1050-2-2-2-4"
               chid="routeCode">code</tspan></text>
        </g>
        <rect
           y="2121.6401"
           x="1100.4587"
           height="32.38409"
           width="212.0006"
           id="rect249-3-9-6-9"
           style="fill:none;fill-opacity:1;stroke:#000000;stroke-width:1.061;stroke-miterlimit:4;stroke-dasharray:none;stroke-dashoffset:0;stroke-opacity:1"
           chid="boundingBox" />
      </g>
    </g>
    <g
       shvVisuType="RequestorData"
       transform="translate(-1425.5987,-1897.8079)"
       shvPath="devices/vehicleCommunicator/VET01"
       id="g1322-2"
       shvVisuTypeVariant="Default"
       style="display:inline">
      <text
         x="1101.1709"
         y="2114.1997"
         font-size="3.1059px"
         style="font-size:12.1535px;line-height:1.25;font-family:sans-serif;font-variant-ligatures:normal;font-variant-caps:normal;font-variant-numeric:normal;fill:#000000;stroke-width:1.1394"
         xml:space="preserve"
         id="text1177-8"><tspan
           style="font-size:16px;stroke-width:1.1394"
           x="1101.1709"
           y="2114.1997"
           id="tspan1175-4"
           shvAlarmPosition="right">VET01</tspan></text>
      <g
         id="g1320-6"
         transform="translate(0,-2)">
        <g
           id="g67772-8">
          <rect
             style="fill:#c8beb7;fill-opacity:0.239216;stroke:#4d4d4d;stroke-width:0.909;stroke-linecap:round;stroke-linejoin:bevel;stroke-miterlimit:4;stroke-dasharray:none;stroke-dashoffset:0;stroke-opacity:1"
             id="rect1058-1-0-3-2"
             width="94.022324"
             height="16.231249"
             x="1100.4596"
             y="2121.6401"
             ry="0.16663547"
             rx="0.16663547" />
          <rect
             ry="0.16663547"
             y="2121.6401"
             x="1100.463"
             height="16.231249"
             width="211.992"
             id="rect1024-1-6-0-7"
             style="fill:none;fill-opacity:0.239216;stroke:#4d4d4d;stroke-width:0.909;stroke-linecap:round;stroke-linejoin:bevel;stroke-miterlimit:4;stroke-dasharray:none;stroke-dashoffset:0;stroke-opacity:1"
             rx="0.16663547" />
          <text
             id="text1099-2-7-4-4"
             xml:space="preserve"
             style="font-size:45.5752px;line-height:1.25;font-family:sans-serif;fill:#000000;stroke-width:1.1394"
             font-size="11.647px"
             y="2134.2092"
             x="1103.7786"><tspan
               id="tspan1097-7-5-2-1"
               style="font-size:9.11504px;font-family:sans-serif;font-variant-ligatures:normal;font-variant-caps:normal;font-variant-numeric:normal;stroke-width:1.5705"
               font-size="2.3294px"
               y="2134.2092"
               x="1103.7786">Tram ID</tspan></text>
          <text
             id="text1107-0-3-0-9"
             xml:space="preserve"
             style="font-size:12.5217px;line-height:1.25;font-family:sans-serif;text-align:end;text-anchor:end;fill:#0055d4;stroke-width:1.5705"
             font-size="3.2px"
             y="2134.1602"
             x="1402.533"><tspan
               chid="vehicleId"
               id="tspan1105-9-5-4-6"
               style="font-size:12.564px;font-family:sans-serif;font-variant-ligatures:normal;font-variant-caps:normal;font-variant-numeric:normal;text-align:end;text-anchor:end;fill:#0055d4;stroke-width:1.5705"
               font-size="3.2108px"
               y="2134.1602"
               x="1311.3335">tram-id</tspan></text>
        </g>
        <g
           id="g67756-8"
           transform="translate(0,-16.231201)">
          <rect
             ry="0.16663547"
             y="2154.1025"
             x="1100.4596"
             height="16.231249"
             width="94.022324"
             id="rect1056-6-7-0-5-3"
             style="fill:#c8beb7;fill-opacity:0.239216;stroke:#4d4d4d;stroke-width:0.909;stroke-linecap:round;stroke-linejoin:bevel;stroke-miterlimit:4;stroke-dasharray:none;stroke-dashoffset:0;stroke-opacity:1"
             rx="0.16663547" />
          <rect
             style="fill:none;fill-opacity:0.239216;stroke:#4d4d4d;stroke-width:0.909;stroke-linecap:round;stroke-linejoin:bevel;stroke-miterlimit:4;stroke-dasharray:none;stroke-dashoffset:0;stroke-opacity:1"
             id="rect1044-3-6-6-6-3"
             width="212.00063"
             height="16.231249"
             x="1100.4545"
             y="2154.1025"
             ry="0.16663547"
             rx="0.16663547" />
          <text
             x="1103.7787"
             y="2167.1143"
             font-size="11.647px"
             style="font-size:45.5752px;line-height:1.25;font-family:sans-serif;fill:#000000;stroke-width:1.1394"
             xml:space="preserve"
             id="text1048-6-2-1-1-9"><tspan
               x="1103.7787"
               y="2167.1143"
               font-size="2.3294px"
               style="font-size:9.11504px;font-family:sans-serif;font-variant-ligatures:normal;font-variant-caps:normal;font-variant-numeric:normal;stroke-width:1.5705"
               id="tspan1046-0-9-8-5-4">Route code</tspan></text>
          <text
             x="1339.298"
             y="2167.145"
             font-size="3.2px"
             style="font-size:12.5217px;line-height:1.25;font-family:sans-serif;text-align:end;text-anchor:end;fill:#0055d4;stroke-width:1.5705"
             xml:space="preserve"
             id="text1052-6-1-9-1-6"><tspan
               x="1311.0596"
               y="2167.145"
               font-size="3.2108px"
               style="font-size:12.564px;font-family:sans-serif;font-variant-ligatures:normal;font-variant-caps:normal;font-variant-numeric:normal;text-align:end;text-anchor:end;fill:#0055d4;stroke-width:1.5705"
               id="tspan1050-2-2-2-4-3"
               chid="routeCode">code</tspan></text>
        </g>
        <rect
           y="2121.6401"
           x="1100.4587"
           height="32.38409"
           width="212.0006"
           id="rect249-3-9-6-9-4"
           style="fill:none;fill-opacity:1;stroke:#000000;stroke-width:1.061;stroke-miterlimit:4;stroke-dasharray:none;stroke-dashoffset:0;stroke-opacity:1"
           chid="boundingBox" />
      </g>
    </g>
  </g>
  <g
     transform="translate(443.98635,-160.14128)"
     style="display:inline"
     inkscape:groupmode="layer"
     id="layerHeating"
     inkscape:label="Heating">
    <g
       id="g2231-0"
       shvDeviceType="Heating_G3"
       shvVisuType="HeatingTable"
       shvPath="devices/heating/HT01"
       transform="translate(-809.00313,-423.68926)"
       shvVisuTypeVariant="Default"
       style="display:inline">
      <text
         id="text1103-9-4-4-3-5"
         xml:space="preserve"
         style="font-size:12.1535px;line-height:1.25;font-family:sans-serif;font-variant-ligatures:normal;font-variant-caps:normal;font-variant-numeric:normal;fill:#000000;stroke-width:1.1394"
         font-size="3.1059px"
         y="1287.025"
         x="399.16232"><tspan
           shvAlarmPosition="right"
           id="tspan1101-3-4-9-6-9"
           y="1287.025"
           x="399.16232"
           style="font-size:16px;stroke-width:1.1394">HT01</tspan></text>
      <g
         id="g2198-2">
        <rect
           style="fill:none;fill-opacity:0.239216;stroke:#4d4d4d;stroke-width:1.04335;stroke-linecap:round;stroke-linejoin:bevel;stroke-miterlimit:4;stroke-dasharray:none;stroke-dashoffset:0;stroke-opacity:1"
           id="rect1077-6-7-0-7-4"
           width="188.12711"
           height="16.194473"
           x="400.54425"
           y="1308.944"
           ry="0.16625792"
           rx="0.16625792" />
        <rect
           style="fill:none;fill-opacity:0.239216;stroke:#4d4d4d;stroke-width:1.04335;stroke-linecap:round;stroke-linejoin:bevel;stroke-miterlimit:4;stroke-dasharray:none;stroke-dashoffset:0;stroke-opacity:1"
           id="rect1077-6-7-0-2-5"
           width="188.12711"
           height="16.194473"
           x="400.54425"
           y="1292.7495"
           ry="0.16625792"
           rx="0.16625792" />
        <text
           x="414.57507"
           y="1336.7103"
           font-size="11.647px"
           style="font-size:45.5752px;line-height:1.25;font-family:sans-serif;fill:#000000;stroke-width:1.1394"
           xml:space="preserve"
           id="text1081-7-6-6-5-8"><tspan
             x="414.57507"
             y="1336.7103"
             font-size="2.3294px"
             style="font-size:9.11504px;font-family:sans-serif;font-variant-ligatures:normal;font-variant-caps:normal;font-variant-numeric:normal;stroke-width:1.5705"
             id="tspan1079-5-5-8-3-4">Air</tspan></text>
        <text
           x="582.39069"
           y="1337.6287"
           font-size="3.2px"
           style="font-size:12.5217px;line-height:1.25;font-family:sans-serif;text-align:end;text-anchor:end;fill:#0055d4;stroke-width:1.5705"
           xml:space="preserve"
           id="text1085-3-6-9-5-8"><tspan
             x="582.39069"
             y="1337.6287"
             font-size="3.2108px"
             style="font-size:12.564px;font-family:sans-serif;font-variant-ligatures:normal;font-variant-caps:normal;font-variant-numeric:normal;text-align:end;text-anchor:end;fill:#0055d4;stroke-width:1.5705"
             id="tspan1083-5-9-2-6-1"
             chid="tempAir">tempAir</tspan></text>
        <rect
           ry="0.16625792"
           y="1325.1384"
           x="400.54425"
           height="16.194473"
           width="188.12711"
           id="rect1087-6-3-6-2-4"
           style="fill:none;fill-opacity:0.239216;stroke:#4d4d4d;stroke-width:1.04335;stroke-linecap:round;stroke-linejoin:bevel;stroke-miterlimit:4;stroke-dasharray:none;stroke-dashoffset:0;stroke-opacity:1"
           rx="0.16625792" />
        <text
           id="text1091-2-7-6-9-4"
           xml:space="preserve"
           style="font-size:45.5752px;line-height:1.25;font-family:sans-serif;fill:#000000;stroke-width:1.1394"
           font-size="11.647px"
           y="1352.4036"
           x="414.57507"><tspan
             id="tspan1089-9-4-4-1-0"
             style="font-size:9.11504px;font-family:sans-serif;font-variant-ligatures:normal;font-variant-caps:normal;font-variant-numeric:normal;stroke-width:1.5705"
             font-size="2.3294px"
             y="1352.4036"
             x="414.57507">Wet</tspan></text>
        <text
           id="text1095-1-5-9-2-8"
           xml:space="preserve"
           style="font-size:12.5217px;line-height:1.25;font-family:sans-serif;text-align:end;text-anchor:end;fill:#0055d4;stroke-width:1.5705"
           font-size="3.2px"
           y="1353.6724"
           x="582.92157"><tspan
             chid="wetConditions"
             id="tspan1093-2-25-5-7-7"
             style="font-size:12.564px;font-family:sans-serif;font-variant-ligatures:normal;font-variant-caps:normal;font-variant-numeric:normal;fill:#0055d4;stroke-width:1.5705"
             font-size="3.2108px"
             y="1353.6724"
             x="582.92157">wetCond</tspan></text>
        <rect
           style="fill:#c8beb7;fill-opacity:0.239216;stroke:#4d4d4d;stroke-width:0.909;stroke-linecap:round;stroke-linejoin:bevel;stroke-miterlimit:4;stroke-dasharray:none;stroke-dashoffset:0;stroke-opacity:1"
           id="rect1097-7-4-0-0-2"
           width="72.199005"
           height="16.231249"
           x="400.46375"
           y="1325.132"
           ry="0.16663547"
           rx="0.16663547" />
        <rect
           ry="0.16663547"
           y="1308.9008"
           x="400.46378"
           height="16.231249"
           width="72.198997"
           id="rect1099-0-7-4-9-1"
           style="fill:#c8beb7;fill-opacity:0.239216;stroke:#4d4d4d;stroke-width:0.909;stroke-linecap:round;stroke-linejoin:bevel;stroke-miterlimit:4;stroke-dasharray:none;stroke-dashoffset:0;stroke-opacity:1"
           rx="0.16663547" />
        <rect
           ry="0.16663547"
           y="1292.6694"
           x="400.46378"
           height="16.231249"
           width="72.198997"
           id="rect1099-0-7-4-2-9"
           style="fill:#c8beb7;fill-opacity:0.239216;stroke:#4d4d4d;stroke-width:0.909;stroke-linecap:round;stroke-linejoin:bevel;stroke-miterlimit:4;stroke-dasharray:none;stroke-dashoffset:0;stroke-opacity:1"
           rx="0.16663547" />
        <text
           x="403.47455"
           y="1304.4607"
           font-size="11.647px"
           style="font-size:45.5752px;line-height:1.25;font-family:sans-serif;fill:#000000;stroke-width:1.1394"
           xml:space="preserve"
           id="text1091-2-1-6-2-5-8"><tspan
             x="403.47455"
             y="1304.4607"
             font-size="2.3294px"
             style="font-size:9.11504px;font-family:sans-serif;font-variant-ligatures:normal;font-variant-caps:normal;font-variant-numeric:normal;stroke-width:1.5705"
             id="tspan1089-9-8-8-7-9-7">Heating state</tspan></text>
        <rect
           style="fill:none;fill-opacity:0.239216;stroke:#4d4d4d;stroke-width:1.04335;stroke-linecap:round;stroke-linejoin:bevel;stroke-miterlimit:4;stroke-dasharray:none;stroke-dashoffset:0;stroke-opacity:1"
           id="rect1087-6-0-0-8-3-2"
           width="188.12711"
           height="16.194473"
           x="400.54425"
           y="1341.3328"
           ry="0.16625792"
           rx="0.16625792" />
        <text
           x="582.2049"
           y="1321.2378"
           font-size="3.2px"
           style="font-size:12.5217px;line-height:1.25;font-family:sans-serif;text-align:end;text-anchor:end;fill:#0055d4;stroke-width:1.5705"
           xml:space="preserve"
           id="text1095-1-6-7-71-6-2"><tspan
             x="582.2049"
             y="1321.2378"
             font-size="3.2108px"
             style="font-size:12.564px;font-family:sans-serif;font-variant-ligatures:normal;font-variant-caps:normal;font-variant-numeric:normal;fill:#0055d4;stroke-width:1.5705"
             id="tspan1093-2-2-8-7-0-3"
             chid="tempRail">tempRail</tspan></text>
        <text
           x="582.26013"
           y="1305.6632"
           font-size="3.2px"
           style="font-size:12.5217px;line-height:1.25;font-family:sans-serif;text-align:end;text-anchor:end;fill:#0055d4;stroke-width:1.5705"
           xml:space="preserve"
           id="text1095-1-6-7-71-3-3"><tspan
             x="582.26013"
             y="1305.6632"
             font-size="3.2108px"
             style="font-size:12.564px;font-family:sans-serif;font-variant-ligatures:normal;font-variant-caps:normal;font-variant-numeric:normal;fill:#0055d4;stroke-width:1.5705"
             id="tspan1093-2-2-8-7-7-3"
             chid="heatingState">heatingState</tspan></text>
        <text
           x="413.75171"
           y="1320.4546"
           font-size="11.647px"
           style="font-size:45.5752px;line-height:1.25;font-family:sans-serif;fill:#000000;stroke-width:1.1394"
           xml:space="preserve"
           id="text1091-2-1-6-2-6-8"><tspan
             x="413.75171"
             y="1320.4546"
             font-size="2.3294px"
             style="font-size:9.11504px;font-family:sans-serif;font-variant-ligatures:normal;font-variant-caps:normal;font-variant-numeric:normal;stroke-width:1.5705"
             id="tspan1089-9-8-8-7-2-3">Rail</tspan></text>
        <rect
           ry="0.16663547"
           y="1341.3633"
           x="400.46371"
           height="16.231249"
           width="72.199005"
           id="rect1097-7-6-8-2-6-8"
           style="fill:#c8beb7;fill-opacity:0.239216;stroke:#4d4d4d;stroke-width:0.909;stroke-linecap:round;stroke-linejoin:bevel;stroke-miterlimit:4;stroke-dasharray:none;stroke-dashoffset:0;stroke-opacity:1"
           rx="0.16663547" />
        <path
           style="fill:#4d4d4d;fill-opacity:1;stroke:none;stroke-width:0.559421;stroke-opacity:1"
           id="path2-4-2-1-5"
           d="m 408.52804,1333.8058 v -4.4753 a 1.6782668,1.6782668 0 0 0 -3.35653,0 v 4.4753 a 2.7971061,2.7971061 0 1 0 3.35653,0 m -1.67827,-5.0348 a 0.55942121,0.55942121 0 0 1 0.55942,0.5595 v 1.6782 h -1.11883 v -1.6782 a 0.55942121,0.55942121 0 0 1 0.55941,-0.5595 z"
           inkscape:connector-curvature="0" />
        <path
           style="fill:#4d4d4d;fill-opacity:1;stroke:none;stroke-width:0.559421;stroke-opacity:1"
           id="path2-9-1-1-8-8"
           d="m 408.52796,1317.6146 v -4.4753 a 1.6782668,1.6782668 0 0 0 -3.35653,0 v 4.4753 a 2.7971061,2.7971061 0 1 0 3.35653,0 m -1.67827,-5.0347 a 0.55942121,0.55942121 0 0 1 0.55942,0.5594 v 1.6782 h -1.11883 v -1.6782 a 0.55942121,0.55942121 0 0 1 0.55941,-0.5594 z"
           inkscape:connector-curvature="0" />
        <rect
           y="1292.6632"
           x="400.53656"
           height="64.871544"
           width="188.14249"
           id="rect249-4-0-7-3"
           style="fill:none;fill-opacity:1;stroke:#000000;stroke-width:1.07316;stroke-miterlimit:4;stroke-dasharray:none;stroke-dashoffset:0;stroke-opacity:1"
           chid="boundingBox" />
        <path
           inkscape:connector-curvature="0"
           d="m 406.84956,1353.3702 a 2.7970003,2.7970003 0 0 1 -2.797,-2.797 c 0,-1.8647 2.797,-5.0113 2.797,-5.0113 0,0 2.797,3.1466 2.797,5.0113 a 2.7970003,2.7970003 0 0 1 -2.797,2.797 z"
           id="path2-6-9-6"
           style="fill:#4d4d4d;fill-opacity:1;stroke-width:1" />
      </g>
    </g>
  </g>
  <g
     transform="translate(443.98635,-160.14128)"
     style="display:inline"
     inkscape:groupmode="layer"
     id="layerHeatingRod"
     inkscape:label="HeatingRod">
    <g
       shvVisuType="HeatingRod"
       shvDeviceType="HeatingRod_G3"
       transform="rotate(180,487.35017,828.73819)"
       shvPath="devices/heating/HT01/contactor/K2/rod/PMM01_HR_L"
       id="g2617">
      <path
         chid="rod"
         id="path1133"
         d="m 798.63535,1040.1438 h 3.91305 v -58.69562 h -3.91305 z"
         inkscape:connector-curvature="0"
         style="fill:none;stroke:#000000;stroke-width:1.03531" />
      <text
         transform="scale(-1)"
         x="-793.32098"
         y="-1065.2908"
         font-size="3.1059px"
         style="font-size:12.1535px;line-height:1.25;font-family:sans-serif;font-variant-ligatures:normal;font-variant-caps:normal;font-variant-numeric:normal;fill:#000000;stroke-width:1.1394"
         xml:space="preserve"
         id="text1191-7-3-6-9"><tspan
           style="font-size:16px;stroke-width:1.1394"
           x="-793.32098"
           y="-1065.2908"
           id="tspan1189-5-1-1-2"
           shvAlarmPosition="right">PMM01_HR_L</tspan></text>
    </g>
    <g
       shvVisuType="HeatingRod"
       shvDeviceType="HeatingRod_G3"
       transform="rotate(180,461.82842,828.7382)"
       shvPath="devices/heating/HT01/contactor/K2/rod/PMM01_HR_R"
       id="g511">
      <path
         chid="rod"
         id="path505"
         d="m 798.63535,1040.1438 h 3.91305 v -58.69562 h -3.91305 z"
         inkscape:connector-curvature="0"
         style="fill:none;stroke:#000000;stroke-width:1.03531" />
      <text
         transform="scale(-1)"
         x="-742.27795"
         y="-1045.2908"
         font-size="3.1059px"
         style="font-size:12.1535px;line-height:1.25;font-family:sans-serif;font-variant-ligatures:normal;font-variant-caps:normal;font-variant-numeric:normal;fill:#000000;stroke-width:1.1394"
         xml:space="preserve"
         id="text509"><tspan
           style="font-size:16px;stroke-width:1.1394"
           x="-742.27795"
           y="-1045.2908"
           id="tspan507"
           shvAlarmPosition="right">PMM01_HR_R</tspan></text>
    </g>
    <g
       shvVisuType="HeatingRod"
       shvDeviceType="HeatingRod_G3"
       transform="rotate(180,418.66758,838.28687)"
       shvPath="devices/heating/HT01/contactor/K2/rod/PME01_HR_L"
       id="g520">
      <path
         chid="rod"
         id="path513"
         d="m 798.63535,1046.1438 h 3.91305 v -58.69562 h -3.91305 z"
         inkscape:connector-curvature="0"
         style="fill:none;stroke:#000000;stroke-width:1.03531" />
      <text
         transform="scale(-1)"
         x="-975.55383"
         y="-1074.5988"
         font-size="3.1059px"
         style="font-size:12.1535px;line-height:1.25;font-family:sans-serif;font-variant-ligatures:normal;font-variant-caps:normal;font-variant-numeric:normal;fill:#000000;stroke-width:1.1394"
         xml:space="preserve"
         id="text517"><tspan
           style="font-size:16px;stroke-width:1.1394"
           x="-975.55383"
           y="-1074.5988"
           id="tspan515"
           shvAlarmPosition="right">PME01_HR_L</tspan></text>
    </g>
    <g
       shvVisuType="HeatingRod"
       shvDeviceType="HeatingRod_G3"
       transform="rotate(180,393.06419,838.28689)"
       shvPath="devices/heating/HT01/contactor/K2/rod/PME01_HR_R"
       id="g528">
      <path
         chid="rod"
         id="path522"
         d="m 798.63535,1046.1438 h 3.91305 v -58.69562 h -3.91305 z"
         inkscape:connector-curvature="0"
         style="fill:none;stroke:#000000;stroke-width:1.03531" />
      <text
         transform="scale(-1)"
         x="-924.34747"
         y="-1054.5988"
         font-size="3.1059px"
         style="font-size:12.1535px;line-height:1.25;font-family:sans-serif;font-variant-ligatures:normal;font-variant-caps:normal;font-variant-numeric:normal;fill:#000000;stroke-width:1.1394"
         xml:space="preserve"
         id="text526"><tspan
           style="font-size:16px;stroke-width:1.1394"
           x="-924.34747"
           y="-1054.5988"
           id="tspan524"
           shvAlarmPosition="right">PME01_HR_R</tspan></text>
    </g>
  </g>
  <g
     transform="translate(443.98635,-160.14128)"
     style="display:inline"
     inkscape:groupmode="layer"
     id="layerSignal"
     inkscape:label="Signal">
    <g
       transform="rotate(180,180.40438,1400.2741)"
       id="g2369"
       shvPath="devices/signal/PPI01">
      <text
         transform="scale(-1)"
         id="text1005-7"
         xml:space="preserve"
         style="font-size:12.1535px;line-height:1.25;font-family:sans-serif;font-variant-ligatures:normal;font-variant-caps:normal;font-variant-numeric:normal;fill:#000000;stroke-width:1.1394"
         font-size="3.1059px"
         y="-2126.8904"
         x="-593.3468"><tspan
           shvAlarmPosition="right"
           id="tspan1003-5"
           style="font-size:16px;font-family:sans-serif;font-variant-ligatures:normal;font-variant-caps:normal;font-variant-numeric:normal;stroke-width:1.1394"
           font-size="3.1059px"
           y="-2126.8904"
           x="-593.3468">PPI01</tspan></text>
      <g
         id="g2347">
        <path
           style="fill:#000000;fill-opacity:1;stroke:#000000;stroke-width:1.03531;stroke-opacity:1"
           d="m 519.63524,2001.0025 a 19.565218,19.565218 0 0 0 -19.11719,19.6836 19.565218,19.565218 0 0 0 18.53906,19.6445 19.565217,19.565217 0 0 0 -18.53906,19.6406 19.565217,19.565217 0 0 0 17.33594,19.5391 19.565217,19.565217 0 0 0 -17.33594,19.5527 19.56543,19.56543 0 1 0 39.13086,0 19.565217,19.565217 0 0 0 -17.33594,-19.5391 19.565217,19.565217 0 0 0 17.33594,-19.5527 19.565217,19.565217 0 0 0 -18.53516,-19.6445 19.565218,19.565218 0 0 0 18.53516,-19.6406 19.565218,19.565218 0 0 0 -20.01367,-19.6836 z"
           id="path981-56"
           chid="chambers"
           inkscape:connector-curvature="0" />
        <path
           style="fill:#ff0000;fill-opacity:1;stroke:#000000;stroke-width:1.03531"
           inkscape:connector-curvature="0"
           d="m 516.16668,2016.4911 -8.30544,-8.3054 -4.15017,4.1502 8.30544,8.3054 -8.30544,8.3054 4.15017,4.1502 8.30544,-8.3054 8.30543,8.3054 4.15018,-4.1502 -8.30544,-8.3054 8.30544,-8.3054 -4.15018,-4.1502 z"
           id="path1001-7-1"
           chid="symbol/W0_R" />
        <g
           style="fill:#ffffff;fill-opacity:1;stroke:#000000"
           chid="symbol/W11"
           id="g162-2"
           transform="matrix(1.035313,0,0,1.035313,-147.57036,1426.849)">
          <path
             style="fill:#ffffff;fill-opacity:1"
             id="path985-7"
             d="m 654.67789,619.23 h -18.39 v 5.7394 h 18.39 z"
             inkscape:connector-curvature="0" />
          <path
             style="fill:#ffffff;fill-opacity:1"
             id="path983-0"
             d="m 645.47789,594.7 -16.571,23.89 4.6665,3.2368 11.904,-17.162 11.904,17.162 4.6665,-3.2368 z"
             inkscape:connector-curvature="0" />
        </g>
        <path
           chid="symbol/P40"
           style="fill:#ff0000;fill-opacity:1;stroke:none;stroke-width:1.03531"
           inkscape:connector-curvature="0"
           d="m 514.11139,2111.1084 a 3.5,3.4990068 0 1 0 -7,0 3.5,3.4990068 0 1 0 7,0 z"
           id="path995-7-1-5-7" />
        <g
           transform="matrix(1.035313,0,0,1.035313,-147.57036,1426.849)"
           style="fill:#ffffff;fill-opacity:1;stroke:#000000"
           chid="symbol/W13"
           id="g176-9">
          <path
             style="fill:#ffffff;fill-opacity:1"
             id="path989-3"
             d="m 628.66789,649.3 23.89,16.571 3.2368,-4.6665 -17.162,-11.904 17.162,-11.904 -3.2368,-4.6665 z"
             inkscape:connector-curvature="0" />
          <path
             style="fill:#ffffff;fill-opacity:1"
             id="path991-6"
             d="m 653.19789,640.11 v 18.39 h 5.7394 v -18.39 z"
             inkscape:connector-curvature="0" />
        </g>
        <g
           style="fill:#000000;fill-opacity:1"
           id="g183-06"
           transform="matrix(3.9130435,0,0,3.9130435,-49.376451,1503.1846)">
          <path
             style="fill:#000000;fill-opacity:1;stroke:#000000;stroke-width:0.26458"
             inkscape:connector-curvature="0"
             d="m 145.67967,157.28 v 5"
             id="path997-2" />
          <path
             style="fill:#000000;fill-opacity:1;stroke:#000000;stroke-width:0.26458"
             inkscape:connector-curvature="0"
             d="m 140.54,162.28 h 9.9998"
             id="path999-61" />
        </g>
        <path
           chid="symbol/W0"
           id="path1001-9"
           d="m 520.16668,2016.2941 -8.30544,-8.3055 -4.15017,4.1502 8.30543,8.3054 -8.30543,8.3055 4.15017,4.1502 8.30544,-8.3055 8.30543,8.3055 4.15018,-4.1502 -8.30544,-8.3055 8.30544,-8.3054 -4.15018,-4.1502 z"
           inkscape:connector-curvature="0"
           style="fill:#ffffff;fill-opacity:1;stroke:#000000;stroke-width:1.03531" />
      </g>
    </g>
  </g>
  <g
     transform="translate(443.98635,-160.14128)"
     style="display:inline"
     inkscape:groupmode="layer"
     id="layerZone"
     inkscape:label="Zone">
    <g
       shvDeviceType="Zone_G3"
       id="g4446"
       transform="matrix(3.7795276,0,0,3.7795276,-509.10964,-585.10749)"
       shvPath="devices/zone/Zone"
       shvVisuType="zoneStatusText">
      <text
         xml:space="preserve"
         style="font-style:normal;font-variant:normal;font-weight:normal;font-stretch:normal;font-size:4.37095px;line-height:1.25;font-family:sans-serif;font-variant-ligatures:normal;font-variant-position:normal;font-variant-caps:normal;font-variant-numeric:normal;font-variant-alternates:normal;font-feature-settings:normal;text-indent:0;text-align:start;text-decoration:none;text-decoration-line:none;text-decoration-style:solid;text-decoration-color:#000000;letter-spacing:normal;word-spacing:normal;text-transform:none;writing-mode:lr-tb;direction:ltr;text-orientation:mixed;dominant-baseline:auto;baseline-shift:baseline;text-anchor:start;white-space:normal;shape-padding:0;opacity:1;vector-effect:none;fill:#4d4d4d;fill-opacity:1;stroke:none;stroke-width:0.301466;stroke-linecap:butt;stroke-linejoin:miter;stroke-miterlimit:4;stroke-dasharray:none;stroke-dashoffset:0;stroke-opacity:1"
         x="64.806824"
         y="203.02621"
         id="text164"><tspan
           sodipodi:role="line"
           id="tspan162"
           x="64.806824"
           y="203.02621"
           style="stroke-width:0.301466">Zone state:</tspan></text>
      <text
         xml:space="preserve"
         style="font-style:normal;font-variant:normal;font-weight:bold;font-stretch:normal;font-size:4.23333px;line-height:1.25;font-family:sans-serif;-inkscape-font-specification:'sans-serif Bold';letter-spacing:0px;word-spacing:0px;fill:#000000;fill-opacity:1;stroke:none;stroke-width:0.264583"
         x="93.209305"
         y="203.04257"
         id="text164-3"><tspan
           sodipodi:role="line"
           id="tspan162-6"
           x="93.209305"
           y="203.04257"
           chid="statusText"
           style="stroke-width:0.264583"
           shvAlarmPosition="left">Undefined</tspan></text>
    </g>
  </g>
  <g
     transform="rotate(180,852.6477,1383.8211)"
     id="g1154"
     shvPath="devices/signal/SG01">
    <text
       transform="scale(-1)"
       id="text1191-0-9-3-4-7-3"
       xml:space="preserve"
       style="font-size:16px;line-height:1.25;font-family:sans-serif;font-variant-ligatures:normal;font-variant-caps:normal;font-variant-numeric:normal;fill:#000000;stroke-width:1.1394"
       font-size="3.1059px"
       y="-2521.3054"
       x="-1498.9619"><tspan
         shvAlarmPosition="right"
         id="tspan1189-23-1-75-7-3-6"
         y="-2521.3054"
         x="-1498.9619"
         style="font-size:16px;stroke-width:1.1394">SG01</tspan></text>
    <g
       id="g1142">
      <path
         d="m 1432.8605,2492.7982 a 20,20.044821 0 0 1 -39.9999,10e-5 20,20.044821 0 0 1 39.9999,-10e-5"
         id="path422-7-22-6-6-1-7"
         inkscape:connector-curvature="0"
         style="fill:#000000;fill-opacity:1;stroke:none;stroke-width:1;stroke-miterlimit:4;stroke-dasharray:none;stroke-opacity:1"
         chid="chambers" />
      <path
         d="m 1393.2957,2532.3634 h 39.1297 m -19.0179,-19.5652 v 19.5652"
         style="fill:#000000;fill-opacity:1;stroke:#000000;stroke-width:1.03531"
         id="path999-9-0-0-2-5-6-3"
         inkscape:connector-curvature="0" />
      <path
         id="path995-7-1-5-9"
         d="m 1421.1942,2492.7983 a 8.3336299,8.3336299 0 1 0 -16.6672,0 8.3336299,8.3336299 0 1 0 16.6672,0 z"
         inkscape:connector-curvature="0"
         style="fill:#ffffff;fill-opacity:1;stroke:none;stroke-width:1.03531"
         chid="symbol/P80" />
    </g>
  </g>
</svg>
