{
    "HP3": {
        "syncPath": ".app/history"
    },
    "gps": [
        51.05946955802304,
        3.711644585126166
    ],
    "name": "Begijnhoflaan - 1804",
    "type": "DepotG3",
    "visu": {
        "svgPath": "_files/site.svg"
        "svgPaths": [
          { "path": "_files/site.svg", "name": "Default" },
          { "path": "_files/site2.svg", "name": "Rotated" }
        ]
    }
}
