<?xml version="1.0" encoding="UTF-8" standalone="no"?>
<svg
   sodipodi:docname="site.svg"
   inkscape:version="1.3.2 (091e20e, 2023-11-25, custom)"
   id="svg-container"
   version="1.1"
   viewBox="0 0 121.94776 107.51808"
   height="406.36499"
   width="460.90201"
   xmlns:inkscape="http://www.inkscape.org/namespaces/inkscape"
   xmlns:sodipodi="http://sodipodi.sourceforge.net/DTD/sodipodi-0.dtd"
   xmlns="http://www.w3.org/2000/svg"
   xmlns:svg="http://www.w3.org/2000/svg"
   xmlns:rdf="http://www.w3.org/1999/02/22-rdf-syntax-ns#"
   xmlns:cc="http://creativecommons.org/ns#"
   xmlns:dc="http://purl.org/dc/elements/1.1/">
  <defs
     id="defs2">
    <inkscape:path-effect
       effect="bspline"
       id="path-effect1042"
       is_visible="true"
       lpeversion="1"
       weight="33.333333"
       steps="2"
       helper_size="0"
       apply_no_weight="true"
       apply_with_weight="true"
       only_selected="false" />
    <linearGradient
       id="linearGradient14757"
       inkscape:swatch="solid">
      <stop
         style="stop-color:#4d4d4d;stop-opacity:1;"
         offset="0"
         id="stop14755" />
    </linearGradient>
  </defs>
  <sodipodi:namedview
     inkscape:pagecheckerboard="0"
     units="px"
     fit-margin-right="10"
     fit-margin-left="10"
     fit-margin-top="10"
     fit-margin-bottom="10"
     inkscape:window-maximized="1"
     inkscape:window-y="-8"
     inkscape:window-x="-8"
     inkscape:window-height="1017"
     inkscape:window-width="1920"
     showgrid="false"
     inkscape:document-rotation="0"
     inkscape:current-layer="g1240"
     inkscape:document-units="mm"
     inkscape:cy="200.86709"
     inkscape:cx="213.86219"
     inkscape:zoom="1.3466616"
     inkscape:pageshadow="2"
     inkscape:pageopacity="0.0"
     borderopacity="1.0"
     bordercolor="#666666"
     pagecolor="#ffffff"
     id="base"
     inkscape:showpageshadow="2"
     inkscape:deskcolor="#d1d1d1" />
  <metadata
     id="metadata5">
    <rdf:RDF>
      <cc:Work
         rdf:about="">
        <dc:format>image/svg+xml</dc:format>
        <dc:type
           rdf:resource="http://purl.org/dc/dcmitype/StillImage" />
        <dc:title>account</dc:title>
      </cc:Work>
    </rdf:RDF>
  </metadata>
  <rect
     style="fill:#000000;fill-opacity:1;stroke:none;stroke-width:0.262017;stroke-opacity:1"
     id="rect10025-2-3-0-3"
     width="1.8520833"
     height="8.9000559"
     x="50.726452"
     y="22.014566" />
  <rect
     style="fill:#000000;fill-opacity:1;stroke:none;stroke-width:0.418573;stroke-opacity:1"
     id="rect10025-2-3-0-5"
     width="1.8520833"
     height="22.713179"
     x="50.726707"
     y="43.758324" />
  <g
     id="g1240"
     shvPath="devices/cabinet"
     transform="matrix(0.26458333,0,0,0.26458333,32.793083,112.1832)"
     shvDeviceType="DisconCabinet">
    <text
       x="-99.483788"
       y="-90.770973"
       font-size="3.1059px"
       style="font-size:12.1535px;line-height:1.25;font-family:sans-serif;font-variant-ligatures:normal;font-variant-caps:normal;font-variant-numeric:normal;fill:#000000;stroke-width:1.1394"
       xml:space="preserve"
       id="text955"><tspan
         x="-99.483788"
         y="-90.770973"
         font-size="3.1059px"
         style="font-size:16px;font-family:sans-serif;font-variant-ligatures:normal;font-variant-caps:normal;font-variant-numeric:normal;stroke-width:1.1394"
         id="tspan953"
         shvAlarmPosition="right">Rozvaděč</tspan></text>
    <g
       id="g1230"
       transform="rotate(180,221.32424,8.1842039)">
      <path
         sodipodi:nodetypes="ccccc"
         style="opacity:1;vector-effect:none;fill:#c8beb7;fill-opacity:0.239216;stroke:#4d4d4d;stroke-width:0.909;stroke-linecap:round;stroke-linejoin:bevel;stroke-miterlimit:4;stroke-dasharray:none;stroke-dashoffset:0;stroke-opacity:1"
         inkscape:connector-curvature="0"
         id="path1486"
         d="m 523.37835,99.43313 -52.86828,-0.005 0.002,-22.28752 52.86828,0.005 z"
         chid="box" />
      <g
         style="fill:none;stroke:#ff2a2a;stroke-width:0.410168;stroke-miterlimit:4;stroke-dasharray:none"
         id="g1492"
         chid="doors"
         transform="matrix(3.5276366e-4,-3.4343434,3.4343434,3.5276366e-4,-229.67423,473.66487)">
        <path
           style="stroke:#ff2a2a;stroke-width:0.410168;stroke-miterlimit:4;stroke-dasharray:none"
           inkscape:connector-curvature="0"
           id="path1488"
           d="m 115.48,219.26 5.4427,5.4427 a 7.6971,7.6971 0 0 0 2.2544,-5.4427 7.6971,7.6971 0 0 0 -7.6972,-7.6972 v 7.6972" />
        <path
           style="stroke:#ff2a2a;stroke-width:0.410168;stroke-miterlimit:4;stroke-dasharray:none"
           inkscape:connector-curvature="0"
           id="path1490"
           d="m 115.48,203.87 5.4427,-5.4427 a 7.6971,7.6971 0 0 1 2.2544,5.4427 7.6971,7.6971 0 0 1 -7.6972,7.6972 V 203.87" />
      </g>
      <path
         id="path1215"
         style="fill:none;stroke:#4d4d4d;stroke-width:1px;stroke-linecap:butt;stroke-linejoin:miter;stroke-opacity:1"
         d="m 470.5261,77.138812 52.85225,22.294318 v 0 0 0 0 m 0.002,-22.288889 -52.87057,22.283889"
         inkscape:connector-curvature="0" />
    </g>
  </g>
  <g
     id="g47291"
     shvPath="devices/discon/drive"
     transform="matrix(0.26458333,0,0,0.26458333,-104.09255,-23.890572)"
     shvDeviceType="DisconDisconnector">
    <text
       x="625.64948"
       y="255.79025"
       font-size="3.1059px"
       style="font-size:12.1535px;line-height:1.25;font-family:sans-serif;font-variant-ligatures:normal;font-variant-caps:normal;font-variant-numeric:normal;fill:#000000;stroke-width:1.1394"
       xml:space="preserve"
       id="text955-3-1"><tspan
         sodipodi:role="line"
         id="tspan2"
         x="625.64948"
         y="255.79025"><tspan
           shvAlarmPosition="right"
           x="625.64948"
           y="255.79025"
           font-size="3.1059px"
           style="font-size:16px;font-family:sans-serif;font-variant-ligatures:normal;font-variant-caps:normal;font-variant-numeric:normal;stroke-width:1.1394"
           id="tspan953-6-9">22 - 20</tspan></tspan></text>
    <g
       id="g47275">
      <circle
         style="fill:#0000ff;fill-opacity:1;stroke:#000000;stroke-width:0.737;stroke-dasharray:none;stroke-opacity:1"
         id="path2432-3-8"
         cx="588.60822"
         cy="231.43971"
         r="24.631384"
         chid="positionError" />
      <g
         id="g13357-4"
         chid="positionOff"
         transform="translate(-13.685494,24.353212)">
        <circle
           style="fill:#00ff00;fill-opacity:1;stroke:#000000;stroke-width:0.737231;stroke-opacity:1"
           id="path2432-7-5"
           cx="602.2937"
           cy="207.0865"
           r="24.631384" />
        <rect
           style="fill:#000000;fill-opacity:1;stroke:none;stroke-width:0.891469;stroke-opacity:1"
           id="rect10025-0"
           width="27.258774"
           height="7"
           x="588.66431"
           y="203.5865" />
      </g>
      <g
         id="g13361-3"
         chid="positionMiddle"
         transform="translate(-95.60212,19.181032)">
        <circle
           style="fill:#808080;fill-opacity:1;stroke:#000000;stroke-width:0.737231;stroke-opacity:1"
           id="path2432-5-6"
           cx="684.21033"
           cy="212.25868"
           r="24.631384" />
        <circle
           style="fill:#000000;fill-opacity:1;stroke:none;stroke-width:0.961924;stroke-opacity:1"
           id="path10709-1"
           cx="684.21033"
           cy="212.25868"
           r="6" />
      </g>
      <g
         id="g13353-0"
         transform="translate(72.864677,20.42148)"
         chid="positionOn">
        <circle
           style="fill:#ff0000;fill-opacity:1;stroke:#000000;stroke-width:0.737232;stroke-opacity:1"
           id="path2432-6"
           cx="515.77704"
           cy="211.01823"
           r="24.631384" />
        <rect
           style="fill:#000000;fill-opacity:1;stroke:none;stroke-width:1.19523;stroke-opacity:1"
           id="rect10025-2-3"
           width="7"
           height="49"
           x="512.27704"
           y="186.5872" />
      </g>
      <circle
         style="fill:none;fill-opacity:1;stroke:#000000;stroke-width:0.729859;stroke-opacity:1"
         id="path2432-6-0"
         cx="588.60822"
         cy="231.43971"
         chid="boundingBox"
         r="24.385071" />
    </g>
  </g>
  <text
     id="text434-0-5"
     y="10.484196"
     x="60.477627"
     style="font-style:normal;font-variant:normal;font-weight:normal;font-stretch:normal;font-size:7.0556px;line-height:1.45;font-family:sans-serif;-inkscape-font-specification:'sans-serif, Normal';font-variant-ligatures:normal;font-variant-caps:normal;font-variant-numeric:normal;font-variant-east-asian:normal;text-align:center;letter-spacing:0px;word-spacing:0px;text-anchor:middle;stroke-width:0.264585"
     xml:space="preserve"><tspan
       style="font-style:normal;font-variant:normal;font-weight:normal;font-stretch:normal;font-size:7.0556px;font-family:sans-serif;-inkscape-font-specification:'sans-serif, Normal';font-variant-ligatures:normal;font-variant-caps:normal;font-variant-numeric:normal;font-variant-east-asian:normal;stroke-width:0.264585"
       y="10.484196"
       x="60.477627"
       id="tspan432-3-5"
       sodipodi:role="line">Dělení  22 - 20</tspan></text>
</svg>
