ID;en;cs
Bad position;Error position;Chybná poloha
Battery replacement warning;Battery replacement warning;Upozornění na výměnu baterie
Cabinet door currently open;Cabinet door currently open;Dveře rozvaděče jsou momentálně otevřené
Cabinet door open;Cabinet door open;Dveře rozvaděče otevřené
Cabinet has no power;Cabinet has no power;
Connect;Close;Připojit
Detected ID;Detected ID;
Detected OK;Detected OK;
Detectes identification;Detectes identification;
DeviceManager.device;Raptor Device Manager;Správce zařízení jednotky Raptor
Discon button OFF was pressed;OFF button was pressed to OPEN the disconnector;Tlačítko OFF bylo stisknuto pro ODPOJENÍ odpojovače
Discon button ON was pressed;ON button was pressed to CLOSE the disconnector;Tlačítko ON bylo stisknuto pro PŘIPOJENÍ odpojovače
DisconCabinet.device;Motor drive cabinet;Rozvaděč motorového pohonu
DisconDisconnector.device;Motor drive;Motorový pohon
DisconIo.device;Raptor IO;Vstupy/Výstupy jednotky Raptor
DisconUps.device;Disconnector UPS;UPS odpojovače
Disconector is in bad position;Disconector is in error position;Odpojovač je v chybné poloze
Disconector is in intermediate position;Disconector is in intermediate position;Odpojovač je v mezipoloze
Disconector is moving to positiong OFF;Disconector is moving to position OPEN;Odpojovač v pohybu do polohy ODPOJENO
Disconector is moving to positiong ON;Disconector is moving to position CLOSE;Odpojovač v pohybu do polohy PŘIPOJENO
Disconector position is OFF;Disconector position is OPEN;Odpojovač je v poloze ODPOJENO
Disconector position is ON;Disconector position is CLOSE;Odpojovač je v poloze PŘIPOJENO
Disconnect;Open;Odpojit
Disconnector end switch OFF;Disconnector end switch OPEN;Vnější koncový spínač - ODPOJENO
Disconnector end switch ON;Disconnector end switch ON;Vnější koncový spínač - PŘIPOJENO
EEPROM read OK;EEPROM read OK;
External OFF position sensor is active;External OPEN position sensor is active;Koncový spínač pozice ODPOJENO na odpojovači je aktivní
External ON position sensor is active;External CLOSE position sensor is active;Koncový spínač pozice PŘIPOJENO na odpojovači je aktivní
Fuse End SW;Fuse End SW;
Fuse MD-A;Fuse MD-A;
Fuse MD-B;Fuse MD-B;
Fuse broken or disconnected;Fuse broken or disconnected;
Fuse system;Fuse system;
Hades in error;Hades unit error;Chyba jednotky Hades
IO power;IO power;
IO power OK;IO power OK;
Input 1;Input 1;Vstup 1
Input 10;Input 10;Vstup 10
Input 11;Input 11;Vstup 11
Input 12;Input 12;Vstup 12
Input 13;Input 13;Vstup 13
Input 14;Input 14;Vstup 14
Input 15;Input 15;Vstup 15
Input 16;Input 16;Vstup 16
Input 2;Input 2;Vstup 2
Input 3;Input 3;Vstup 3
Input 4;Input 4;Vstup 4
Input 5;Input 5;Vstup 5
Input 6;Input 6;Vstup 6
Input 7;Input 7;Vstup 7
Input 8;Input 8;Vstup 8
Input 9;Input 9;Vstup 9
Intermediate position;Intermediate position;Mezipoloha
Internal OFF position sensor is active;Internal OPEN position sensor is active;Koncový spínač pozice ODPOJENO na motorovém pohonu je aktivní
Internal ON position sensor is active;Internal CLOSE position sensor is active;Koncový spínač pozice PŘIPOJENO na motorovém pohonu je aktivní
Key switch motor inhibited;Key switch motor inhibited;
Lamp is active;Lamp is active;
Motor door opened;Motor door open;Dveře motoru jsou otevřené
Motor end switch OFF;Motor end switch OPEN;Vnitřní koncový spínač - ODPOJENO
Motor end switch ON;Motor end switch CLOSE;Vnitřní koncový spínač - PŘIPOJENO
Motor switch ON;Motor main switch ON;Hlavní vypínač motoru v poloze ON
Moving to position OFF;Moving to position OPEN;Pohyb do polohy ODPOJENO
Moving to position ON;Moving to position CLOSE;Pohyb do polohy PŘIPOJENO
No Voltage;No Voltage;
No power;No power;
No voltage;No voltage;
OFF Pressed;OFF pressed;OFF stisknuto
ON Pressed;ON pressed;ON stisknuto
Output 17;Output 17;
Output 18;Output 18;
Output 20;Output 20;
Output 22;Output 22;
Output 24;Output 24;
Position OFF;Position OPEN;Poloha ODPOJENO
Position ON;Position CLOSE;Poloha PŘIPOJENO
Read output 1;Read output 1 active;Výstup 1 aktivní
Read output 2;Read output 2 active;Výstup 2 aktivní
Read output 3;Read output 3 active;Výstup 3 aktivní
Read output 4;Read output 4 active;Výstup 4 aktivní
Read output 5;Read output 5 active;Výstup 5 aktivní
Read output 6;Read output 6 active;Výstup 6 aktivní
Read output 7;Read output 7 active;Výstup 7 aktivní
Read output 8;Read output 8 active;Výstup 8 aktivní
Read settings from EEPROM OK;Read settings from EEPROM OK;
SHV discon command to position OFF;SHV command to open the disconnector;SHV povel pro odpojení odpojovače
SHV discon command to position ON;SHV command to close the disconnector;SHV povel pro připojení odpojovače
UPS battery is connected to the system and is being used to deliver power to the system;UPS battery is connected to the system and is being used to deliver power to the system;UPS baterie je připojena k systému a je aktuálně používána pro napájení systému
UPS battery needs to be replaced;UPS battery needs to be replaced;Je třeba vyměnit baterii UPS
UPS buffering;UPS buffering;Zálohování UPS
UPS ready;UPS ready;UPS připravena
UPS unit is connected and ready;UPS unit is connected and ready;UPS baterie je připojena a je připravena
discon.device;Disconnectors;Odpojovače
modem.device;Modem;Modem
