ID;en
Blocking PME movement;Blocking PME movement
GPIO_C.device;General purpose I/O
General purpose input;General purpose input
IN-DPPS-D1;IN-DPPS-D1
IN-DPPS-D1-CE;IN-DPPS-D1-CE
IN-DPPS-D10;IN-DPPS-D10
IN-DPPS-D10-CE;IN-DPPS-D10-CE
IN-DPPS-D11;IN-DPPS-D11
IN-DPPS-D11-CE;IN-DPPS-D11-CE
IN-DPPS-D2;IN-DPPS-D2
IN-DPPS-D2-CE;IN-DPPS-D2-CE
IN-DPPS-D3;IN-DPPS-D3
IN-DPPS-D3-CE;IN-DPPS-D3-CE
IN-DPPS-D4;IN-DPPS-D4
IN-DPPS-D4-CE;IN-DPPS-D4-CE
IN-DPPS-D5;IN-DPPS-D5
IN-DPPS-D5-CE;IN-DPPS-D5-CE
IN-DPPS-D6;IN-DPPS-D6
IN-DPPS-D6-CE;IN-DPPS-D6-CE
IN-DPPS-D7;IN-DPPS-D7
IN-DPPS-D7-CE;IN-DPPS-D7-CE
IN-DPPS-D8;IN-DPPS-D8
IN-DPPS-D8-CE;IN-DPPS-D8-CE
IN-DPPS-D9;IN-DPPS-D9
IN-DPPS-D9-CE;IN-DPPS-D9-CE
IN-PWR-MD1;IN-PWR-MD1
IN-PWR-MD1-CE;IN-PWR-MD1-CE
IN-PWR-MD2;IN-PWR-MD2
IN-PWR-MD2-CE;IN-PWR-MD2-CE
Input to PLC, project-specific.;Input to PLC, project-specific.
OUT-OPEN-C1;OUT-OPEN-C1
OUT-OPEN-C10;OUT-OPEN-C10
OUT-OPEN-C11;OUT-OPEN-C11
OUT-OPEN-C2;OUT-OPEN-C2
OUT-OPEN-C3;OUT-OPEN-C3
OUT-OPEN-C4;OUT-OPEN-C4
OUT-OPEN-C5;OUT-OPEN-C5
OUT-OPEN-C6;OUT-OPEN-C6
OUT-OPEN-C7;OUT-OPEN-C7
OUT-OPEN-C8;OUT-OPEN-C8
OUT-OPEN-C9;OUT-OPEN-C9
Open the workshop door D1;Open the workshop door D1
Open the workshop door D10;Open the workshop door D10
Open the workshop door D11;Open the workshop door D11
Open the workshop door D2;Open the workshop door D2
Open the workshop door D3;Open the workshop door D3
Open the workshop door D4;Open the workshop door D4
Open the workshop door D5;Open the workshop door D5
Open the workshop door D6;Open the workshop door D6
Open the workshop door D7;Open the workshop door D7
Open the workshop door D8;Open the workshop door D8
Open the workshop door D9;Open the workshop door D9
PME-CS-ST;PME-CS-ST
Power section MD1 is switched off;Power section MD1 is switched off
Power section MD1 is switched off complement error;Power section MD1 is switched off complement error
Power section MD2 is switched off complement error;Power section MD2 is switched off complement error
Road 1 is not available;Road 1 is not available
Road 1 is not available complement error;Road 1 is not available complement error
Road 10 is not available;Road 10 is not available
Road 10 is not available complement error;Road 10 is not available complement error
Road 11 is not available;Road 11 is not available
Road 11 is not available complement error;Road 11 is not available complement error
Road 2 is not available;Road 2 is not available
Road 2 is not available complement error;Road 2 is not available complement error
Road 3 is not available;Road 3 is not available
Road 3 is not available complement error;Road 3 is not available complement error
Road 4 retractable overhead is isolated;Road 4 retractable overhead is isolated
Road 4 retractable overhead is isolated complement error;Road 4 retractable overhead is isolated complement error
Road 5 retractable overhead is isolated;Road 5 retractable overhead is isolated
Road 5 retractable overhead is isolated complement error;Road 5 retractable overhead is isolated complement error
Road 6 retractable overhead is isolated;Road 6 retractable overhead is isolated
Road 6 retractable overhead is isolated complement error;Road 6 retractable overhead is isolated complement error
Road 7 retractable overhead is isolated;Road 7 retractable overhead is isolated
Road 7 retractable overhead is isolated complement error;Road 7 retractable overhead is isolated complement error
Road 8 retractable overhead is isolated;Road 8 retractable overhead is isolated
Road 8 retractable overhead is isolated complement error;Road 8 retractable overhead is isolated complement error
Road 9 is not available;Road 9 is not available
Road 9 is not available complement error;Road 9 is not available complement error
