ID;en;it
Command to turn OFF verfication of a correct detector sequence during tram passage;Command to turn OFF verfication of a correct detector sequence during tram passage;Comando per disattivare la verifica della corretta sequenza di rivelazione durante il passaggio del tram
Sequence monitoring OFF;Sequence monitoring OFF;Monitoraggio della sequenza OFF
Command to turn ON verfication of a correct detector sequence during tram passage;Command to turn ON verfication of a correct detector sequence during tram passage;Comando per attivare la verifica di una corretta sequenza di rivelatori durante il passaggio del tram
Sequence monitoring ON;Sequence monitoring ON;Monitoraggio sequenza ON
Maximum duration of a point machine motor operation if an end position has not been reached (500 - 3000 ms);Maximum duration of a point machine motor operation if an end position has not been reached (500 - 3000 ms);Durata massima del funzionamento del motore della macchina a punti se non è stata raggiunta una posizione finale (500 - 3000 ms)
Maximum motor feed time;Maximum motor feed time;Tempo massimo di avanzamento del motore
Delay of a route transition from the occupied state to the free state after a tram leaves the switch area (500 - 3000 ms);Delay of a route transition from the occupied state to the free state after a tram leaves the switch area (500 - 3000 ms);Ritardo della transizione di un percorso dallo stato occupato allo stato libero dopo che un tram lascia l'area di commutazione (500 - 3000 ms)
Route occupation phase extension;Route occupation phase extension;Estensione della fase di occupazione del percorso
Command to set a mode of the signal when at least one symbol is always active (valid only for NORM state);Command to set a mode of the signal when at least one symbol is always active (valid only for NORM state);Comando per impostare una modalità del segnale quando almeno un simbolo è sempre attivo (valido solo per lo stato NORM)
Always active;Always active;Sempre attivo
Command to set a mode of the signal when the signal is active only while a point machine is blocked - a tram is passing (valid only for NORM state);Command to set a mode of the signal when the signal is active only while a point machine is blocked - a tram is passing (valid only for NORM state);Comando per impostare una modalità del segnale quando il segnale è attivo solo mentre una macchina a punti è bloccata - un tram sta passando (valido solo per lo stato NORM)
Active with tram;Active with tram;Attivo con il tram
Verification of a correct detector sequence during tram passage is active;Verification of a correct detector sequence during tram passage is active;La verifica della corretta sequenza di rivelazione durante il passaggio del tram è attiva
Sequence monitoring is on;Sequence monitoring is on;Il monitoraggio della sequenza è attivo
Operational mode of the signal, yes: signal is active only while a point machine is blocked - a tram is passing, no: signal is always active (valid only for NORM state);Operational mode of the signal, yes: signal is active only while a point machine is blocked - a tram is passing, no: signal is always active (valid only for NORM state);Modalità operativa del segnale, sì: il segnale è attivo solo quando una macchina a punti è bloccata - un tram sta passando, no: il segnale è sempre attivo (valido solo per lo stato NORM)
