key;en;sk
type.StatusButtons.fields.button01.description;YES = button active, NO = button inactive;ÁNO = tlačidlo aktívne, NIE = tlačidlo neaktívne
type.StatusButtons.fields.button01.label;Direction straight;Smer rovno
