{
    "type": "DepotG3",
    "name": "010: LARGO TOSCANA",
    "gps": [45.0967141415242, 7.658459738610487],
    "HP3": {
        "syncPath": ".app/history"
    },
    "visu": {
        "svgPath": "_files/site.svg"
    }
}