ID;en;pl
1 = fan active, 0 = fan inactive;1 = fan active, 0 = fan inactive;1 = wentylator aktywny, 0 = wentylator nieaktywny
1 = gate opened, 0 = gate closed;1 = gate opened, 0 = gate closed;1 = brama otwarta, 0 = brama zamknięta
Gate 1 opened;Gate 1 opened;Brama 1 otwarta
Gate 2 opened;Gate 2 opened;Brama 2 otwarta
Gate 3 opened;Gate 3 opened;Brama 3 otwarta
Gate 4 opened;Gate 4 opened;Brama 4 otwarta
Gate 5 opened;Gate 5 opened;Brama 5 otwarta
Gate 6 opened;Gate 6 opened;Brama 6 otwarta
Open gate 1;Open gate 1;Otwórz bramę 1
Open gate 2;Open gate 2;Otwórz bramę 2
Open gate 3;Open gate 3;Otwórz bramę 3
Open gate 4;Open gate 4;Otwórz bramę 4
Open gate 5;Open gate 5;Otwórz bramę 5
Open gate 6;Open gate 6;Otwórz bramę 6
Pulse to open the gate;Pulse to open the gate;Impuls do otwarcia bramy
SIGA1 Cabinet fan active;SIGA1 Cabinet fan active;Szafa SIGA1 Wentylator aktywny
SIGA2 Cabinet fan active;SIGA2 Cabinet fan active;Szafa SIGA2 Wentylator aktywny
YES = button currently pressed, NO = button currently not pressed;YES = button currently pressed, NO = button currently not pressed;TAK = przycisk aktualnie naciśnięty, NIE = przycisk aktualnie nenaciśnięty
