ID;en;nl_BE
Bypass key active;Bypass key active;Bypass-toets actief
Control panel activated by bypass key;Control panel activated by bypass key;Bedieningspaneel geactiveerd door bypass sleutel
Error of service switch;Error of service switch;Fout van serviceschakelaar
General purpose input;General purpose input;
Input to PLC, project-specific.;Input to PLC, project-specific.;
Parking track 1;Parking track 1;Parkeerspoor 1
Parking track 2;Parking track 2;Parkeerspoor 2
Parking track 3;Parking track 3;Parkeerspoor 3
Parking track 4;Parking track 4;Parkeerspoor 4
Parking track 5;Parking track 5;Parkeerspoor 5
Service switch activated;Service switch activated;Service-schakelaar geactiveerd
YES - Request active, NO - Request inactive;Request input active;Aanvraag input actief
YES = complementarity or IO error, NO = no error;YES = complementarity or IO error, NO = no error;JA = complementariteit of IO-fout, NEE = geen fout
YES = service active and point machines blocked, NO = service not active;YES = service active and point machines blocked, NO = service not active;JA = service actief en puntmachines geblokkeerd, NEE = service niet actief
