key;en
type.DataRouteCodeMel.fields.branch.description;Branch
type.DataRouteCodeMel.fields.branch.label;Branch
type.DataRouteCodeMel.fields.prime.description;Prime
type.DataRouteCodeMel.fields.prime.label;Prime
type.DataRouteCodeMel.fields.upDown.description;Dir
type.DataRouteCodeMel.fields.upDown.label;Dir
