{
  "chambers": [ 1, 1, 1 ],
  "symbols": {
    "F0": {
      "chamber": 0,
      "column": 1
    },
    "F2": {
      "chamber": 2,
      "column": 3
    },
    "F3": {
      "chamber": 1,
      "column": 2
    }
  }
}

