<?xml version="1.0" encoding="UTF-8" standalone="no"?>
<svg
   width="600"
   height="200.00003"
   id="svg2"
   sodipodi:version="0.32"
   inkscape:version="1.4 (e7c3feb100, 2024-10-09)"
   sodipodi:docname="signal_SG2.svg"
   inkscape:export-filename="/home/juerd/data/jue/verkeer/buslicht.png"
   inkscape:export-xdpi="80.133026"
   inkscape:export-ydpi="80.133026"
   version="1.0"
   xmlns:inkscape="http://www.inkscape.org/namespaces/inkscape"
   xmlns:sodipodi="http://sodipodi.sourceforge.net/DTD/sodipodi-0.dtd"
   xmlns="http://www.w3.org/2000/svg"
   xmlns:svg="http://www.w3.org/2000/svg"
   xmlns:rdf="http://www.w3.org/1999/02/22-rdf-syntax-ns#"
   xmlns:cc="http://creativecommons.org/ns#"
   xmlns:dc="http://purl.org/dc/elements/1.1/">
  <defs
     id="defs4" />
  <sodipodi:namedview
     id="base"
     pagecolor="#ffffff"
     bordercolor="#666666"
     borderopacity="1.0"
     inkscape:pageopacity="0.0"
     inkscape:pageshadow="2"
     inkscape:zoom="0.78706596"
     inkscape:cx="177.24055"
     inkscape:cy="550.14449"
     inkscape:document-units="px"
     inkscape:current-layer="layer3"
     inkscape:window-width="1275"
     inkscape:window-height="1402"
     inkscape:window-x="1281"
     inkscape:window-y="34"
     showgrid="false"
     inkscape:window-maximized="1"
     fit-margin-top="0"
     fit-margin-left="0"
     fit-margin-right="0"
     fit-margin-bottom="0"
     inkscape:pagecheckerboard="true"
     inkscape:document-rotation="0"
     inkscape:showpageshadow="2"
     inkscape:deskcolor="#d1d1d1" />
  <metadata
     id="metadata7">
    <rdf:RDF>
      <cc:Work
         rdf:about="">
        <dc:format>image/svg+xml</dc:format>
        <dc:type
           rdf:resource="http://purl.org/dc/dcmitype/StillImage" />
      </cc:Work>
    </rdf:RDF>
  </metadata>
  <g
     inkscape:groupmode="layer"
     id="layer3"
     inkscape:label="Background"
     style="display:inline"
     transform="translate(1.1780946,-300)">
    <g
       id="g3110-36"
       transform="matrix(0.8617267,0,0,0.84325064,-485.84549,200.62779)"
       style="display:inline;fill:#000000;stroke-width:0.988741">
      <ellipse
         style="display:inline;fill:#666666;fill-opacity:1;stroke-width:1.03289"
         id="path3113-75-3"
         cx="736.50659"
         cy="295.72729"
         rx="58.023037"
         ry="59.294353" />
      <ellipse
         style="display:inline;fill:#666666;fill-opacity:1;stroke-width:1.03289"
         id="path3113-75-3-6"
         cx="736.50659"
         cy="177.13858"
         rx="58.023037"
         ry="59.294353" />
    </g>
    <g
       style="display:inline;fill:#ffffff;fill-rule:evenodd;stroke-width:28.222;stroke-linejoin:round"
       id="g1237-3-93"
       inkscape:label="stop"
       transform="matrix(0,-0.02372817,-0.01905197,0,95.068687,892.69901)">
      <g
         class="com.sun.star.drawing.PolyPolygonShape"
         id="g835-6-6"
         transform="matrix(1.44,0,0,0.81,932.14658,-3463.7291)"
         style="fill:#ffffff">
        <g
           id="id89-75-0"
           style="fill:#ffffff">
          <rect
             class="BoundingBox"
             x="11431"
             y="1441"
             width="1756"
             height="648"
             id="rect830-35-6"
             style="display:inline;fill:#ffffff;stroke:none" />
          <path
             d="m 11431,1764 v -323 h 1755 v 646 h -1755 z"
             id="path832-6-2"
             inkscape:connector-curvature="0"
             style="display:inline;fill:#ffffff;fill-opacity:1;stroke:none" />
        </g>
      </g>
    </g>
    <g
       style="display:inline;fill:#ffffff;fill-rule:evenodd;stroke-width:28.222;stroke-linejoin:round"
       id="g1237-3-6"
       inkscape:label="stop"
       transform="matrix(0,-0.02372817,-0.01905197,0,125.06868,892.69901)">
      <g
         class="com.sun.star.drawing.PolyPolygonShape"
         id="g835-6-18"
         transform="matrix(1.44,0,0,0.81,932.14658,-3463.7291)"
         style="fill:#ffffff">
        <g
           id="id89-75-7"
           style="fill:#ffffff">
          <rect
             class="BoundingBox"
             x="11431"
             y="1441"
             width="1756"
             height="648"
             id="rect830-35-9"
             style="display:inline;fill:#ffffff;stroke:none" />
          <path
             d="m 11431,1764 v -323 h 1755 v 646 h -1755 z"
             id="path832-6-20"
             inkscape:connector-curvature="0"
             style="display:inline;fill:#ffffff;fill-opacity:1;stroke:none" />
        </g>
      </g>
    </g>
    <circle
       style="display:inline;fill:#666666;fill-opacity:1;stroke:#666666;stroke-width:4.27441;stroke-linecap:butt;stroke-linejoin:round;stroke-miterlimit:4;stroke-dasharray:none;stroke-dashoffset:0;stroke-opacity:1"
       id="path3113-6-2"
       cx="248.8219"
       cy="350"
       r="47.862793" />
    <g
       id="g3110-3-9-9"
       transform="matrix(0.86172587,0,0,0.84325145,-385.84492,300.6277)"
       style="display:inline;fill:#666666;fill-opacity:1;stroke:#666666;stroke-width:0.988741">
      <circle
         style="fill:#666666;fill-opacity:1;stroke:#666666;stroke-width:19.7748;stroke-linecap:butt;stroke-linejoin:round;stroke-miterlimit:4;stroke-dasharray:none;stroke-dashoffset:0;stroke-opacity:1"
         id="path3113-6-7-3"
         transform="matrix(0.25083911,0,0,0.25633463,652.29637,78.393471)"
         cx="335.71429"
         cy="385.21933"
         r="221.42857" />
    </g>
    <g
       id="g3110-3-7"
       transform="matrix(0.86172587,0,0,0.84325145,-285.84492,200.6277)"
       style="display:inline;fill:#666666;fill-opacity:0;stroke:#666666;stroke-width:0.988741">
      <circle
         style="fill:#666666;fill-opacity:0;stroke:#666666;stroke-width:19.7748;stroke-linecap:butt;stroke-linejoin:round;stroke-miterlimit:4;stroke-dasharray:none;stroke-dashoffset:0;stroke-opacity:1"
         id="path3113-6-8"
         transform="matrix(0.25083911,0,0,0.25633463,652.29637,78.393471)"
         cx="335.71429"
         cy="385.21933"
         r="221.42857" />
    </g>
    <g
       id="g3110-3-9-5"
       transform="matrix(0.86172587,0,0,0.84325145,-285.84492,300.6277)"
       style="display:inline;fill:#666666;fill-opacity:1;stroke:#666666;stroke-width:0.988741">
      <circle
         style="fill:#666666;fill-opacity:1;stroke:#666666;stroke-width:19.7748;stroke-linecap:butt;stroke-linejoin:round;stroke-miterlimit:4;stroke-dasharray:none;stroke-dashoffset:0;stroke-opacity:1"
         id="path3113-6-7-5"
         transform="matrix(0.25083911,0,0,0.25633463,652.29637,78.393471)"
         cx="335.71429"
         cy="385.21933"
         r="221.42857" />
    </g>
    <g
       id="g3110-3-9-5-5"
       transform="matrix(0.43082435,0,0,0.42166341,-68.485325,375.30803)"
       style="display:inline;fill:#ffffff;fill-opacity:1;stroke:#ffffff;stroke-width:0.988741;stroke-opacity:1">
      <circle
         style="fill:#ffffff;fill-opacity:1;stroke:#ffffff;stroke-width:19.7748;stroke-linecap:butt;stroke-linejoin:round;stroke-miterlimit:4;stroke-dasharray:none;stroke-dashoffset:0;stroke-opacity:1"
         id="path3113-6-7-5-2"
         transform="matrix(0.25083911,0,0,0.25633463,652.29637,78.393471)"
         cx="335.71429"
         cy="385.21933"
         r="221.42857" />
    </g>
    <circle
       style="display:inline;fill:#666666;fill-opacity:0;stroke:#666666;stroke-width:4.27441;stroke-linecap:butt;stroke-linejoin:round;stroke-miterlimit:4;stroke-dasharray:none;stroke-dashoffset:0;stroke-opacity:1"
       id="path3113-6-3-4"
       cx="448.8219"
       cy="350"
       r="47.862793" />
    <g
       id="g3110-3-9-6-7"
       transform="matrix(0.86172587,0,0,0.84325145,-185.84492,300.62771)"
       style="display:inline;fill:#666666;fill-opacity:1;stroke:#666666;stroke-width:0.988741">
      <circle
         style="fill:#666666;fill-opacity:1;stroke:#666666;stroke-width:19.7748;stroke-linecap:butt;stroke-linejoin:round;stroke-miterlimit:4;stroke-dasharray:none;stroke-dashoffset:0;stroke-opacity:1"
         id="path3113-6-7-1-6"
         transform="matrix(0.25083911,0,0,0.25633463,652.29637,78.393471)"
         cx="335.71429"
         cy="385.21933"
         r="221.42857" />
    </g>
    <circle
       style="display:inline;fill:#666666;fill-opacity:1;stroke:#666666;stroke-width:4.27441;stroke-linecap:butt;stroke-linejoin:round;stroke-miterlimit:4;stroke-dasharray:none;stroke-dashoffset:0;stroke-opacity:1"
       id="path3113-6-2-5"
       cx="48.821903"
       cy="350"
       r="47.862793" />
    <g
       id="g3110-3-9-9-6"
       transform="matrix(0.86172587,0,0,0.84325145,-585.84492,300.62771)"
       style="display:inline;fill:#666666;fill-opacity:1;stroke:#666666;stroke-width:0.988741">
      <circle
         style="fill:#666666;fill-opacity:1;stroke:#666666;stroke-width:19.7748;stroke-linecap:butt;stroke-linejoin:round;stroke-miterlimit:4;stroke-dasharray:none;stroke-dashoffset:0;stroke-opacity:1"
         id="path3113-6-7-3-9"
         transform="matrix(0.25083911,0,0,0.25633463,652.29637,78.393471)"
         cx="335.71429"
         cy="385.21933"
         r="221.42857" />
    </g>
    <g
       id="g2"
       transform="matrix(0,0.98917036,-0.98414207,0,891.68581,-93.959551)"
       style="display:inline;fill:#ffffff;fill-opacity:1;stroke:#666666">
      <g
         style="display:inline;fill:#ffffff;fill-opacity:1;fill-rule:evenodd;stroke:#666666;stroke-width:28.222;stroke-linejoin:round"
         id="g1237-3-93-3-9"
         inkscape:label="stop"
         transform="matrix(0,-0.02372817,-0.01905197,0,395.06869,892.69902)">
        <g
           class="com.sun.star.drawing.PolyPolygonShape"
           id="g835-6-6-6-2"
           transform="matrix(1.44,0,0,0.81,932.14658,-3463.7291)"
           style="fill:#ffffff;fill-opacity:1;stroke:#666666">
          <g
             id="id89-75-0-1-0"
             style="fill:#ffffff;fill-opacity:1;stroke:#666666">
            <rect
               class="BoundingBox"
               x="11431"
               y="1441"
               width="1756"
               height="648"
               id="rect830-35-6-0-6"
               style="display:inline;fill:#ffffff;fill-opacity:1;stroke:#666666" />
            <path
               d="m 11431,1764 v -323 h 1755 v 646 h -1755 z"
               id="path832-6-2-6-8"
               inkscape:connector-curvature="0"
               style="display:inline;fill:#ffffff;fill-opacity:1;stroke:#666666" />
          </g>
        </g>
      </g>
      <g
         style="display:inline;fill:#ffffff;fill-opacity:1;fill-rule:evenodd;stroke:#666666;stroke-width:28.222;stroke-linejoin:round"
         id="g1237-3-6-3-9"
         inkscape:label="stop"
         transform="matrix(0,-0.02372817,-0.01905197,0,425.06868,892.69902)">
        <g
           class="com.sun.star.drawing.PolyPolygonShape"
           id="g835-6-18-2-2"
           transform="matrix(1.44,0,0,0.81,932.14658,-3463.7291)"
           style="fill:#ffffff;fill-opacity:1;stroke:#666666">
          <g
             id="id89-75-7-0-6"
             style="fill:#ffffff;fill-opacity:1;stroke:#666666">
            <rect
               class="BoundingBox"
               x="11431"
               y="1441"
               width="1756"
               height="648"
               id="rect830-35-9-6-6"
               style="display:inline;fill:#ffffff;fill-opacity:1;stroke:#666666" />
            <path
               d="m 11431,1764 v -323 h 1755 v 646 h -1755 z"
               id="path832-6-20-1-4"
               inkscape:connector-curvature="0"
               style="display:inline;fill:#ffffff;fill-opacity:1;stroke:#666666" />
          </g>
        </g>
      </g>
    </g>
    <circle
       style="display:inline;fill:#666666;fill-opacity:1;stroke:#666666;stroke-width:4.27441;stroke-linecap:butt;stroke-linejoin:round;stroke-miterlimit:4;stroke-dasharray:none;stroke-dashoffset:0;stroke-opacity:1"
       id="path3113-6-3-4-3"
       cx="548.8219"
       cy="350"
       r="47.862793" />
    <g
       id="g3110-3-9-6-7-6"
       transform="matrix(0.86172587,0,0,0.84325145,-85.844895,300.6277)"
       style="display:inline;fill:#666666;fill-opacity:1;stroke:#666666;stroke-width:0.988741">
      <circle
         style="fill:#666666;fill-opacity:1;stroke:#666666;stroke-width:19.7748;stroke-linecap:butt;stroke-linejoin:round;stroke-miterlimit:4;stroke-dasharray:none;stroke-dashoffset:0;stroke-opacity:1"
         id="path3113-6-7-1-6-7"
         transform="matrix(0.25083911,0,0,0.25633463,652.29637,78.393471)"
         cx="335.71429"
         cy="385.21933"
         r="221.42857" />
    </g>
    <g
       id="g2-5"
       transform="matrix(-0.69479885,0.69479885,-0.69126695,-0.69126695,1171.733,449.2292)"
       style="display:inline;fill:#ffffff;fill-opacity:1;stroke:#666666">
      <g
         style="display:inline;fill:#ffffff;fill-opacity:1;fill-rule:evenodd;stroke:#666666;stroke-width:28.222;stroke-linejoin:round"
         id="g1237-3-93-3-9-3"
         inkscape:label="stop"
         transform="matrix(0,-0.02372817,-0.01905197,0,395.06869,892.69902)">
        <g
           class="com.sun.star.drawing.PolyPolygonShape"
           id="g835-6-6-6-2-5"
           transform="matrix(1.44,0,0,0.81,932.14658,-3463.7291)"
           style="fill:#ffffff;fill-opacity:1;stroke:#666666">
          <g
             id="id89-75-0-1-0-6"
             style="fill:#ffffff;fill-opacity:1;stroke:#666666">
            <rect
               class="BoundingBox"
               x="11431"
               y="1441"
               width="1756"
               height="648"
               id="rect830-35-6-0-6-2"
               style="display:inline;fill:#ffffff;fill-opacity:1;stroke:#666666" />
            <path
               d="m 11431,1764 v -323 h 1755 v 646 h -1755 z"
               id="path832-6-2-6-8-9"
               inkscape:connector-curvature="0"
               style="display:inline;fill:#ffffff;fill-opacity:1;stroke:#666666" />
          </g>
        </g>
      </g>
      <g
         style="display:inline;fill:#ffffff;fill-opacity:1;fill-rule:evenodd;stroke:#666666;stroke-width:28.222;stroke-linejoin:round"
         id="g1237-3-6-3-9-1"
         inkscape:label="stop"
         transform="matrix(0,-0.02372817,-0.01905197,0,425.06868,892.69902)">
        <g
           class="com.sun.star.drawing.PolyPolygonShape"
           id="g835-6-18-2-2-2"
           transform="matrix(1.44,0,0,0.81,932.14658,-3463.7291)"
           style="fill:#ffffff;fill-opacity:1;stroke:#666666">
          <g
             id="id89-75-7-0-6-7"
             style="fill:#ffffff;fill-opacity:1;stroke:#666666">
            <rect
               class="BoundingBox"
               x="11431"
               y="1441"
               width="1756"
               height="648"
               id="rect830-35-9-6-6-0"
               style="display:inline;fill:#ffffff;fill-opacity:1;stroke:#666666" />
            <path
               d="m 11431,1764 v -323 h 1755 v 646 h -1755 z"
               id="path832-6-20-1-4-9"
               inkscape:connector-curvature="0"
               style="display:inline;fill:#ffffff;fill-opacity:1;stroke:#666666" />
          </g>
        </g>
      </g>
    </g>
    <g
       style="display:inline;fill:#0000ff;fill-rule:evenodd;stroke-width:28.222;stroke-linejoin:round"
       id="g1237-3-6-4-8"
       inkscape:label="stop"
       transform="matrix(-0.01581878,0,0,-0.03810395,643.95458,272.49355)">
      <g
         class="com.sun.star.drawing.PolyPolygonShape"
         id="g835-6-18-7-8"
         transform="matrix(1.44,0,0,0.81,932.14658,-3463.7291)"
         style="fill:#0000ff">
        <g
           id="id89-75-7-4-4"
           style="fill:#0000ff">
          <rect
             class="BoundingBox"
             x="11431"
             y="1441"
             width="1756"
             height="648"
             id="rect830-35-9-4-3"
             style="display:inline;fill:#0000ff;stroke:none" />
          <path
             d="m 11431,1764 v -323 h 1755 v 646 h -1755 z"
             id="path832-6-20-3-1"
             inkscape:connector-curvature="0"
             style="display:inline;fill:#0000ff;fill-opacity:1;stroke:none" />
        </g>
      </g>
    </g>
  </g>
  <g
     inkscape:label="Symbols"
     inkscape:groupmode="layer"
     id="layer1"
     transform="translate(119.69407,-336.43404)" />
</svg>
