{
    "type": "DepotG3",
    "name": "Z01",
    "gps": [
        49.746733010871516,
        13.381510966784308
    ],
    "HP3": {},
    "visu": {"svgPath": "_files/site.svg",
    "svgPaths": [
       { "path": "_files/site2.svg", "name": "Default" },
       { "path": "_files/site.svg", "name": "Rotated" }
    ]}
}