{
  "chambers": [ 1, 1 ],
  "symbols": {
    "LENS01": {
      "chamber": 0,
      "column": 1
    },
    "LENS02": {
      "chamber": 0,
      "column": 2
    },
    "LENS03": {
      "chamber": 0,
      "column": 3
    },
    "LENS04": {
      "chamber": 0,
      "column": 4
    },
    "P40": {
      "chamber": 1,
      "column": 1
    }
  }
}

