{
    "type": "DepotG3",
    "name": "Zone A",
    "gps": [-37.77670139495785, 144.8751162991099],
    "HP3": {
        "syncPath": ".app/history"
    },
    "visu": {
        "svgPath": "_files/site.svg"
    }
}