<?xml version="1.0" encoding="UTF-8" standalone="no"?>
<svg
   width="900"
   height="785.51599"
   viewBox="0 0 238.125 207.83443"
   version="1.1"
   id="svg-container"
   inkscape:version="1.3.2 (091e20e, 2023-11-25, custom)"
   sodipodi:docname="site2.svg"
   xmlns:inkscape="http://www.inkscape.org/namespaces/inkscape"
   xmlns:sodipodi="http://sodipodi.sourceforge.net/DTD/sodipodi-0.dtd"
   xmlns="http://www.w3.org/2000/svg"
   xmlns:svg="http://www.w3.org/2000/svg"
   xmlns:rdf="http://www.w3.org/1999/02/22-rdf-syntax-ns#"
   xmlns:cc="http://creativecommons.org/ns#"
   xmlns:dc="http://purl.org/dc/elements/1.1/">
  <defs
     id="defs2" />
  <sodipodi:namedview
     id="base"
     pagecolor="#ffffff"
     bordercolor="#666666"
     borderopacity="1.0"
     inkscape:pageopacity="0.0"
     inkscape:pageshadow="2"
     inkscape:zoom="2.3579016"
     inkscape:cx="554.73053"
     inkscape:cy="424.31796"
     inkscape:document-units="mm"
     inkscape:current-layer="layer6"
     inkscape:document-rotation="0"
     showgrid="false"
     inkscape:window-width="1920"
     inkscape:window-height="1057"
     inkscape:window-x="0"
     inkscape:window-y="-8"
     inkscape:window-maximized="1"
     fit-margin-bottom="10"
     fit-margin-top="10"
     fit-margin-left="10"
     fit-margin-right="10"
     units="px"
     inkscape:pagecheckerboard="0"
     inkscape:showpageshadow="2"
     inkscape:deskcolor="#d1d1d1" />
  <metadata
     id="metadata5">
    <rdf:RDF>
      <cc:Work
         rdf:about="">
        <dc:format>image/svg+xml</dc:format>
        <dc:type
           rdf:resource="http://purl.org/dc/dcmitype/StillImage" />
      </cc:Work>
    </rdf:RDF>
  </metadata>
  <g
     inkscape:groupmode="layer"
     id="layer2"
     inkscape:label="track"
     style="display:inline"
     transform="translate(-50.782689,36.386043)">
    <path
       id="path913-3-0"
       d="M 82.251357,168.04826 162.55906,87.740866"
       inkscape:connector-curvature="0"
       style="display:inline;fill:none;stroke:#6e6e6e;stroke-width:2.567;stroke-linecap:round;stroke-miterlimit:4;stroke-dasharray:none"
       sodipodi:nodetypes="cc" />
    <path
       sodipodi:nodetypes="cc"
       style="display:inline;fill:none;stroke:#6e6e6e;stroke-width:2.567;stroke-linecap:round;stroke-miterlimit:4;stroke-dasharray:none"
       inkscape:connector-curvature="0"
       d="m 132.50933,87.740866 h 30.54572"
       id="path913-3-2-9" />
    <path
       sodipodi:nodetypes="cc"
       style="display:inline;fill:none;stroke:#6e6e6e;stroke-width:2.567;stroke-linecap:round;stroke-miterlimit:4;stroke-dasharray:none"
       inkscape:connector-curvature="0"
       d="M 90.508457,45.740005 132.50933,87.740866"
       id="path913-3-2-9-2" />
    <path
       sodipodi:nodetypes="cc"
       style="display:inline;fill:#000000;fill-opacity:1;stroke:#6e6e6e;stroke-width:2.567;stroke-linecap:round;stroke-miterlimit:4;stroke-dasharray:none"
       inkscape:connector-curvature="0"
       d="m 82.251697,37.276293 v -62.86126"
       id="path913-1-8" />
    <path
       id="path913-3-2-2-6-3"
       d="M 282.86172,66.959816 H 140.55063 L 82.251697,8.589143"
       inkscape:connector-curvature="0"
       style="display:inline;fill:none;stroke:#6e6e6e;stroke-width:2.567;stroke-linecap:round;stroke-miterlimit:4;stroke-dasharray:none"
       sodipodi:nodetypes="ccc" />
    <path
       id="path913-3-2-2-6-3-5"
       d="m 90.508457,45.740005 -8.25676,-8.463712"
       inkscape:connector-curvature="0"
       style="display:inline;fill:none;stroke:#6e6e6e;stroke-width:2.567;stroke-linecap:round;stroke-miterlimit:4;stroke-dasharray:none"
       sodipodi:nodetypes="cc" />
  </g>
  <g
     transform="matrix(0.26458333,0,0,0.26458333,-37.101458,-454.3335)"
     style="display:inline;stroke-width:14.2848"
     inkscape:label="Route"
     id="layer6"
     inkscape:groupmode="layer">
    <path
       sodipodi:nodetypes="cc"
       style="display:inline;fill:#000000;fill-opacity:1;stroke:#6e6e6e;stroke-width:9.70205;stroke-linecap:round;stroke-miterlimit:4;stroke-dasharray:none"
       inkscape:connector-curvature="0"
       d="M 564.56257,2186.3074 H 1017.3751"
       id="path913-8" />
    <path
       sodipodi:nodetypes="cccccc"
       inkscape:connector-curvature="0"
       d="m 970.6161,2170.3075 7.3883,-2.0839 v 4.0531 l -7.3897,-1.9692 m 7.3897,0 h 39.3696"
       style="display:inline;fill:#6e6e6e;fill-opacity:1;stroke:#6e6e6e;stroke-width:1.5;stroke-linecap:round;stroke-linejoin:round;stroke-miterlimit:4;stroke-dasharray:none;stroke-opacity:1;paint-order:normal"
       id="path1177-3-7"
       chid="direction" />
    <path
       sodipodi:nodetypes="cccccc"
       inkscape:connector-curvature="0"
       d="m 804.3757,2160.8298 7.44045,-1.8894 -2.02658,-3.5102 -5.41508,5.4003 m 6.39972,-3.6948 17.32755,-10.0041"
       style="display:inline;fill:#6e6e6e;fill-opacity:1;stroke:#6e6e6e;stroke-width:1.5;stroke-linecap:round;stroke-linejoin:round;stroke-miterlimit:4;stroke-dasharray:none;stroke-opacity:1;paint-order:normal"
       id="path1177-4-6-5-9"
       chid="direction" />
    <path
       chid="direction"
       id="path1177-5-0-8-1"
       style="display:inline;fill:#b50600;fill-opacity:1;stroke:#6e6e6e;stroke-width:1.5;stroke-linecap:round;stroke-linejoin:round;stroke-miterlimit:4;stroke-dasharray:none;stroke-opacity:1;paint-order:normal"
       d="m 851.18575,2146.9096 -23.08399,0.2219"
       inkscape:connector-curvature="0"
       sodipodi:nodetypes="cc" />
    <path
       sodipodi:nodetypes="cccccc"
       inkscape:connector-curvature="0"
       d="m 803.97719,2116.9167 7.44045,1.8894 -2.02658,3.5102 -5.41508,-5.4003 m 6.39972,3.6948 17.32755,10.0041"
       style="display:inline;fill:#6e6e6e;fill-opacity:1;stroke:#6e6e6e;stroke-width:1.5;stroke-linecap:round;stroke-linejoin:round;stroke-miterlimit:4;stroke-dasharray:none;stroke-opacity:1;paint-order:normal"
       id="path1177-4-6-5-9-5"
       chid="direction" />
    <path
       chid="direction"
       id="path1177-5-0-8-1-5"
       style="display:inline;fill:#b50600;fill-opacity:1;stroke:#6e6e6e;stroke-width:1.5;stroke-linecap:round;stroke-linejoin:round;stroke-miterlimit:4;stroke-dasharray:none;stroke-opacity:1;paint-order:normal"
       d="m 850.78724,2130.8369 -23.08399,-0.2219"
       inkscape:connector-curvature="0"
       sodipodi:nodetypes="cc" />
    <g
       transform="matrix(0,-1,-1,0,895.96663,2511.9112)"
       id="g1247-3"
       style="display:inline;stroke-width:14.2848">
      <g
         id="g1238-3">
        <path
           d="m 671.77132,617.23734 v 39.13043 h -26.66231 v -39.13043 z"
           id="path1165-4"
           inkscape:connector-curvature="0"
           style="fill:#121ea6;fill-opacity:0.44758;stroke:#000000;stroke-width:1.1394"
           chid="box" />
      </g>
      <text
         x="-589.66077"
         y="-682.06256"
         font-size="3.1059px"
         style="font-style:normal;font-variant:normal;font-weight:normal;font-stretch:normal;font-size:16px;line-height:1.25;font-family:sans-serif;-inkscape-font-specification:'sans-serif, Normal';font-variant-ligatures:normal;font-variant-caps:normal;font-variant-numeric:normal;font-variant-east-asian:normal;fill:#000000;stroke-width:1.1394"
         xml:space="preserve"
         id="text1191-7-3-6-7-4"
         transform="matrix(0,-1,-1,0,0,0)"><tspan
           style="font-style:normal;font-variant:normal;font-weight:normal;font-stretch:normal;font-size:16px;font-family:sans-serif;-inkscape-font-specification:'sans-serif, Normal';font-variant-ligatures:normal;font-variant-caps:normal;font-variant-numeric:normal;font-variant-east-asian:normal;stroke-width:1.1394"
           x="-589.66077"
           y="-682.06256"
           id="tspan1189-5-1-1-5-9"
           shvAlarmPosition="right">TSM1</tspan></text>
    </g>
    <g
       id="g1240"
       shvPath="devices/cabinet/PPC"
       transform="matrix(1,0,0,-1,116.70042,2443.5926)"
       shvDeviceType="Cabinet_G3"
       shvVisuType="Cabinet">
      <text
         x="480.88641"
         y="-33.705055"
         font-size="3.1059px"
         style="font-size:12.1535px;line-height:1.25;font-family:sans-serif;font-variant-ligatures:normal;font-variant-caps:normal;font-variant-numeric:normal;fill:#000000;stroke-width:1.1394"
         xml:space="preserve"
         id="text955"
         transform="scale(1,-1)"><tspan
           x="480.88641"
           y="-33.705055"
           font-size="3.1059px"
           style="font-size:16px;font-family:sans-serif;font-variant-ligatures:normal;font-variant-caps:normal;font-variant-numeric:normal;stroke-width:1.1394"
           id="tspan953"
           shvAlarmPosition="right">PPC</tspan></text>
      <g
         id="g1230"
         transform="rotate(180,496.95529,75.068728)">
        <path
           sodipodi:nodetypes="ccccc"
           style="opacity:1;vector-effect:none;fill:#c8beb7;fill-opacity:0.239216;stroke:#4d4d4d;stroke-width:0.909;stroke-linecap:round;stroke-linejoin:bevel;stroke-miterlimit:4;stroke-dasharray:none;stroke-dashoffset:0;stroke-opacity:1"
           inkscape:connector-curvature="0"
           id="path1486"
           d="m 523.37835,99.43313 -52.86828,-0.005 0.002,-22.28752 52.86828,0.005 z"
           chid="box" />
        <g
           style="fill:none;stroke:#ff2a2a;stroke-width:0.410168;stroke-miterlimit:4;stroke-dasharray:none"
           id="g1492"
           chid="doors"
           transform="matrix(3.5276366e-4,-3.4343434,3.4343434,3.5276366e-4,-229.67423,473.66487)">
          <path
             style="stroke:#ff2a2a;stroke-width:0.410168;stroke-miterlimit:4;stroke-dasharray:none"
             inkscape:connector-curvature="0"
             id="path1488"
             d="m 115.48,219.26 5.4427,5.4427 a 7.6971,7.6971 0 0 0 2.2544,-5.4427 7.6971,7.6971 0 0 0 -7.6972,-7.6972 v 7.6972" />
          <path
             style="stroke:#ff2a2a;stroke-width:0.410168;stroke-miterlimit:4;stroke-dasharray:none"
             inkscape:connector-curvature="0"
             id="path1490"
             d="m 115.48,203.87 5.4427,-5.4427 a 7.6971,7.6971 0 0 1 2.2544,5.4427 7.6971,7.6971 0 0 1 -7.6972,7.6972 V 203.87" />
        </g>
        <path
           id="path1215"
           style="fill:none;stroke:#4d4d4d;stroke-width:1px;stroke-linecap:butt;stroke-linejoin:miter;stroke-opacity:1"
           d="m 470.5261,77.138812 52.85225,22.294318 v 0 0 0 0 m 0.002,-22.288889 -52.87057,22.283889"
           inkscape:connector-curvature="0" />
      </g>
    </g>
    <g
       transform="matrix(-1,0,0,1,1697.9989,1918.9914)"
       shvVisuType="Gate"
       shvPath="devices/zone/2/gate/G1"
       id="g1575"
       shvDeviceType="Gate_G3">
      <text
         id="text955-36"
         xml:space="preserve"
         style="font-size:12.1535px;line-height:1.25;font-family:sans-serif;font-variant-ligatures:normal;font-variant-caps:normal;font-variant-numeric:normal;fill:#000000;stroke-width:1.1394"
         font-size="3.1059px"
         y="309.08957"
         x="-835.23712"
         transform="scale(-1,1)"><tspan
           shvAlarmPosition="right"
           id="tspan953-75"
           style="font-size:16px;font-family:sans-serif;font-variant-ligatures:normal;font-variant-caps:normal;font-variant-numeric:normal;stroke-width:1.1394"
           font-size="3.1059px"
           y="309.08957"
           x="-835.23712">G1</tspan></text>
      <path
         chid="gate"
         inkscape:connector-curvature="0"
         d="m 827.07646,288.32007 10.55368,-0.008 -0.0337,-42.22953 -10.5537,0.008"
         style="display:inline;fill:none;stroke:#cc0033;stroke-width:3.895;stroke-miterlimit:4;stroke-dasharray:none"
         id="path614" />
    </g>
    <g
       id="g2617"
       shvPath="devices/heating/HEATING/contactor/CONTACTOR/rod/TSH1_HRL"
       transform="matrix(-1,0,0,1,1472.0395,1049.1579)"
       shvDeviceType="HeatingRod_G3"
       shvVisuType="HeatingRod">
      <path
         style="fill:none;stroke:#000000;stroke-width:1.03531"
         inkscape:connector-curvature="0"
         d="m 843.31014,1109.548 v 3.913 h 58.69561 v -3.913 z"
         id="path1133"
         chid="rod" />
      <text
         id="text1191-7-3-6-9"
         xml:space="preserve"
         style="font-size:12.1535px;line-height:1.25;font-family:sans-serif;font-variant-ligatures:normal;font-variant-caps:normal;font-variant-numeric:normal;fill:#000000;stroke-width:1.1394"
         font-size="3.1059px"
         y="1082.5713"
         x="-892.64838"
         transform="scale(-1,1)"><tspan
           shvAlarmPosition="right"
           id="tspan1189-5-1-1-2"
           y="1082.5713"
           x="-892.64838"
           style="font-size:16px;stroke-width:1.1394">TSH1_HR_L</tspan></text>
    </g>
    <g
       id="g2617-4"
       shvPath="devices/heating/HEATING/contactor/CONTACTOR/rod/TSH1_HRR"
       transform="matrix(-1,0,0,1,1188.248,1115.2631)"
       shvDeviceType="HeatingRod_G3"
       shvVisuType="HeatingRod"
       style="display:inline;stroke-width:14.2848">
      <path
         style="fill:none;stroke:#000000;stroke-width:1.03531"
         inkscape:connector-curvature="0"
         d="m 559.51867,1094.5297 v 3.913 h 58.69562 v -3.913 z"
         id="path1133-0"
         chid="rod" />
      <text
         id="text1191-7-3-6-9-8"
         xml:space="preserve"
         style="font-size:12.1535px;line-height:1.25;font-family:sans-serif;font-variant-ligatures:normal;font-variant-caps:normal;font-variant-numeric:normal;fill:#000000;stroke-width:1.1394"
         font-size="3.1059px"
         y="1116.8353"
         x="-602.68506"
         transform="scale(-1,1)"><tspan
           shvAlarmPosition="right"
           id="tspan1189-5-1-1-2-0"
           y="1116.8353"
           x="-602.68506"
           style="font-size:16px;stroke-width:1.1394">TSH1_HR_R</tspan></text>
    </g>
    <g
       id="g2617-5"
       shvPath="devices/heating/HEATING/contactor/CONTACTOR/rod/TSM1_HRL"
       transform="matrix(0,1,1,0,-720.03518,1194.5454)"
       shvDeviceType="HeatingRod_G3"
       shvVisuType="HeatingRod"
       style="display:inline;stroke-width:14.2848">
      <path
         style="fill:none;stroke:#000000;stroke-width:1.03531"
         inkscape:connector-curvature="0"
         d="m 645.59444,949.72112 v 3.913 h 58.69562 v -3.913 z"
         id="path1133-02"
         chid="rod" />
      <text
         id="text1191-7-3-6-9-5"
         xml:space="preserve"
         style="font-size:12.1535px;line-height:1.25;font-family:sans-serif;font-variant-ligatures:normal;font-variant-caps:normal;font-variant-numeric:normal;fill:#000000;stroke-width:1.1394"
         font-size="3.1059px"
         y="720.9093"
         x="864.30804"
         transform="matrix(0,1,1,0,0,0)"><tspan
           shvAlarmPosition="right"
           id="tspan1189-5-1-1-2-6"
           y="720.9093"
           x="864.30804"
           style="font-size:16px;stroke-width:1.1394">TSM1_HR_L</tspan></text>
    </g>
    <g
       id="g2617-4-2"
       shvPath="devices/heating/HEATING/contactor/CONTACTOR/rod/TSM1_HRR"
       transform="matrix(0,1,1,0,-691.00378,1054.4623)"
       shvDeviceType="HeatingRod_G3"
       shvVisuType="HeatingRod"
       style="display:inline;stroke-width:14.2848">
      <path
         style="fill:none;stroke:#000000;stroke-width:1.03531"
         inkscape:connector-curvature="0"
         d="m 785.67747,973.73318 v 3.913 h 58.69562 v -3.913 z"
         id="path1133-0-3"
         chid="rod" />
      <text
         id="text1191-7-3-6-9-8-7"
         xml:space="preserve"
         style="font-size:12.1535px;line-height:1.25;font-family:sans-serif;font-variant-ligatures:normal;font-variant-caps:normal;font-variant-numeric:normal;fill:#000000;stroke-width:1.1394"
         font-size="3.1059px"
         y="789.61292"
         x="997.26245"
         transform="matrix(0,1,1,0,0,0)"><tspan
           shvAlarmPosition="right"
           id="tspan1189-5-1-1-2-0-5"
           y="789.61292"
           x="997.26245"
           style="font-size:16px;stroke-width:1.1394">TSM1_HR_R</tspan></text>
    </g>
    <g
       shvVisuType="zoneStatusText"
       shvPath="devices/zone/2"
       transform="matrix(3.7795276,0,0,3.7795276,75.42188,969.86607)"
       id="g4446-5"
       shvDeviceType="Zone_G3">
      <text
         id="text164"
         y="203.02621"
         x="64.806824"
         style="font-style:normal;font-variant:normal;font-weight:normal;font-stretch:normal;font-size:4.37095px;line-height:1.25;font-family:sans-serif;font-variant-ligatures:normal;font-variant-position:normal;font-variant-caps:normal;font-variant-numeric:normal;font-variant-alternates:normal;font-feature-settings:normal;text-indent:0;text-align:start;text-decoration:none;text-decoration-line:none;text-decoration-style:solid;text-decoration-color:#000000;letter-spacing:normal;word-spacing:normal;text-transform:none;writing-mode:lr-tb;direction:ltr;text-orientation:mixed;dominant-baseline:auto;baseline-shift:baseline;text-anchor:start;white-space:normal;shape-padding:0;opacity:1;vector-effect:none;fill:#4d4d4d;fill-opacity:1;stroke:none;stroke-width:0.301466;stroke-linecap:butt;stroke-linejoin:miter;stroke-miterlimit:4;stroke-dasharray:none;stroke-dashoffset:0;stroke-opacity:1"
         xml:space="preserve"><tspan
           style="stroke-width:0.301466"
           y="203.02621"
           x="64.806824"
           id="tspan162"
           sodipodi:role="line">Zone state:</tspan></text>
      <text
         id="text164-3"
         y="207.36276"
         x="64.614571"
         style="font-style:normal;font-variant:normal;font-weight:bold;font-stretch:normal;font-size:4.23333px;line-height:1.25;font-family:sans-serif;-inkscape-font-specification:'sans-serif Bold';letter-spacing:0px;word-spacing:0px;fill:#000000;fill-opacity:1;stroke:none;stroke-width:0.264583"
         xml:space="preserve"><tspan
           shvAlarmPosition="left"
           style="stroke-width:0.264583"
           chid="statusText"
           y="207.36276"
           x="64.614571"
           id="tspan162-6"
           sodipodi:role="line">Undefined</tspan></text>
    </g>
    <g
       id="g2169"
       shvPath="devices/zone/2/route/R2"
       transform="matrix(-1,0,0,1,1569.0849,469.04377)"
       shvDeviceType="Route_G3"
       shvVisuType="Route">
      <path
         chid="route"
         id="path855"
         d="m 720.82723,1717.1843 399.14357,0.079 162.9867,-163.6825"
         inkscape:connector-curvature="0"
         style="fill:none;stroke:#ffbb33;stroke-width:20;stroke-linecap:round"
         sodipodi:nodetypes="ccc" />
      <text
         x="-711.37244"
         y="1662.1173"
         font-size="3.1059px"
         style="font-size:12.1535px;line-height:1.25;font-family:sans-serif;font-variant-ligatures:normal;font-variant-caps:normal;font-variant-numeric:normal;fill:#000000;stroke-width:1.1394"
         xml:space="preserve"
         id="text1191-97"
         transform="scale(-1,1)"><tspan
           style="font-size:16px;stroke-width:1.1394"
           x="-711.37244"
           y="1662.1173"
           id="tspan1189-3"
           shvAlarmPosition="right">R2</tspan></text>
    </g>
    <g
       id="g2169-9"
       shvPath="devices/zone/2/route/R1"
       transform="matrix(-1,0,0,1,1886.4522,683.68977)"
       shvDeviceType="Route_G3"
       shvVisuType="Route"
       style="display:inline;stroke-width:14.2848">
      <path
         chid="route"
         id="path855-9"
         d="m 1038.1463,1502.6176 h 283.7433 l 283.3492,281.3469"
         inkscape:connector-curvature="0"
         style="fill:none;stroke:#ffbb33;stroke-width:20;stroke-linecap:round"
         sodipodi:nodetypes="ccc" />
      <text
         x="-1029.041"
         y="1468.6904"
         font-size="3.1059px"
         style="font-size:12.1535px;line-height:1.25;font-family:sans-serif;font-variant-ligatures:normal;font-variant-caps:normal;font-variant-numeric:normal;fill:#000000;stroke-width:1.1394"
         xml:space="preserve"
         id="text1191-97-5"
         transform="scale(-1,1)"><tspan
           style="font-size:16px;stroke-width:1.1394"
           x="-1029.041"
           y="1468.6904"
           id="tspan1189-3-6"
           shvAlarmPosition="right">R1</tspan></text>
    </g>
  </g>
  <g
     style="display:inline"
     inkscape:label="all"
     inkscape:groupmode="layer"
     id="layer1"
     transform="translate(-50.782689,36.386043)">
    <text
       xml:space="preserve"
       style="font-style:normal;font-variant:normal;font-weight:normal;font-stretch:normal;font-size:4.23333px;line-height:1.25;font-family:sans-serif;-inkscape-font-specification:'sans-serif, Normal';font-variant-ligatures:normal;font-variant-caps:normal;font-variant-numeric:normal;font-variant-east-asian:normal;letter-spacing:0px;word-spacing:0px;display:inline;fill:#000000;fill-opacity:1;stroke:none;stroke-width:0.264583"
       x="59.060734"
       y="-0.79805571"
       id="text1061-1-3"><tspan
         style="stroke-width:0.264583"
         sodipodi:role="line"
         id="tspan1059-3-4"
         x="59.060734"
         y="-0.79805571" /></text>
  </g>
  <g
     style="display:inline"
     inkscape:label="ppi"
     id="layer4"
     inkscape:groupmode="layer"
     transform="translate(-50.782689,36.386043)">
    <g
       transform="matrix(0,-0.26458333,0.26458333,0,-162.38988,379.4551)"
       shvPath="devices/ppi/PPI01"
       id="g1535-2-3"
       style="display:inline;stroke-width:3.77953"
       shvVisuTypeVariant="type_11"
       shvDeviceType="Signal_G3"
       shvVisuType="Signal">
      <text
         x="1241.897"
         y="-991.57935"
         font-size="3.1059px"
         style="font-style:normal;font-variant:normal;font-weight:normal;font-stretch:normal;font-size:16px;line-height:1.25;font-family:sans-serif;-inkscape-font-specification:'sans-serif, Normal';font-variant-ligatures:normal;font-variant-caps:normal;font-variant-numeric:normal;font-variant-east-asian:normal;fill:#000000;stroke-width:1.1394"
         xml:space="preserve"
         id="text1191-7-66-7-2-3-9"
         transform="rotate(90)"><tspan
           style="font-style:normal;font-variant:normal;font-weight:normal;font-stretch:normal;font-size:16px;font-family:sans-serif;-inkscape-font-specification:'sans-serif, Normal';font-variant-ligatures:normal;font-variant-caps:normal;font-variant-numeric:normal;font-variant-east-asian:normal;stroke-width:1.1394"
           x="1241.897"
           y="-991.57935"
           id="tspan1189-5-49-1-6-1-5"
           shvAlarmPosition="right">PPI01</tspan></text>
      <g
         id="g1520-3"
         transform="matrix(-1,0,0,1,2089.3162,16.7771)">
        <path
           style="fill:#cdcbcb;fill-opacity:1;stroke:#4d4d4d;stroke-width:2.4234;stroke-miterlimit:4;stroke-dasharray:none;stroke-opacity:1"
           d="m 1051.9685,1216.1633 v 28.6816 h 28.6816 v -28.6816 z m -0.066,31.8789 v 28.6816 h 28.6836 v -28.6816 z"
           id="rect1230-2-7"
           chid="chambers"
           inkscape:connector-curvature="0" />
        <path
           chid="symbol/BLOCKED"
           sodipodi:nodetypes="ccccc"
           id="path1284-2"
           d="m 1054.843,1250.9114 h 23.0006 v 23.0372 h -22.9863 z"
           style="fill:none;fill-opacity:0;stroke:#ff9600;stroke-width:1.327;stroke-linecap:butt;stroke-linejoin:miter;stroke-miterlimit:4.3;stroke-dasharray:none;stroke-dashoffset:0;stroke-opacity:1"
           inkscape:connector-curvature="0" />
        <g
           transform="matrix(0.62540529,0,0,0.58376934,650.84879,1018.4695)"
           chid="symbol/BUSY"
           id="g1237-2">
          <path
             inkscape:connector-curvature="0"
             style="fill:#ff9900;fill-opacity:1;stroke:#000000;stroke-width:0.956782;stroke-linecap:butt;stroke-linejoin:miter;stroke-miterlimit:4;stroke-dasharray:0, 10.5246;stroke-dashoffset:0;stroke-opacity:1"
             d="m 679.3284,344.70547 -32.48374,34.80058 2.45823,2.63356 32.74712,-35.08275 z"
             id="path1403-2" />
          <path
             inkscape:transform-center-y="-0.280633"
             inkscape:connector-curvature="0"
             style="fill:#ff9900;fill-opacity:1;stroke:#000000;stroke-width:0.956782;stroke-linecap:butt;stroke-linejoin:miter;stroke-miterlimit:4;stroke-dasharray:0, 10.5246;stroke-dashoffset:0;stroke-opacity:1"
             d="m 679.35503,382.25273 -32.48374,-34.80058 2.45823,-2.63356 32.74712,35.08275 z"
             id="path1403-1-6" />
        </g>
        <path
           style="display:inline;fill:#ff9900;fill-opacity:1;stroke:#ffa82c;stroke-width:0.999996;stroke-linecap:butt;stroke-linejoin:miter;stroke-miterlimit:4;stroke-dasharray:0, 11;stroke-dashoffset:0;stroke-opacity:1"
           d="m 1056.3688,1262.1946 2.2201,-0.065 7.6599,-7.485 7.4848,7.6598 2.2203,-0.065 -9.7702,-9.8148 z"
           id="path1355-7-0-5"
           inkscape:transform-center-x="-0.33547093"
           inkscape:transform-center-y="0.40262263"
           sodipodi:nodetypes="ccccccc"
           chid="symbol/DIR_R"
           inkscape:connector-curvature="0" />
        <path
           chid="symbol/DIR_L"
           sodipodi:nodetypes="ccccccc"
           inkscape:transform-center-y="-0.16316428"
           inkscape:transform-center-x="0.78316335"
           id="path1355-5-4-5-1"
           d="m 1066.3577,1272.0095 0.066,-2.2202 c 7.4849,-7.6598 0,0 7.4849,-7.6598 l -7.6598,-7.4849 0.065,-2.2202 9.8149,9.7703 c -9.7704,9.8148 -10e-5,0 -9.7704,9.8148 z"
           style="display:inline;fill:#ff9900;fill-opacity:1;stroke:#ff9600;stroke-width:0.999996;stroke-linecap:butt;stroke-linejoin:miter;stroke-miterlimit:4;stroke-dasharray:0, 11;stroke-dashoffset:0;stroke-opacity:1"
           inkscape:connector-curvature="0" />
      </g>
    </g>
  </g>
  <g
     transform="matrix(0.26458333,0,0,0.26458333,-37.101458,-454.3335)"
     style="display:inline;stroke-width:3.77953"
     inkscape:label="Vecom"
     id="layer5"
     inkscape:groupmode="layer">
    <g
       shvVisuType="VecomData"
       transform="translate(-295.07498,145.52822)"
       shvPath="devices/vecom/VCU/loop/VECOM"
       id="g619"
       shvDeviceType="VecomLoop_G3"
       shvVisuTypeVariant="TramId-LineNumber-RemoteCmd"
       style="display:inline;stroke-width:14.2848">
      <text
         x="1101.1709"
         y="2116.1997"
         font-size="3.1059px"
         style="font-size:12.1535px;line-height:1.25;font-family:sans-serif;font-variant-ligatures:normal;font-variant-caps:normal;font-variant-numeric:normal;fill:#000000;stroke-width:1.1394"
         xml:space="preserve"
         id="text1062-8-9"><tspan
           style="font-size:16px;stroke-width:1.1394"
           x="1101.1709"
           y="2116.1997"
           id="tspan1060-7-3"
           shvAlarmPosition="right">VECOM</tspan></text>
      <g
         id="g595">
        <rect
           ry="0.16663547"
           y="2154.1025"
           x="1100.4596"
           height="16.231249"
           width="92.858376"
           id="rect1056-6-7-0"
           style="fill:#c8beb7;fill-opacity:0.239216;stroke:#4d4d4d;stroke-width:0.909;stroke-linecap:round;stroke-linejoin:bevel;stroke-miterlimit:4;stroke-dasharray:none;stroke-dashoffset:0;stroke-opacity:1"
           rx="0.16663547" />
        <rect
           ry="0.16663547"
           y="2137.8713"
           x="1100.4596"
           height="16.231249"
           width="92.858376"
           id="rect1056-6-7"
           style="fill:#c8beb7;fill-opacity:0.239216;stroke:#4d4d4d;stroke-width:0.909;stroke-linecap:round;stroke-linejoin:bevel;stroke-miterlimit:4;stroke-dasharray:none;stroke-dashoffset:0;stroke-opacity:1"
           rx="0.16663547" />
        <rect
           style="fill:#c8beb7;fill-opacity:0.239216;stroke:#4d4d4d;stroke-width:0.909;stroke-linecap:round;stroke-linejoin:bevel;stroke-miterlimit:4;stroke-dasharray:none;stroke-dashoffset:0;stroke-opacity:1"
           id="rect1058-1-0"
           width="92.858345"
           height="16.231249"
           x="1100.4596"
           y="2121.6401"
           ry="0.16663547"
           rx="0.16663547" />
        <rect
           style="fill:none;fill-opacity:0.239216;stroke:#4d4d4d;stroke-width:0.909;stroke-linecap:round;stroke-linejoin:bevel;stroke-miterlimit:4;stroke-dasharray:none;stroke-dashoffset:0;stroke-opacity:1"
           id="rect1044-3-6-6"
           width="212.00063"
           height="16.231249"
           x="1100.4545"
           y="2154.1025"
           ry="0.16663547"
           rx="0.16663547" />
        <rect
           ry="0.16663547"
           y="2121.6401"
           x="1100.463"
           height="16.231249"
           width="211.992"
           id="rect1024-1-6"
           style="fill:none;fill-opacity:0.239216;stroke:#4d4d4d;stroke-width:0.909;stroke-linecap:round;stroke-linejoin:bevel;stroke-miterlimit:4;stroke-dasharray:none;stroke-dashoffset:0;stroke-opacity:1"
           rx="0.16663547" />
        <text
           id="text1099-2-7"
           xml:space="preserve"
           style="font-size:45.5752px;line-height:1.25;font-family:sans-serif;fill:#000000;stroke-width:1.1394"
           font-size="11.647px"
           y="2134.2092"
           x="1103.7786"><tspan
             id="tspan1097-7-5"
             style="font-size:9.11504px;font-family:sans-serif;font-variant-ligatures:normal;font-variant-caps:normal;font-variant-numeric:normal;stroke-width:1.5705"
             font-size="2.3294px"
             y="2134.2092"
             x="1103.7786">Tram ID</tspan></text>
        <text
           id="text1107-0-3"
           xml:space="preserve"
           style="font-size:12.5217px;line-height:1.25;font-family:sans-serif;text-align:end;text-anchor:end;fill:#0055d4;stroke-width:1.5705"
           font-size="3.2px"
           y="2134.1602"
           x="1402.533"><tspan
             chid="tramId"
             id="tspan1105-9-5"
             style="font-size:12.564px;font-family:sans-serif;font-variant-ligatures:normal;font-variant-caps:normal;font-variant-numeric:normal;text-align:end;text-anchor:end;fill:#0055d4;stroke-width:1.5705"
             font-size="3.2108px"
             y="2134.1602"
             x="1311.3335">tram-id</tspan></text>
        <rect
           style="fill:none;fill-opacity:0.239216;stroke:#4d4d4d;stroke-width:0.909;stroke-linecap:round;stroke-linejoin:bevel;stroke-miterlimit:4;stroke-dasharray:none;stroke-dashoffset:0;stroke-opacity:1"
           id="rect1044-3-6"
           width="212.00063"
           height="16.231249"
           x="1100.4545"
           y="2137.8713"
           ry="0.16663547"
           rx="0.16663547" />
        <text
           x="1103.7786"
           y="2150.5449"
           font-size="11.647px"
           style="font-size:45.5752px;line-height:1.25;font-family:sans-serif;fill:#000000;stroke-width:1.1394"
           xml:space="preserve"
           id="text1048-6-2"><tspan
             x="1103.7786"
             y="2150.5449"
             font-size="2.3294px"
             style="font-size:9.11504px;font-family:sans-serif;font-variant-ligatures:normal;font-variant-caps:normal;font-variant-numeric:normal;stroke-width:1.5705"
             id="tspan1046-0-9">Line number</tspan></text>
        <text
           x="1339.2985"
           y="2150.4961"
           font-size="3.2px"
           style="font-size:12.5217px;line-height:1.25;font-family:sans-serif;text-align:end;text-anchor:end;fill:#0055d4;stroke-width:1.5705"
           xml:space="preserve"
           id="text1052-6-1"><tspan
             x="1311.0601"
             y="2150.4961"
             font-size="3.2108px"
             style="font-size:12.564px;font-family:sans-serif;font-variant-ligatures:normal;font-variant-caps:normal;font-variant-numeric:normal;text-align:end;text-anchor:end;fill:#0055d4;stroke-width:1.5705"
             id="tspan1050-2-2"
             chid="lineNumber">num</tspan></text>
        <rect
           y="2121.6401"
           x="1100.4545"
           height="48.693787"
           width="212.0006"
           id="rect249-3-9-6"
           style="opacity:1;fill:none;fill-opacity:1;stroke:#000000;stroke-width:0.66059;stroke-miterlimit:4;stroke-dasharray:none;stroke-dashoffset:0;stroke-opacity:1"
           chid="boundingBox" />
        <text
           x="1103.7784"
           y="2166.6396"
           font-size="11.647px"
           style="font-size:45.5752px;line-height:1.25;font-family:sans-serif;fill:#000000;stroke-width:1.1394"
           xml:space="preserve"
           id="text1048-6-2-2"><tspan
             x="1103.7784"
             y="2166.6396"
             font-size="2.3294px"
             style="font-size:9.11504px;font-family:sans-serif;font-variant-ligatures:normal;font-variant-caps:normal;font-variant-numeric:normal;stroke-width:1.5705"
             id="tspan1046-0-9-6">Remote cmd</tspan></text>
        <text
           x="1339.2981"
           y="2166.5911"
           font-size="3.2px"
           style="font-size:12.5217px;line-height:1.25;font-family:sans-serif;text-align:end;text-anchor:end;fill:#0055d4;stroke-width:1.5705"
           xml:space="preserve"
           id="text1052-6-1-1"><tspan
             x="1311.0597"
             y="2166.5911"
             font-size="3.2108px"
             style="font-size:12.564px;font-family:sans-serif;font-variant-ligatures:normal;font-variant-caps:normal;font-variant-numeric:normal;text-align:end;text-anchor:end;fill:#0055d4;stroke-width:1.5705"
             id="tspan1050-2-2-8"
             chid="remoteCmd">cmd</tspan></text>
      </g>
    </g>
    <g
       shvVisuType="VecomTransceiver"
       shvPath="devices/vecom/VCU/loop/VECOM"
       id="g1539"
       transform="matrix(1,0,0,-1,-568.16275,5544.1832)"
       shvDeviceType="VecomLoop_G3"
       style="display:inline;stroke-width:14.2848">
      <text
         x="1488.2822"
         y="-3378.4175"
         font-size="3.1059px"
         style="font-size:12.1535px;line-height:1.25;font-family:sans-serif;font-variant-ligatures:normal;font-variant-caps:normal;font-variant-numeric:normal;fill:#000000;stroke-width:1.1394"
         xml:space="preserve"
         id="text1191-9"
         transform="scale(1,-1)"><tspan
           style="font-size:16px;stroke-width:1.1394"
           x="1488.2822"
           y="-3378.4175"
           id="tspan1189-2"
           shvAlarmPosition="right">VECOM</tspan></text>
      <g
         id="g1532">
        <path
           style="fill:#00d900;fill-opacity:0.5;stroke:#000000;stroke-width:1.637;stroke-linecap:butt;stroke-linejoin:miter;stroke-miterlimit:4;stroke-dasharray:none;stroke-opacity:1"
           d="m 1509.4553,3332.7092 -10.1074,0.018 v 10.8867 h 10.2734 l 0.2735,-0.1309 6.2832,-5.2051 z m 6.7227,5.5683 6.2832,5.2051 0.2734,0.1309 h 10.2715 v -10.8867 l -10.1054,-0.018 z"
           id="path345"
           chid="transceiver"
           inkscape:connector-curvature="0" />
        <path
           chid="radioBeams"
           d="m 1536.4248,3313.9738 a 31.5,31.5 0 0 0 -40.4956,0 m 35.6747,5.7453 a 24,24 0 0 0 -30.8538,0 m 26.0329,5.7454 a 16.5,16.5 0 0 0 -21.212,0 m 30.8538,36.8839 a 31.5,31.5 0 0 1 -40.4956,0 m 35.6747,-5.7454 a 24,24 0 0 1 -30.8538,0 m 26.0329,-5.7453 a 16.5,16.5 0 0 1 -21.212,0"
           style="opacity:0.99;fill:none;fill-opacity:1;fill-rule:nonzero;stroke:#34a800;stroke-width:2.3;stroke-linecap:round;stroke-linejoin:round;stroke-miterlimit:4;stroke-dasharray:none;stroke-dashoffset:0;stroke-opacity:1;paint-order:stroke fill markers"
           id="path994-5-5-6-9-3"
           inkscape:connector-curvature="0" />
      </g>
    </g>
  </g>
  <g
     inkscape:groupmode="layer"
     id="layer3"
     inkscape:label="PME"
     style="display:inline"
     transform="translate(-50.782689,36.386043)">
    <g
       transform="matrix(0,0.26458333,0.26458333,0,-179.71748,-61.554737)"
       shvPath="devices/pme/TSH1"
       id="g1552"
       shvDeviceType="PME_G3"
       shvVisuTypeVariant="LeverInSocketSquare"
       shvVisuType="PME"
       style="display:inline;stroke-width:14.2848">
      <text
         x="1310.3472"
         y="529.56158"
         font-size="3.1059px"
         style="font-size:12.1535px;line-height:1.25;font-family:sans-serif;font-variant-ligatures:normal;font-variant-caps:normal;font-variant-numeric:normal;fill:#000000;stroke-width:1.1394"
         xml:space="preserve"
         id="text1191-7-3-6"
         transform="matrix(0,1,1,0,0,0)"><tspan
           style="font-size:16px;stroke-width:1.1394"
           x="1310.3472"
           y="529.56158"
           id="tspan1189-5-1-1"
           shvAlarmPosition="right">TSH1</tspan></text>
      <g
         id="g732">
        <path
           d="m 544.6221,1320.5547 h 39.13044 v 39.1304 h -39.13043 z"
           id="path1017-4"
           inkscape:connector-curvature="0"
           style="fill:#28a638;fill-opacity:0.44758;stroke:#000000;stroke-width:1.03531"
           chid="box" />
        <path
           d="m 565.26838,1294.1323 0.063,-78.8489"
           id="path1019-5"
           inkscape:connector-curvature="0"
           style="fill:none;stroke:#ff33ff;stroke-width:13.6957;stroke-linecap:round"
           chid="posRight" />
        <path
           d="m 565.26838,1294.1323 52.66546,-52.6654"
           id="path1021-0"
           inkscape:connector-curvature="0"
           style="fill:none;stroke:#ff33ff;stroke-width:13.6957;stroke-linecap:round"
           chid="posLeft" />
        <rect
           transform="rotate(-90)"
           chid="leverInSocket"
           style="display:inline;fill:#293cfa;fill-opacity:1;stroke:none;stroke-width:2.34266;stroke-linecap:square;stroke-miterlimit:4;stroke-dasharray:none;stroke-opacity:1"
           id="rect15117-8-3"
           width="20.234634"
           height="20.44541"
           x="-1350.2372"
           y="553.9646" />
        <g
           chid="motorMoving"
           id="g1531"
           transform="translate(-35.68884,21.583777)">
          <circle
             r="15.1"
             style="opacity:1;fill:#ff6600;fill-opacity:1;fill-rule:nonzero;stroke:#000000;stroke-width:1.8;stroke-linecap:round;stroke-linejoin:round;stroke-miterlimit:4;stroke-dasharray:none;stroke-dashoffset:0;stroke-opacity:1;paint-order:stroke fill markers"
             id="path1511"
             cx="599.87616"
             cy="1318.5361" />
          <path
             inkscape:connector-curvature="0"
             id="path693"
             style="fill:#000000;fill-opacity:1;stroke:#000000;stroke-width:0.5;stroke-miterlimit:4;stroke-dasharray:none;stroke-opacity:1"
             d="m 592.10013,1325.6506 v -3.1354 l 10.5834,-3.9687 -10.5834,-3.9896 v -3.1354 h 15.5521 v 2.0521 h -13.6562 l 10.6667,4.0104 v 2.1146 l -10.6667,4.0104 h 13.6562 v 2.0416 z" />
        </g>
      </g>
    </g>
  </g>
  <g
     inkscape:groupmode="layer"
     id="layer7"
     inkscape:label="TC"
     transform="translate(-6.2454996,-19.850482)">
    <g
       transform="matrix(-0.26458333,0,0,0.26458333,295.85734,34.315713)"
       id="g1006-5"
       shvPath="devices/tc/TC01"
       shvDeviceType="TC_G3"
       shvVisuType="TC"
       style="display:inline;stroke-width:14.2848">
      <text
         x="-503.13342"
         y="451.58936"
         font-size="3.1059px"
         style="font-size:12.1535px;line-height:1.25;font-family:sans-serif;font-variant-ligatures:normal;font-variant-caps:normal;font-variant-numeric:normal;fill:#000000;stroke-width:1.1394"
         xml:space="preserve"
         id="text955-3"
         transform="scale(-1,1)"><tspan
           shvAlarmPosition="right"
           x="-503.13342"
           y="451.58936"
           font-size="3.1059px"
           style="font-size:16px;font-family:sans-serif;font-variant-ligatures:normal;font-variant-caps:normal;font-variant-numeric:normal;stroke-width:1.1394"
           id="tspan953-6-9">TC01</tspan></text>
      <path
         chid="tc"
         style="fill:#ffcc00;fill-opacity:0.241265;stroke:#bf9c0b;stroke-width:3;stroke-linejoin:bevel;stroke-miterlimit:4;stroke-dasharray:none;stroke-opacity:1"
         inkscape:connector-curvature="0"
         id="path887-5"
         d="M 602.09256,433.955 V 394.82456 H 381.69769 V 433.955 Z"
         sodipodi:nodetypes="ccccc" />
    </g>
    <g
       transform="matrix(-0.26458333,0,0,0.26458333,314.039,85.145823)"
       id="g1006-5-6"
       shvPath="devices/tc/TC02"
       shvDeviceType="TC_G3"
       shvVisuType="TC"
       style="display:inline;stroke-width:14.2848">
      <text
         x="-838.73602"
         y="253.43323"
         font-size="3.1059px"
         style="font-size:12.1535px;line-height:1.25;font-family:sans-serif;font-variant-ligatures:normal;font-variant-caps:normal;font-variant-numeric:normal;fill:#000000;stroke-width:1.1394"
         xml:space="preserve"
         id="text955-3-5"
         transform="scale(-1,1)"><tspan
           shvAlarmPosition="right"
           x="-838.73602"
           y="253.43323"
           font-size="3.1059px"
           style="font-size:16px;font-family:sans-serif;font-variant-ligatures:normal;font-variant-caps:normal;font-variant-numeric:normal;stroke-width:1.1394"
           id="tspan953-6-9-8">TC02</tspan></text>
      <path
         chid="tc"
         style="fill:#ffcc00;fill-opacity:0.241265;stroke:#bf9c0b;stroke-width:3;stroke-linejoin:bevel;stroke-miterlimit:4;stroke-dasharray:none;stroke-opacity:1"
         inkscape:connector-curvature="0"
         id="path887-5-0"
         d="m 784.94112,241.8412 -38,-39.13043 h -29 v 39.13043 z"
         sodipodi:nodetypes="ccccc" />
    </g>
  </g>
</svg>
