ID;en;sk
BS:BS1 cleaning switch activated;BS:BS1 cleaning switch activated;BS:BS1 prepínač čistenia aktivovaný
BS:BS1 error of cleaning switch;BS:BS1 error of cleaning switch;BS:BS1 - chyba prepínača čistenia
Direction left;Direction left;Smer vľavo
Direction right;Direction right;Smer vpravo
Direction straight;Direction straight;Smer rovno
General purpose input;General purpose input;
Input to PLC, project-specific.;Input to PLC, project-specific.;
YES = button active, NO = button inactive;YES = button active, NO = button inactive;ÁNO = tlačidlo aktívne, NIE = tlačidlo neaktívne
YES = cleaning active and point machine BS1 blocked, NO = cleaning not active;YES = cleaning active and point machine BS1 blocked, NO = cleaning not active;ÁNO = čistenie aktivované a prestavník BS1 blokovaný, NIE = čistenie neaktívne
YES = complementarity or IO error, NO = no error;YES = complementarity or IO error, NO = no error;ÁNO = chyba komplementarity alebo chyba vstupu, NIE = bez chyby
