{
	"type": "DepotG2",
	"name": "Terminal station Keilaniemi - Zone A",
	"gps": [60.178067, 24.831088],
	"HP": {},
	"visu": {
		"svgPath": "_files/site.svg",
		"svgPaths": [
			{ "path": "_files/site2.svg", "name": "Default" },
			{ "path": "_files/site.svg", "name": "Rotated" }
		]
	}
}
