<?xml version="1.0" encoding="UTF-8" standalone="no"?>
<!-- Created with Inkscape (http://www.inkscape.org/) -->

<svg
   width="41.407246mm"
   height="41.407246mm"
   viewBox="0 0 41.407246 41.407246"
   version="1.1"
   id="svg5"
   sodipodi:docname="light_orange_off.svg"
   inkscape:version="1.2.1 (9c6d41e410, 2022-07-14)"
   xmlns:inkscape="http://www.inkscape.org/namespaces/inkscape"
   xmlns:sodipodi="http://sodipodi.sourceforge.net/DTD/sodipodi-0.dtd"
   xmlns="http://www.w3.org/2000/svg"
   xmlns:svg="http://www.w3.org/2000/svg">
  <sodipodi:namedview
     id="namedview7182"
     pagecolor="#ffffff"
     bordercolor="#666666"
     borderopacity="1.0"
     inkscape:showpageshadow="2"
     inkscape:pageopacity="0.0"
     inkscape:pagecheckerboard="0"
     inkscape:deskcolor="#d1d1d1"
     inkscape:document-units="mm"
     showgrid="false"
     inkscape:zoom="6.5623076"
     inkscape:cx="47.772829"
     inkscape:cy="78.707069"
     inkscape:window-width="2560"
     inkscape:window-height="1380"
     inkscape:window-x="0"
     inkscape:window-y="36"
     inkscape:window-maximized="1"
     inkscape:current-layer="svg5" />
  <defs
     id="defs2">
    <linearGradient
       id="linearGradient10368">
      <stop
         style="stop-color:#4fa6f4;stop-opacity:1;"
         offset="0"
         id="stop10366" />
    </linearGradient>
    <linearGradient
       id="linearGradient8374">
      <stop
         style="stop-color:#ababab;stop-opacity:1;"
         offset="0"
         id="stop8370" />
      <stop
         style="stop-color:#00abe7;stop-opacity:0;"
         offset="1"
         id="stop8372" />
    </linearGradient>
  </defs>
  <g
     id="layer1"
     transform="translate(-76.784032,-97.079625)"
     style="fill:#2d0a00;fill-opacity:1">
    <circle
       style="fill:#2d0a00;stroke:#c7c7c7;stroke-width:1.058;stroke-linecap:square;stroke-dasharray:none;stroke-opacity:1;paint-order:markers fill stroke;fill-opacity:1"
       id="path792"
       cx="97.487656"
       cy="117.78325"
       r="20.174623" />
  </g>
</svg>
