{
    "HP3": {
        "syncPath": ".app/shvjournal"
    },
    "gps": [
        53.73666766771806, 20.50216179029053
    ],
    "name": "Krańcówka Kanta A1",
    "type": "GateTSC",
    "visu": {
        "svgPath": "_files/site.svg"
    }
}
