{
	"type": "DepotG3",
	"name": "SA-025-Baiamonti - Zone 1 - Type 6",
	"gps": [45.48202201495657, 9.181525624301926],
    "HP3": {
        "syncPath": ".app/shvjournal"
    },
	"visu": {"svgPath": "_files/site.svg"}
}
