ID;en;cs
Activate TBZ in zone Z1;Activate TBZ in zone Z1;Aktivovat TBZ v zóně Z1
Cleaning of switches in the depot activated;Cleaning of switches in the depot activated;Čištění výhybek ve vozovně aktivováno
Cleaning of switches on the line activated;Cleaning of switches on the line activated;Čištění výhybek na trati aktivováno
Command to activate TBZ;Command to activate TBZ;Příkaz k aktivaci TBZ
Command to deactivate TBZ;Command to deactivate TBZ;Příkaz k deaktivaci TBZ
Command to open depot entrance barrier;Command to open depot entrance barrier;Příkaz k otevření vjezdové závory
Deactivate TBZ in zone Z1;Deactivate TBZ in zone Z1;Deaktivovat TBZ v zóně Z1
Error of switch for cleaning on the line;Error of switch for cleaning on the line;Chyba přepínače čištění výhybek na trati
General purpose input;General purpose input;Univerzální vstup
General purpose output;General purpose output;Univerzální výstup
Input to PLC, project-specific.;Input to PLC, project-specific.;PLC vstup, účel dle specifikace
Open depot barrier;Open depot barrier;Otevřít závoru
Output from PLC, project-specific.;Output from PLC, project-specific.;PLC výstup, účel dle specifikace
PS1 - tram from Světovar logged for entrance to the depot;PS1 - tram from Světovar logged for entrance to the depot;PS1 - tram od Světovaru přihlášena pro vjezd do vozovny
PS10 - occupation of track circuit 1TC02 (pulse);PS10 - occupation of track circuit 1TC02 (pulse);PS10 - obsazení kolejového obvodu 1TC02 (puls)
PS11 - prepared exit route through emergency exit;PS11 - prepared exit route through emergency exit;PS11 - připravena výjezdová trasa přes mimořádný výjezd
PS12 - occupation of track circuit 1TC19 (pulse);PS12 - occupation of track circuit 1TC19 (pulse);PS12 - obsazení kolejového obvodu 1TC19 (puls)
PS13 - non-standard operations in progress;PS13 - non-standard operations in progress;PS13 - probíhá nestandadní operace
PS14 - zone Z1 in NORM state;PS14 - zone Z1 in NORM state;PS14 - zóna Z1 ve stavu NORM
PS2 - tram from Světovar logged for direct travel;PS2 - tram from Světovar logged for direct travel;PS2 - tram od Světovaru přihlášena pro jízdu přímo
PS3 - prepared route from Světovar to the depot;PS3 - prepared route from Světovar to the depot;PS3 - připravena trasa od Světovaru do vozovny
PS4 - prepared route for direct passage from Světovar;PS4 - prepared route for direct passage from Světovar;PS4 - připravena trasa pro průjezd od Světovaru přímo
PS5 - occupation of track circuit 1TC09 (pulse);PS5 - occupation of track circuit 1TC09 (pulse);PS5 - obsazení kolejového obvodu 1TC09 (puls)
PS6 - tram from Slovany logged for entrance to the depot;PS6 - tram from Slovany logged for entrance to the depot;PS6 - tram od Slovan přihlášena pro vjezd do vozovny
PS7 - tram from Slovany logged for direct travel;PS7 - tram from Slovany logged for direct travel;PS7 - tram od Slovan přihlášena pro jízdu přímo
PS8 - prepared route from Slovany to the depot;PS8 - prepared route from Slovany to the depot;PS8 - připravena trasa od Slovan do vozovny
PS9 - prepared route for direct passage from Slovany;PS9 - prepared route for direct passage from Slovany;PS9 - připravena trasa pro průjezd od Slovan přímo
TBZ in zone Z1 active;TBZ in zone Z1 active;Režim TBZ v zóně Z1 aktivní
The depot entrance barrier is closed;The depot entrance barrier is closed;Vjezdová závora do vozovny je zavřena
The depot entrance barrier is open;The depot entrance barrier is open;Vjezdová závora do vozovny je otevřena
Tram detected in the depot entrance barrier area;Tram detected in the depot entrance barrier area;Detekována tramvaj v oblasti vjezdové závory
YES = active, NO = inactive;YES = active, NO = inactive;ANO = režim aktivní, NE = režim neaktivní
YES = barrier not opened, NO = barrier opened;YES = barrier not opened, NO = barrier opened;ANO = závora zavřena, NE = závora není zavřena
YES = barrier opened, NO = barrier not opened;YES = barrier opened, NO = barrier not opened;ANO = závora otevřena, NE = závora není otevřena
YES = cleaning switch active and power to point machines in the zone in the depot disconnected, NO = cleaning not active;YES = cleaning switch active and power to point machines in the zone in the depot disconnected, NO = cleaning not active;ANO = přepínač čištění aktivován a napájení přestavníků v zóně ve vozovně odpojeno, NE = čištění neaktivní
YES = cleaning switch active and power to point machines on the line disconnected, NO = cleaning not active;YES = cleaning switch active and power to point machines on the line disconnected, NO = cleaning not active;ANO = přepínač čištění aktivován a napájení přestavníků v zóně na trati odpojeno, NE = čištění neaktivní
YES = complementarity or input error, NO = no error;YES = complementarity or input error, NO = no error;ANO = chyba komplementarity nebo chyba vstupu, NE = bez chyby
YES = output active, NO = output not active;YES = output active, NO = output not active;ANO = výstup aktivní, NE = výstup neaktivní
