{
    "name": "Harbour Esplanade & La Trobe - North",
    "type": "GateTSC",
    "HP3": {
        "syncPath": ".app/shvjournal"
    },
    "gps": [
        -37,81477000,
        144,94510000
    ],
    "visu": {
        "svgPath": "../../_files/stc_left_gate.svg"
    }
}
