{
	"type": "DepotG2",
	"name": "Oulunkylä - Zone L",
	"gps": [60.229903, 24.970367],
	"HP": {},
	"visu": {
		"svgPath": "_files/site.svg",
		"svgPaths": [
			{ "path": "_files/site2.svg", "name": "Default" },
			{ "path": "_files/site.svg", "name": "Rotated" }
		]
	}
}