ID;en;cs
Alternative requesting - PME blocked;Alternative requesting - PME blocked;Alternativní velení - přestavník blokován
Alternative requesting - command Block;Alternative requesting - command Block;Alternativní velení - povel Zablokuj
Alternative requesting - command Left;Alternative requesting - command Left;Alternativní velení - povel Vlevo
Alternative requesting - command Right;Alternative requesting - command Right;Alternativní velení - povel Vpravo
Alternative requesting - command Straight;Alternative requesting - command Straight;Alternativní velení - povel Rovně
BS switch active;BS switch active;Přepínač BS aktivní
Error of BS switch;Error of BS switch;Chyba přepínače BS
General purpose input;General purpose input;
General purpose output;General purpose output;
Input to PLC, project-specific.;Input to PLC, project-specific.;
Output from PLC, project-specific.;Output from PLC, project-specific.;
TLS - PME blocked;TLS - PME blocked;SSZ - přestavník elektricky blokován
TLS - PME direction to the left;TLS - PME direction to the left;SSZ - směr výměny vlevo
TLS - PME direction to the right;TLS - PME direction to the right;SSZ - směr výměny vpravo
TLS - state TC01 occupied;TLS - state TC01 occupied;SSZ - stav TC01 obsazen
TLS - state TC02 occupied;TLS - state TC02 occupied;SSZ - stav TC02 obsazen
TLS - system in NORM;TLS - system in NORM;SSZ - systém ve stavu NORM
YES = BS active, NO = BS not active;YES = BS active, NO = BS not active;ANO = BS aktivováno, NE = BS neaktivní
YES = PME blocked, NO = PME not blocked;YES = PME blocked, NO = PME not blocked;ANO = přestavník blokován, NE = přestavník neblokován
YES = PME in left position, NO = PME in other position;YES = PME in left position, NO = PME in other position;ANO = výhybka v levé poloze, NE = výhybka v jiné než levé poloze
YES = PME in right position, NO = PME in other position;YES = PME in right position, NO = PME in other position;ANO = výhybka v pravé poloze , NE = výhybka v jiné než pravé poloze
YES = TC occupied, NO = TC free;YES = TC occupied, NO = TC free;ANO = TC obsazen, NE = TC volný
YES = complementarity or IO error, NO = no error;YES = complementarity or IO error, NO = no error;ANO = chyba komplementarity nebo chyba vstupu, NE = bez chyby
YES = direction command Block active - request route according to actual PME position, NO = inactive;YES = direction command Block active - request route according to actual PME position, NO = inactive;ANO = Stavěcí povel Zablokuj aktivní - žádost o trasu podle aktuální polohy výhybky, NE = neaktivní
YES = direction command Left active, NO = inactive;YES = direction command Left active, NO = inactive;ANO = Stavěcí povel Vlevo aktivní, NE = neaktivní
YES = direction command Right active, NO = inactive;YES = direction command Right active, NO = inactive;ANO = Stavěcí povel Vpravo aktivní, NE = neaktivní
YES = direction command Straight active, NO = inactive;YES = direction command Straight active, NO = inactive;ANO = Stavěcí povel Rovně aktivní, NE = neaktivní
YES = status - PME blocked, NO = PME not blocked;YES = status - PME blocked, NO = PME not blocked;ANO = stav - přestavník blokován, NE = přestavník není blokován
YES = system in NORM operational state, NO = system in AB or EI mode (or turned off);YES = system in NORM operational state, NO = system in AB or EI mode (or turned off);ANO = systém v provozním stavu NORM, NE = systém ve stavu AB nebo EI (nebo vypnutý)
