key;en;cs
type.GPIOInputs.fields.BSActive.description;YES = BS active, NO = BS not active;ANO = BS aktivováno, NE = BS neaktivní
type.GPIOInputs.fields.BSActive.label;BS switch active;Přepínač BS aktivní
type.GPIOInputs.fields.FTWC_IN1.description;YES = direction command Left active, NO = inactive;ANO = Stavěcí povel Vlevo aktivní, NE = neaktivní
type.GPIOInputs.fields.FTWC_IN1.label;Alternative requesting - command Left;Alternativní velení - povel Vlevo
type.GPIOInputs.fields.FTWC_IN2.description;YES = direction command Straight active, NO = inactive;ANO = Stavěcí povel Rovně aktivní, NE = neaktivní
type.GPIOInputs.fields.FTWC_IN2.label;Alternative requesting - command Straight;Alternativní velení - povel Rovně
type.GPIOInputs.fields.FTWC_IN3.description;YES = direction command Right active, NO = inactive;ANO = Stavěcí povel Vpravo aktivní, NE = neaktivní
type.GPIOInputs.fields.FTWC_IN3.label;Alternative requesting - command Right;Alternativní velení - povel Vpravo
type.GPIOInputs.fields.FTWC_IN4.description;YES = direction command Block active - request route according to actual PME position, NO = inactive;ANO = Stavěcí povel Zablokuj aktivní - žádost o trasu podle aktuální polohy výhybky, NE = neaktivní
type.GPIOInputs.fields.FTWC_IN4.label;Alternative requesting - command Block;Alternativní velení - povel Zablokuj
type.GPIOInputs.fields.errorBS.description;YES = complementarity or IO error, NO = no error;ANO = chyba komplementarity nebo chyba vstupu, NE = bez chyby
type.GPIOInputs.fields.errorBS.label;Error of BS switch;Chyba přepínače BS
type.GPIOOutputs.fields.FTWC_OUT1.description;YES = status - PME blocked, NO = PME not blocked;ANO = stav - přestavník blokován, NE = přestavník není blokován
type.GPIOOutputs.fields.FTWC_OUT1.label;Alternative requesting - PME blocked;Alternativní velení - přestavník blokován
type.GPIOOutputs.fields.TLSOUT1.description;YES = PME in left position, NO = PME in other position;ANO = výhybka v levé poloze, NE = výhybka v jiné než levé poloze
type.GPIOOutputs.fields.TLSOUT1.label;TLS - PME direction to the left;SSZ - směr výměny vlevo
type.GPIOOutputs.fields.TLSOUT2.description;YES = PME in right position, NO = PME in other position;ANO = výhybka v pravé poloze , NE = výhybka v jiné než pravé poloze
type.GPIOOutputs.fields.TLSOUT2.label;TLS - PME direction to the right;SSZ - směr výměny vpravo
type.GPIOOutputs.fields.TLSOUT3.description;YES = PME blocked, NO = PME not blocked;ANO = přestavník blokován, NE = přestavník neblokován
type.GPIOOutputs.fields.TLSOUT3.label;TLS - PME blocked;SSZ - přestavník elektricky blokován
type.GPIOOutputs.fields.TLSOUT4.description;YES = system in NORM operational state, NO = system in AB or EI mode (or turned off);ANO = systém v provozním stavu NORM, NE = systém ve stavu AB nebo EI (nebo vypnutý)
type.GPIOOutputs.fields.TLSOUT4.label;TLS - system in NORM;SSZ - systém ve stavu NORM
type.GPIOOutputs.fields.TLSOUT5.description;YES = TC occupied, NO = TC free;ANO = TC obsazen, NE = TC volný
type.GPIOOutputs.fields.TLSOUT5.label;TLS - state TC01 occupied;SSZ - stav TC01 obsazen
type.GPIOOutputs.fields.TLSOUT6.description;YES = TC occupied, NO = TC free;ANO = TC obsazen, NE = TC volný
type.GPIOOutputs.fields.TLSOUT6.label;TLS - state TC02 occupied;SSZ - stav TC02 obsazen