key;en
device.GPIO_B/inputs.description;Input to PLC, project-specific.
device.GPIO_B/inputs.label;General purpose input
type.GPIOInputs_B.fields.IN-PWR-MO-2.description;Power section MO-2 is switched off
type.GPIOInputs_B.fields.IN-PWR-MO-2.label;IN-PWR-MO-2
static.GPIO_B;General purpose I/O