<?xml version="1.0" encoding="UTF-8" standalone="no"?>
<svg
   inkscape:version="1.3.2 (091e20e, 2023-11-25, custom)"
   sodipodi:docname="site.svg"
   viewBox="0 0 630.67002 580.18003"
   version="1.1"
   height="580.17999"
   width="630.66998"
   id="svg-container"
   xmlns:inkscape="http://www.inkscape.org/namespaces/inkscape"
   xmlns:sodipodi="http://sodipodi.sourceforge.net/DTD/sodipodi-0.dtd"
   xmlns="http://www.w3.org/2000/svg"
   xmlns:svg="http://www.w3.org/2000/svg"
   xmlns:rdf="http://www.w3.org/1999/02/22-rdf-syntax-ns#"
   xmlns:cc="http://creativecommons.org/ns#"
   xmlns:dc="http://purl.org/dc/elements/1.1/">
  <sodipodi:namedview
     inkscape:snap-object-midpoints="true"
     inkscape:snap-center="true"
     inkscape:snap-bbox="false"
     inkscape:document-rotation="0"
     fit-margin-bottom="10"
     fit-margin-right="10"
     fit-margin-left="10"
     fit-margin-top="10"
     inkscape:current-layer="layer28"
     inkscape:window-maximized="1"
     inkscape:window-y="-8"
     inkscape:window-x="0"
     inkscape:cy="282.84271"
     inkscape:cx="218.15671"
     inkscape:zoom="1.1826361"
     showgrid="false"
     id="namedview1252"
     inkscape:window-height="1057"
     inkscape:window-width="1920"
     inkscape:pageshadow="2"
     inkscape:pageopacity="0"
     guidetolerance="10"
     gridtolerance="10"
     objecttolerance="10"
     borderopacity="1"
     bordercolor="#666666"
     pagecolor="#ffffff"
     showguides="true"
     inkscape:guide-bbox="true"
     inkscape:snap-text-baseline="true"
     inkscape:pagecheckerboard="false"
     inkscape:snap-nodes="true"
     inkscape:showpageshadow="2"
     inkscape:deskcolor="#d1d1d1">
    <inkscape:grid
       originy="324.17725"
       originx="-3208.6741"
       type="xygrid"
       id="grid1049"
       spacingy="1"
       spacingx="1"
       units="px"
       visible="false" />
  </sodipodi:namedview>
  <defs
     id="defs849">
    <linearGradient
       id="linearGradient1449"
       inkscape:swatch="solid">
      <stop
         style="stop-color:#848484;stop-opacity:1;"
         offset="0"
         id="stop1447" />
    </linearGradient>
  </defs>
  <metadata
     id="metadata851">
    <rdf:RDF>
      <cc:Work
         rdf:about="">
        <dc:format>image/svg+xml</dc:format>
        <dc:type
           rdf:resource="http://purl.org/dc/dcmitype/StillImage" />
      </cc:Work>
    </rdf:RDF>
  </metadata>
  <style
     id="style853">@keyframes redChange {
    0%{fill:#ff0000}
    50%{fill:#000}
    100%{fill: #ff0000}
  }
  @keyframes whiteChange {
    0%{fill: #fff}
    50%{fill: #000}
    100%{fill: #fff}
  }
  @keyframes blueChange {
    0%{fill: white}
    50%{fill: blue}
    100%{fill: white}
  }
.blue-blinking {
  animation: blueChange 1s infinite;
}
  .red-blinking {
    animation: redChange 1s infinite;
  }
  .white-blinking {
    animation: whiteChange 1s infinite;
  }</style>
  <g
     inkscape:groupmode="layer"
     id="layer26"
     inkscape:label="Other"
     style="display:inline"
     transform="translate(-593.61972,-679.92111)">
    <path
       id="path913-59"
       d="M 627.95372,1034.6228 H 1186.9395"
       inkscape:connector-curvature="0"
       style="display:inline;fill:none;stroke:#6e6e6e;stroke-width:11.9697;stroke-linecap:round"
       sodipodi:nodetypes="cc" />
    <path
       id="path913-51"
       d="M 627.95372,892.35411 H 825.71477"
       inkscape:connector-curvature="0"
       style="display:inline;fill:none;stroke:#6e6e6e;stroke-width:11.9697;stroke-linecap:round"
       sodipodi:nodetypes="cc" />
    <path
       id="path913-51-2"
       d="m 825.71477,892.35411 142.399,142.39889"
       inkscape:connector-curvature="0"
       style="display:inline;fill:none;stroke:#6e6e6e;stroke-width:11.9697;stroke-linecap:round"
       sodipodi:nodetypes="cc" />
  </g>
  <g
     inkscape:groupmode="layer"
     id="layer1"
     inkscape:label="zoneStatusText"
     style="display:inline"
     transform="translate(-593.61972,-679.92111)">
    <g
       shvVisuType="zoneStatusText"
       shvPath="devices/zone/ZoneB"
       transform="matrix(3.7795276,0,0,3.7795276,375.86707,-62.828127)"
       id="g4446"
       shvDeviceType="Zone_G3">
      <text
         id="text164"
         y="203.02621"
         x="64.806824"
         style="font-style:normal;font-variant:normal;font-weight:normal;font-stretch:normal;font-size:4.37095px;line-height:1.25;font-family:sans-serif;font-variant-ligatures:normal;font-variant-position:normal;font-variant-caps:normal;font-variant-numeric:normal;font-variant-alternates:normal;font-feature-settings:normal;text-indent:0;text-align:start;text-decoration:none;text-decoration-line:none;text-decoration-style:solid;text-decoration-color:#000000;letter-spacing:normal;word-spacing:normal;text-transform:none;writing-mode:lr-tb;direction:ltr;text-orientation:mixed;dominant-baseline:auto;baseline-shift:baseline;text-anchor:start;white-space:normal;shape-padding:0;opacity:1;vector-effect:none;fill:#4d4d4d;fill-opacity:1;stroke:none;stroke-width:0.301466;stroke-linecap:butt;stroke-linejoin:miter;stroke-miterlimit:4;stroke-dasharray:none;stroke-dashoffset:0;stroke-opacity:1"
         xml:space="preserve"><tspan
           style="stroke-width:0.301466"
           y="203.02621"
           x="64.806824"
           id="tspan162"
           sodipodi:role="line">Zone state:</tspan></text>
      <text
         id="text164-3"
         y="203.04257"
         x="93.209305"
         style="font-style:normal;font-variant:normal;font-weight:bold;font-stretch:normal;font-size:4.23333px;line-height:1.25;font-family:sans-serif;-inkscape-font-specification:'sans-serif Bold';letter-spacing:0px;word-spacing:0px;fill:#000000;fill-opacity:1;stroke:none;stroke-width:0.264583"
         xml:space="preserve"><tspan
           shvAlarmPosition="left"
           style="stroke-width:0.264583"
           chid="statusText"
           y="203.04257"
           x="93.209305"
           id="tspan162-6"
           sodipodi:role="line">Undefined</tspan></text>
    </g>
    <g
       shvVisuType="RequestorData"
       transform="translate(-268.87089,-1073.9949)"
       shvPath="devices/vehicleCommunicator/VET51"
       id="gRequestorData"
       shvVisuTypeVariant="Template"
       style="display:inline">
      <text
         x="891.73755"
         y="2164.8958"
         style="font-size:12.1535px;line-height:1.25;font-family:sans-serif;font-variant-ligatures:normal;font-variant-caps:normal;font-variant-numeric:normal;fill:#000000;stroke-width:1.1394"
         xml:space="preserve"
         id="textRequestorTableLabel"><tspan
           style="font-size:16px;stroke-width:1.1394"
           x="891.73755"
           y="2164.8958"
           id="tspanRequestorTableLabel"
           shvAlarmPosition="right">VET51</tspan></text>
      <g
         id="gRequestorTableBody"
         transform="translate(-209.43848,48.69604)">
        <g
           id="gRequestorTableRow">
          <rect
             ry="0.16663547"
             y="2121.6401"
             x="1100.463"
             height="16.231249"
             width="212.00063"
             id="rectRequestorTableRowTag"
             style="fill:none;fill-opacity:0.239216;stroke:#4d4d4d;stroke-width:0.909;stroke-linecap:round;stroke-linejoin:bevel;stroke-miterlimit:4;stroke-dasharray:none;stroke-dashoffset:0;stroke-opacity:1"
             rx="0.16663547" />
          <text
             id="textRequestorTableRowTag"
             xml:space="preserve"
             style="font-size:12.5217px;line-height:1.25;font-family:sans-serif;text-align:end;text-anchor:end;fill:#0055d4;stroke-width:1.5705"
             font-size="3.2px"
             y="2134.5581"
             x="1398.2871"><tspan
               chid="vehicleId"
               id="tspanRequestorTableRowTag"
               style="font-size:12.564px;font-family:sans-serif;font-variant-ligatures:normal;font-variant-caps:normal;font-variant-numeric:normal;text-align:end;text-anchor:end;fill:#0055d4;stroke-width:1.5705"
               font-size="3.2108px"
               y="2134.5581"
               x="1307.0876">...</tspan></text>
          <rect
             style="fill:#c8beb7;fill-opacity:0.239216;stroke:#4d4d4d;stroke-width:0.908998;stroke-linecap:round;stroke-linejoin:bevel;stroke-miterlimit:4;stroke-dasharray:none;stroke-dashoffset:0;stroke-opacity:1"
             id="rectRequestorTableRowName"
             width="94.027527"
             height="16.231249"
             x="1100.4596"
             y="2121.6401"
             ry="0.16663547"
             rx="0.16663547" />
          <text
             id="textRequestorTableRowName"
             xml:space="preserve"
             style="font-size:45.5752px;line-height:1.25;font-family:sans-serif;fill:#000000;stroke-width:1.1394"
             font-size="11.647px"
             y="2133.9375"
             x="1103.5303"><tspan
               id="tspanRequestorTableRowName"
               style="font-size:9.11504px;font-family:sans-serif;font-variant-ligatures:normal;font-variant-caps:normal;font-variant-numeric:normal;stroke-width:1.5705"
               font-size="2.3294px"
               y="2133.9375"
               x="1103.5303">Vehicle ID</tspan></text>
        </g>
        <rect
           y="2121.6401"
           x="1100.4596"
           height="16.231249"
           width="212.00401"
           id="rectRequestorTableBoundingBox"
           style="fill:none;fill-opacity:1;stroke:#000000;stroke-width:1.061;stroke-miterlimit:4;stroke-dasharray:none;stroke-dashoffset:0;stroke-opacity:1"
           chid="boundingBox" />
      </g>
    </g>
    <g
       shvVisuType="RequestorData"
       transform="translate(-268.87063,-1425.9905)"
       shvPath="devices/vehicleCommunicator/VET23"
       id="g16-3"
       shvVisuTypeVariant="Template"
       style="display:inline">
      <text
         x="891.73755"
         y="2164.8958"
         style="font-size:12.1535px;line-height:1.25;font-family:sans-serif;font-variant-ligatures:normal;font-variant-caps:normal;font-variant-numeric:normal;fill:#000000;stroke-width:1.1394"
         xml:space="preserve"
         id="text12-3"><tspan
           style="font-size:16px;stroke-width:1.1394"
           x="891.73755"
           y="2164.8958"
           id="tspan12-4"
           shvAlarmPosition="right">VET23</tspan></text>
      <g
         id="g15-3"
         transform="translate(-209.43848,48.69604)">
        <g
           id="g14-3">
          <rect
             ry="0.16663547"
             y="2121.6401"
             x="1100.463"
             height="16.231249"
             width="212.00063"
             id="rect12"
             style="fill:none;fill-opacity:0.239216;stroke:#4d4d4d;stroke-width:0.909;stroke-linecap:round;stroke-linejoin:bevel;stroke-miterlimit:4;stroke-dasharray:none;stroke-dashoffset:0;stroke-opacity:1"
             rx="0.16663547" />
          <text
             id="text13-7"
             xml:space="preserve"
             style="font-size:12.5217px;line-height:1.25;font-family:sans-serif;text-align:end;text-anchor:end;fill:#0055d4;stroke-width:1.5705"
             font-size="3.2px"
             y="2134.5581"
             x="1398.2871"><tspan
               chid="vehicleId"
               id="tspan13-1"
               style="font-size:12.564px;font-family:sans-serif;font-variant-ligatures:normal;font-variant-caps:normal;font-variant-numeric:normal;text-align:end;text-anchor:end;fill:#0055d4;stroke-width:1.5705"
               font-size="3.2108px"
               y="2134.5581"
               x="1307.0876">...</tspan></text>
          <rect
             style="fill:#c8beb7;fill-opacity:0.239216;stroke:#4d4d4d;stroke-width:0.908998;stroke-linecap:round;stroke-linejoin:bevel;stroke-miterlimit:4;stroke-dasharray:none;stroke-dashoffset:0;stroke-opacity:1"
             id="rect13"
             width="94.027527"
             height="16.231249"
             x="1100.4596"
             y="2121.6401"
             ry="0.16663547"
             rx="0.16663547" />
          <text
             id="text14-8"
             xml:space="preserve"
             style="font-size:45.5752px;line-height:1.25;font-family:sans-serif;fill:#000000;stroke-width:1.1394"
             font-size="11.647px"
             y="2133.9375"
             x="1103.5303"><tspan
               id="tspan14-3"
               style="font-size:9.11504px;font-family:sans-serif;font-variant-ligatures:normal;font-variant-caps:normal;font-variant-numeric:normal;stroke-width:1.5705"
               font-size="2.3294px"
               y="2133.9375"
               x="1103.5303">Vehicle ID</tspan></text>
        </g>
        <rect
           y="2121.6401"
           x="1100.4596"
           height="16.231249"
           width="212.00401"
           id="rect14-9"
           style="fill:none;fill-opacity:1;stroke:#000000;stroke-width:1.061;stroke-miterlimit:4;stroke-dasharray:none;stroke-dashoffset:0;stroke-opacity:1"
           chid="boundingBox" />
      </g>
    </g>
  </g>
  <g
     inkscape:groupmode="layer"
     id="layer10"
     inkscape:label="Route"
     style="display:inline"
     transform="translate(-593.61972,-679.92111)">
    <g
       id="g2169"
       shvPath="devices/zone/ZoneB/route/RB01"
       transform="translate(190.68183,-1173.6358)"
       shvDeviceType="Route_G3"
       shvVisuType="Route">
      <path
         chid="route"
         id="path855"
         d="m 553.82717,2065.9899 h 81.20577 l 142.399,142.3989 187.70789,-0.1302"
         inkscape:connector-curvature="0"
         style="fill:none;stroke:#ffbb33;stroke-width:20;stroke-linecap:round"
         sodipodi:nodetypes="cccc" />
      <text
         x="517.01733"
         y="2106.9353"
         font-size="3.1059px"
         style="font-size:12.1535px;line-height:1.25;font-family:sans-serif;font-variant-ligatures:normal;font-variant-caps:normal;font-variant-numeric:normal;fill:#000000;stroke-width:1.1394"
         xml:space="preserve"
         id="text1191-97"><tspan
           style="font-size:16px;stroke-width:1.1394"
           x="517.01733"
           y="2106.9353"
           id="tspan1189-3"
           shvAlarmPosition="right">RB01</tspan></text>
    </g>
    <g
       id="g1"
       shvPath="devices/zone/ZoneB/route/RB02"
       transform="translate(295.91352,-1168.8525)"
       shvDeviceType="Route_G3"
       shvVisuType="Route">
      <path
         chid="route"
         id="path1"
         d="M 448.59548,2203.4753 H 859.90814"
         inkscape:connector-curvature="0"
         style="fill:none;stroke:#ffbb33;stroke-width:20;stroke-linecap:round"
         sodipodi:nodetypes="cc" />
      <text
         x="412.2933"
         y="2244.4207"
         font-size="3.1059px"
         style="font-size:12.1535px;line-height:1.25;font-family:sans-serif;font-variant-ligatures:normal;font-variant-caps:normal;font-variant-numeric:normal;fill:#000000;stroke-width:1.1394"
         xml:space="preserve"
         id="text1"><tspan
           style="font-size:16px;stroke-width:1.1394"
           x="412.2933"
           y="2244.4207"
           id="tspan1"
           shvAlarmPosition="right">RB02</tspan></text>
    </g>
  </g>
  <g
     inkscape:groupmode="layer"
     id="layer11"
     inkscape:label="Matrix"
     style="display:inline"
     transform="translate(-593.61972,-679.92111)" />
  <g
     inkscape:groupmode="layer"
     id="layer12"
     inkscape:label="Display"
     style="display:inline"
     transform="translate(-593.61972,-679.92111)" />
  <g
     inkscape:groupmode="layer"
     id="layer13"
     inkscape:label="Signal"
     style="display:inline"
     transform="translate(-593.61972,-679.92111)">
    <g
       id="g1905-9-4"
       shvPath="devices/signal/S23"
       transform="rotate(90,1652.287,1589.3176)"
       style="display:inline"
       shvVisuType="Signal"
       shvDeviceType="Signal_G3"
       shvVisuTypeVariant="type_8">
      <text
         id="text1191-7-66-7-7-1-7-4"
         xml:space="preserve"
         style="font-size:12.1535px;line-height:1.25;font-family:sans-serif;font-variant-ligatures:normal;font-variant-caps:normal;font-variant-numeric:normal;fill:#000000;stroke-width:1.1394"
         font-size="3.1059px"
         y="933.44855"
         x="-2396.8579"
         transform="rotate(-90)"><tspan
           shvAlarmPosition="right"
           id="tspan1189-5-49-1-2-2-1-5"
           y="933.44855"
           x="-2396.8579"
           style="font-size:16px;stroke-width:1.1394">S23</tspan></text>
      <g
         id="g911-2"
         transform="translate(571.91855,2113.7804)">
        <path
           chid="chambers"
           inkscape:connector-curvature="0"
           d="m 379.41207,157.07116 a 19.996031,20 0 0 1 -39.99206,1e-4 19.996031,20 0 0 1 39.99206,-1e-4 m 0.008,39.00003 a 20,20.044821 0 0 1 -39.9999,1e-4 20,20.044821 0 0 1 39.9999,-1e-4"
           style="fill:#000000;fill-opacity:1;stroke:none;stroke-width:1;stroke-miterlimit:4;stroke-dasharray:none;stroke-opacity:1"
           id="path422-7-2-8" />
        <path
           d="m 339.85519,235.26449 h 39.1297 m -19.0179,-19.5652 v 19.5652"
           style="fill:#000000;fill-opacity:1;stroke:#000000;stroke-width:1.03531"
           id="path999-9-0-0-2-35-2"
           inkscape:connector-curvature="0" />
        <g
           chid="symbol/F11"
           id="g5716-5"
           style="display:inline;fill:#ffffff;stroke:#000000"
           transform="matrix(1.2942492,0,0,1.2942492,-745.7029,-525.78396)">
          <path
             id="path5712-1"
             d="m 845.87,568.65 h 4.3637 V 546.831 H 845.87 Z"
             transform="translate(-1.4882e-5)"
             inkscape:connector-curvature="0" />
          <path
             id="path5714-6"
             d="m 857.51,568.65 h 4.3637 V 546.831 H 857.51 Z"
             transform="translate(-1.4882e-5)"
             inkscape:connector-curvature="0" />
        </g>
        <g
           chid="symbol/F00"
           id="g5708-4"
           style="display:inline;fill:#ffffff;stroke:#000000"
           transform="matrix(1.2942492,0,0,1.2942492,-746.05458,-527.12946)">
          <path
             id="path5704-6"
             d="m 864.78,532.28 h -21.819 v 4.3637 h 21.819 z"
             transform="translate(-1.4882e-5)"
             inkscape:connector-curvature="0" />
          <path
             id="path5706-4"
             d="m 864.78,520.65 h -21.819 v 4.3637 h 21.819 z"
             transform="translate(-1.4882e-5)"
             inkscape:connector-curvature="0" />
        </g>
        <path
           chid="symbol/P41"
           id="path5710-9"
           d="m 361.41966,155.1888 h -4.70609 v 3.765 h 4.70609 z"
           style="display:inline;fill:#0000ff;stroke:#0000ff;stroke-width:1.29425"
           inkscape:connector-curvature="0"
           sodipodi:nodetypes="ccccc" />
        <path
           chid="symbol/P80"
           style="display:inline;fill:#ffffff;fill-opacity:1;stroke:none;stroke-width:1.03531"
           inkscape:connector-curvature="0"
           d="m 359.23914,203.27079 a 7.384996,7.384996 0 1 0 6e-5,-14.76999 7.384996,7.384996 0 1 0 -6e-5,14.76999 z"
           id="path995-7-1-5-9-8-2-9-9-1-9-3" />
      </g>
    </g>
    <g
       id="g12"
       shvPath="devices/signal/S24"
       transform="rotate(90,1670.3921,1674.8366)"
       style="display:inline"
       shvVisuType="Signal"
       shvDeviceType="Signal_G3"
       shvVisuTypeVariant="type_8">
      <text
         id="text2"
         xml:space="preserve"
         style="font-size:12.1535px;line-height:1.25;font-family:sans-serif;font-variant-ligatures:normal;font-variant-caps:normal;font-variant-numeric:normal;fill:#000000;stroke-width:1.1394"
         font-size="3.1059px"
         y="923.64874"
         x="-2422.262"
         transform="rotate(-90)"><tspan
           shvAlarmPosition="right"
           id="tspan2"
           y="923.64874"
           x="-2422.262"
           style="font-size:16px;stroke-width:1.1394">S24</tspan></text>
      <g
         id="g11"
         transform="translate(571.91855,2113.7804)">
        <path
           chid="chambers"
           inkscape:connector-curvature="0"
           d="m 379.41207,157.07116 a 19.996031,20 0 0 1 -39.99206,1e-4 19.996031,20 0 0 1 39.99206,-1e-4 m 0.008,39.00003 a 20,20.044821 0 0 1 -39.9999,1e-4 20,20.044821 0 0 1 39.9999,-1e-4"
           style="fill:#000000;fill-opacity:1;stroke:none;stroke-width:1;stroke-miterlimit:4;stroke-dasharray:none;stroke-opacity:1"
           id="path2" />
        <path
           d="m 339.85519,235.26449 h 39.1297 m -19.0179,-19.5652 v 19.5652"
           style="fill:#000000;fill-opacity:1;stroke:#000000;stroke-width:1.03531"
           id="path3"
           inkscape:connector-curvature="0" />
        <g
           chid="symbol/F11"
           id="g5"
           style="display:inline;fill:#ffffff;stroke:#000000"
           transform="matrix(1.2942492,0,0,1.2942492,-745.7029,-525.78396)">
          <path
             id="path4"
             d="m 845.87,568.65 h 4.3637 V 546.831 H 845.87 Z"
             transform="translate(-1.4882e-5)"
             inkscape:connector-curvature="0" />
          <path
             id="path5"
             d="m 857.51,568.65 h 4.3637 V 546.831 H 857.51 Z"
             transform="translate(-1.4882e-5)"
             inkscape:connector-curvature="0" />
        </g>
        <g
           chid="symbol/F00"
           id="g7"
           style="display:inline;fill:#ffffff;stroke:#000000"
           transform="matrix(1.2942492,0,0,1.2942492,-746.05458,-527.12946)">
          <path
             id="path6"
             d="m 864.78,532.28 h -21.819 v 4.3637 h 21.819 z"
             transform="translate(-1.4882e-5)"
             inkscape:connector-curvature="0" />
          <path
             id="path7"
             d="m 864.78,520.65 h -21.819 v 4.3637 h 21.819 z"
             transform="translate(-1.4882e-5)"
             inkscape:connector-curvature="0" />
        </g>
        <path
           chid="symbol/P41"
           id="path8"
           d="m 361.41966,155.1888 h -4.70609 v 3.765 h 4.70609 z"
           style="display:inline;fill:#0000ff;stroke:#0000ff;stroke-width:1.29425"
           inkscape:connector-curvature="0"
           sodipodi:nodetypes="ccccc" />
        <path
           chid="symbol/P80"
           style="display:inline;fill:#ffffff;fill-opacity:1;stroke:none;stroke-width:1.03531"
           inkscape:connector-curvature="0"
           d="m 359.23914,203.27079 a 7.384996,7.384996 0 1 0 6e-5,-14.76999 7.384996,7.384996 0 1 0 -6e-5,14.76999 z"
           id="path11" />
      </g>
    </g>
    <g
       transform="rotate(-90,1113.7842,241.93623)"
       id="g1099-8-8"
       shvPath="devices/signal/VTS01"
       shvDeviceType="MPS_G3"
       shvVisuType="Matrix"
       shvVisuTypeVariant="matrix_rows"
       style="display:inline">
      <text
         id="text955-3-5-3-3-3-2-2"
         xml:space="preserve"
         style="font-size:12.1535px;line-height:1.25;font-family:sans-serif;font-variant-ligatures:normal;font-variant-caps:normal;font-variant-numeric:normal;fill:#000000;stroke-width:0.2;stroke-miterlimit:4;stroke-dasharray:none"
         font-size="3.1059px"
         y="-407.52563"
         x="52.048462"
         transform="rotate(90)"><tspan
           id="tspan953-6-3-6-6-6-3-5"
           style="font-size:16px;font-family:sans-serif;font-variant-ligatures:normal;font-variant-caps:normal;font-variant-numeric:normal;stroke-width:0.2;stroke-miterlimit:4;stroke-dasharray:none"
           font-size="3.1059px"
           y="-407.52563"
           x="52.048462"
           shvAlarmPosition="right">VTS01</tspan></text>
      <g
         id="g1087-5-3"
         transform="rotate(180,397.29357,304.27761)">
        <rect
           chid="mps"
           y="333.76413"
           x="321.5"
           height="50.77906"
           width="105"
           id="rect1233-7-7-3-5"
           style="opacity:1;fill:#9b9b9b;fill-opacity:1;fill-rule:nonzero;stroke:#060606;stroke-width:3;stroke-linecap:butt;stroke-linejoin:round;stroke-miterlimit:4;stroke-dasharray:none;stroke-dashoffset:0;stroke-opacity:1;paint-order:normal" />
        <text
           id="text1255-5-5-3-5"
           y="349.2684"
           x="323.10001"
           style="font-style:normal;font-weight:normal;font-size:40px;line-height:1.25;font-family:sans-serif;letter-spacing:0px;word-spacing:0px;fill:#000000;fill-opacity:1;stroke:none;stroke-width:0.2;stroke-miterlimit:4;stroke-dasharray:none"
           xml:space="preserve"><tspan
             style="font-size:12.564px;font-family:sans-serif;font-variant-ligatures:normal;font-variant-caps:normal;font-variant-numeric:normal;fill:#000000;fill-opacity:1;stroke-width:0.2;stroke-miterlimit:4;stroke-dasharray:none"
             chid="row0"
             y="349.2684"
             x="323.10001"
             id="tspan1253-3-3-9-9"
             sodipodi:role="line">Row 0</tspan></text>
        <text
           xml:space="preserve"
           style="font-style:normal;font-weight:normal;font-size:40px;line-height:1.25;font-family:sans-serif;letter-spacing:0px;word-spacing:0px;fill:#000000;fill-opacity:1;stroke:none;stroke-width:0.2;stroke-miterlimit:4;stroke-dasharray:none"
           x="323.10001"
           y="377.13669"
           id="text1255-5-7-5-2-5"><tspan
             sodipodi:role="line"
             id="tspan1253-3-5-6-2-7"
             x="323.10001"
             y="377.13669"
             chid="row2"
             style="font-size:12.564px;font-family:sans-serif;font-variant-ligatures:normal;font-variant-caps:normal;font-variant-numeric:normal;fill:#000000;fill-opacity:1;stroke-width:0.2;stroke-miterlimit:4;stroke-dasharray:none">Row 2</tspan></text>
        <text
           id="text1255-5-3-2-8-1"
           y="363.09818"
           x="323.10001"
           style="font-style:normal;font-weight:normal;font-size:40px;line-height:1.25;font-family:sans-serif;letter-spacing:0px;word-spacing:0px;fill:#000000;fill-opacity:1;stroke:none;stroke-width:0.2;stroke-miterlimit:4;stroke-dasharray:none"
           xml:space="preserve"><tspan
             style="font-size:12.564px;font-family:sans-serif;font-variant-ligatures:normal;font-variant-caps:normal;font-variant-numeric:normal;fill:#000000;fill-opacity:1;stroke-width:0.2;stroke-miterlimit:4;stroke-dasharray:none"
             chid="row1"
             y="363.09818"
             x="323.10001"
             id="tspan1253-3-6-9-4-7"
             sodipodi:role="line">Row 1</tspan></text>
      </g>
    </g>
  </g>
  <g
     inkscape:groupmode="layer"
     id="layer14"
     inkscape:label="RequestorData"
     style="display:inline"
     transform="translate(-593.61972,-679.92111)" />
  <g
     inkscape:groupmode="layer"
     id="layer15"
     inkscape:label="RequestorDigital"
     style="display:inline"
     transform="translate(-593.61972,-679.92111)" />
  <g
     inkscape:groupmode="layer"
     id="layer16"
     inkscape:label="Requestor"
     style="display:inline"
     transform="translate(-593.61972,-679.92111)">
    <g
       shvPath="devices/vehicleCommunicator/VET51"
       id="g1553"
       transform="translate(367.70284,-2300.7599)"
       shvVisuType="Requestor"
       shvDeviceType="Vetra_G3"
       style="display:inline">
      <text
         id="text1191"
         xml:space="preserve"
         style="font-size:12.1535px;line-height:1.25;font-family:sans-serif;font-variant-ligatures:normal;font-variant-caps:normal;font-variant-numeric:normal;fill:#000000;stroke-width:1.1394"
         font-size="3.1059px"
         y="3380.0859"
         x="689.74237"><tspan
           shvAlarmPosition="right"
           id="tspan1189"
           y="3380.0859"
           x="689.74237"
           style="font-size:16px;stroke-width:1.1394">VET51</tspan></text>
      <g
         id="g1546">
        <path
           style="fill:#ffffff;stroke:#000000;stroke-width:1.03531"
           inkscape:connector-curvature="0"
           d="m 701.3575,3325.6 h 19.56535 v 19.5653 H 701.3575 Z"
           id="path1187"
           chid="transceiver" />
        <path
           chid="radioBeams"
           d="m 731.38798,3311.1954 a 31.5,31.5 0 0 0 -40.49561,0 m 35.67471,5.7453 a 24,24 0 0 0 -30.85381,0 m 26.0329,5.7454 a 16.5,16.5 0 0 0 -21.21199,0 m 30.8538,36.8839 a 31.5,31.5 0 0 1 -40.49561,0 m 35.67471,-5.7454 a 24,24 0 0 1 -30.85381,0 m 26.0329,-5.7453 a 16.5,16.5 0 0 1 -21.21199,0"
           style="opacity:0.99;fill:none;fill-opacity:1;fill-rule:nonzero;stroke:#34a800;stroke-width:2.3;stroke-linecap:round;stroke-linejoin:round;stroke-miterlimit:4;stroke-dasharray:none;stroke-dashoffset:0;stroke-opacity:1;paint-order:stroke fill markers"
           id="path994-5-5-6-9"
           inkscape:connector-curvature="0" />
      </g>
    </g>
    <g
       shvPath="devices/vehicleCommunicator/VET23"
       id="g18-8"
       transform="translate(-45.44893,-2443.0285)"
       shvVisuType="Requestor"
       shvDeviceType="Vetra_G3"
       style="display:inline">
      <text
         id="text16-7"
         xml:space="preserve"
         style="font-size:12.1535px;line-height:1.25;font-family:sans-serif;font-variant-ligatures:normal;font-variant-caps:normal;font-variant-numeric:normal;fill:#000000;stroke-width:1.1394"
         font-size="3.1059px"
         y="3380.0859"
         x="681.74237"><tspan
           shvAlarmPosition="right"
           id="tspan16-5"
           y="3380.0859"
           x="681.74237"
           style="font-size:16px;stroke-width:1.1394">VET23</tspan></text>
      <g
         id="g17-4">
        <path
           style="fill:#ffffff;stroke:#000000;stroke-width:1.03531"
           inkscape:connector-curvature="0"
           d="m 701.3575,3325.6 h 19.56535 v 19.5653 H 701.3575 Z"
           id="path16"
           chid="transceiver" />
        <path
           chid="radioBeams"
           d="m 731.38798,3311.1954 a 31.5,31.5 0 0 0 -40.49561,0 m 35.67471,5.7453 a 24,24 0 0 0 -30.85381,0 m 26.0329,5.7454 a 16.5,16.5 0 0 0 -21.21199,0 m 30.8538,36.8839 a 31.5,31.5 0 0 1 -40.49561,0 m 35.67471,-5.7454 a 24,24 0 0 1 -30.85381,0 m 26.0329,-5.7453 a 16.5,16.5 0 0 1 -21.21199,0"
           style="opacity:0.99;fill:none;fill-opacity:1;fill-rule:nonzero;stroke:#34a800;stroke-width:2.3;stroke-linecap:round;stroke-linejoin:round;stroke-miterlimit:4;stroke-dasharray:none;stroke-dashoffset:0;stroke-opacity:1;paint-order:stroke fill markers"
           id="path17"
           inkscape:connector-curvature="0" />
      </g>
    </g>
  </g>
  <g
     inkscape:groupmode="layer"
     id="layer17"
     inkscape:label="PME"
     style="display:inline"
     transform="translate(-593.61972,-679.92111)" />
  <g
     inkscape:groupmode="layer"
     id="layer18"
     inkscape:label="PMM"
     style="display:inline"
     transform="translate(-593.61972,-679.92111)" />
  <g
     inkscape:groupmode="layer"
     id="layer19"
     inkscape:label="HeatingRod"
     style="display:inline"
     transform="translate(-593.61972,-679.92111)" />
  <g
     inkscape:groupmode="layer"
     id="layer20"
     inkscape:label="HeatingTable"
     style="display:inline"
     transform="translate(-593.61972,-679.92111)" />
  <g
     inkscape:groupmode="layer"
     id="layer21"
     inkscape:label="Gate"
     style="display:inline"
     transform="translate(-593.61972,-679.92111)">
    <g
       transform="rotate(-90,1075.4369,632.23075)"
       shvVisuType="Gate"
       shvPath="devices/zone/ZoneB/gate/BG23"
       id="g1575"
       shvDeviceType="Gate_G3">
      <text
         id="text955-36"
         xml:space="preserve"
         style="font-size:12.1535px;line-height:1.25;font-family:sans-serif;font-variant-ligatures:normal;font-variant-caps:normal;font-variant-numeric:normal;fill:#000000;stroke-width:1.1394"
         font-size="3.1059px"
         y="-844.60382"
         x="249.29765"
         transform="rotate(90)"><tspan
           shvAlarmPosition="right"
           id="tspan953-75"
           style="font-size:16px;font-family:sans-serif;font-variant-ligatures:normal;font-variant-caps:normal;font-variant-numeric:normal;stroke-width:1.1394"
           font-size="3.1059px"
           y="-844.60382"
           x="249.29765">BG23</tspan></text>
      <path
         chid="gate"
         inkscape:connector-curvature="0"
         d="m 794.19073,278.9668 0.008,10.55368 42.22953,-0.0337 -0.008,-10.5537"
         style="display:inline;fill:none;stroke:#cc0033;stroke-width:3.895;stroke-miterlimit:4;stroke-dasharray:none"
         id="path614" />
    </g>
    <g
       transform="rotate(-90,1146.7626,703.17375)"
       shvVisuType="Gate"
       shvPath="devices/zone/ZoneB/gate/BG24"
       id="g13"
       shvDeviceType="Gate_G3">
      <text
         id="text12"
         xml:space="preserve"
         style="font-size:12.1535px;line-height:1.25;font-family:sans-serif;font-variant-ligatures:normal;font-variant-caps:normal;font-variant-numeric:normal;fill:#000000;stroke-width:1.1394"
         font-size="3.1059px"
         y="-846.60382"
         x="248.91484"
         transform="rotate(90)"><tspan
           shvAlarmPosition="right"
           id="tspan12"
           style="font-size:16px;font-family:sans-serif;font-variant-ligatures:normal;font-variant-caps:normal;font-variant-numeric:normal;stroke-width:1.1394"
           font-size="3.1059px"
           y="-846.60382"
           x="248.91484">BG24</tspan></text>
      <path
         chid="gate"
         inkscape:connector-curvature="0"
         d="m 794.19073,278.9668 0.008,10.55368 42.22953,-0.0337 -0.008,-10.5537"
         style="display:inline;fill:none;stroke:#cc0033;stroke-width:3.895;stroke-miterlimit:4;stroke-dasharray:none"
         id="path12" />
    </g>
    <g
       transform="rotate(90,619.02165,838.33097)"
       id="g14">
      <text
         id="text13"
         xml:space="preserve"
         style="font-size:12.1535px;line-height:1.25;font-family:sans-serif;font-variant-ligatures:normal;font-variant-caps:normal;font-variant-numeric:normal;fill:#000000;stroke-width:1.1394"
         font-size="3.1059px"
         y="856.25226"
         x="-293.03986"
         transform="rotate(-90)"><tspan
           shvAlarmPosition="right"
           id="tspan13"
           style="font-size:16px;font-family:sans-serif;font-variant-ligatures:normal;font-variant-caps:normal;font-variant-numeric:normal;stroke-width:1.1394"
           font-size="3.1059px"
           y="856.25226"
           x="-293.03986">BG91</tspan></text>
      <path
         chid="gate"
         inkscape:connector-curvature="0"
         d="m 794.19073,278.9668 0.008,10.55368 42.22953,-0.0337 -0.008,-10.5537"
         style="display:inline;fill:none;stroke:#cc0033;stroke-width:3.895;stroke-miterlimit:4;stroke-dasharray:none"
         id="path13" />
    </g>
  </g>
  <g
     inkscape:groupmode="layer"
     id="layer22"
     inkscape:label="GateData"
     style="display:inline"
     transform="translate(-593.61972,-679.92111)">
    <g
       transform="translate(-49.30745,217.17006)"
       shvVisuType="GateData"
       shvPath="devices/zone/ZoneB/gate/BG23"
       id="gGateData"
       shvDeviceType="Gate_G3"
       shvVisuTypeVariant="Template">
      <text
         x="891.97131"
         y="518.67572"
         font-size="3.1059px"
         style="font-size:12.1535px;line-height:1.25;font-family:sans-serif;font-variant-ligatures:normal;font-variant-caps:normal;font-variant-numeric:normal;fill:#000000;stroke-width:1.1394"
         xml:space="preserve"
         id="textGateTableLabel"><tspan
           style="font-size:16px;stroke-width:1.1394"
           x="891.97131"
           y="518.67572"
           id="tspanGateTableLabel"
           shvAlarmPosition="right">BG23</tspan></text>
      <g
         id="gGateTableBody"
         transform="translate(-478.65168,16.191803)">
        <g
           id="gGateTableHeader">
          <rect
             ry="0.16663547"
             y="511.05978"
             x="1369.0986"
             height="16.231232"
             width="67.896606"
             id="rectGateTableHeader"
             style="fill:#c8beb7;fill-opacity:0.239216;stroke:#4d4d4d;stroke-width:0.909005;stroke-linecap:round;stroke-linejoin:bevel;stroke-miterlimit:4;stroke-dasharray:none;stroke-dashoffset:0;stroke-opacity:1"
             rx="0.16663547" />
          <text
             x="1371.6237"
             y="522.52124"
             font-size="11.647px"
             style="font-size:45.5752px;line-height:1.25;font-family:sans-serif;fill:#000000;stroke-width:1.1394"
             xml:space="preserve"
             id="textGateTableHeader"><tspan
               x="1371.6237"
               y="522.52124"
               font-size="2.3294px"
               style="font-size:9.11504px;font-family:sans-serif;font-variant-ligatures:normal;font-variant-caps:normal;font-variant-numeric:normal;stroke-width:1.5705"
               id="tspanGateTableHeader">Route</tspan></text>
        </g>
        <g
           id="gGateTableRow">
          <rect
             ry="0.16663547"
             y="527.29102"
             x="1369.0986"
             height="16.377625"
             width="67.89666"
             id="rectGateTableRow"
             style="fill:none;fill-opacity:0.239216;stroke:#4d4d4d;stroke-width:0.908999;stroke-linecap:round;stroke-linejoin:bevel;stroke-miterlimit:4;stroke-dasharray:none;stroke-dashoffset:0;stroke-opacity:1"
             rx="0.16663547" />
          <text
             x="1522.3903"
             y="539.95697"
             font-size="3.2px"
             style="font-size:12.5217px;line-height:1.25;font-family:sans-serif;text-align:end;text-anchor:end;fill:#0055d4;stroke-width:1.5705"
             xml:space="preserve"
             id="textGateTableRow"><tspan
               x="1431.1908"
               y="539.95697"
               font-size="3.2108px"
               style="font-size:12.564px;font-family:sans-serif;font-variant-ligatures:normal;font-variant-caps:normal;font-variant-numeric:normal;text-align:end;text-anchor:end;fill:#0055d4;stroke-width:1.5705"
               id="tspanGateTableRow"
               chid="row0/route">...</tspan></text>
        </g>
        <g
           id="g15"
           transform="translate(0,16.231224)">
          <rect
             ry="0.16663547"
             y="527.29102"
             x="1369.0986"
             height="16.377625"
             width="67.89666"
             id="rect14"
             style="fill:none;fill-opacity:0.239216;stroke:#4d4d4d;stroke-width:0.908999;stroke-linecap:round;stroke-linejoin:bevel;stroke-miterlimit:4;stroke-dasharray:none;stroke-dashoffset:0;stroke-opacity:1"
             rx="0.16663547" />
          <text
             x="1522.3903"
             y="539.95697"
             font-size="3.2px"
             style="font-size:12.5217px;line-height:1.25;font-family:sans-serif;text-align:end;text-anchor:end;fill:#0055d4;stroke-width:1.5705"
             xml:space="preserve"
             id="text14"><tspan
               x="1431.1908"
               y="539.95697"
               font-size="3.2108px"
               style="font-size:12.564px;font-family:sans-serif;font-variant-ligatures:normal;font-variant-caps:normal;font-variant-numeric:normal;text-align:end;text-anchor:end;fill:#0055d4;stroke-width:1.5705"
               id="tspan14"
               chid="row1/route">...</tspan></text>
        </g>
        <g
           id="g16"
           transform="translate(0,32.462456)">
          <rect
             ry="0.16663547"
             y="527.29102"
             x="1369.0986"
             height="16.377625"
             width="67.89666"
             id="rect15"
             style="fill:none;fill-opacity:0.239216;stroke:#4d4d4d;stroke-width:0.908999;stroke-linecap:round;stroke-linejoin:bevel;stroke-miterlimit:4;stroke-dasharray:none;stroke-dashoffset:0;stroke-opacity:1"
             rx="0.16663547" />
          <text
             x="1522.3903"
             y="539.95697"
             font-size="3.2px"
             style="font-size:12.5217px;line-height:1.25;font-family:sans-serif;text-align:end;text-anchor:end;fill:#0055d4;stroke-width:1.5705"
             xml:space="preserve"
             id="text15"><tspan
               x="1431.1908"
               y="539.95697"
               font-size="3.2108px"
               style="font-size:12.564px;font-family:sans-serif;font-variant-ligatures:normal;font-variant-caps:normal;font-variant-numeric:normal;text-align:end;text-anchor:end;fill:#0055d4;stroke-width:1.5705"
               id="tspan15"
               chid="row2/route">...</tspan></text>
        </g>
        <g
           id="g17"
           transform="translate(67.896606)">
          <rect
             ry="0.16663547"
             y="511.05978"
             x="1369.0986"
             height="16.231232"
             width="67.896606"
             id="rect16"
             style="fill:#c8beb7;fill-opacity:0.239216;stroke:#4d4d4d;stroke-width:0.909005;stroke-linecap:round;stroke-linejoin:bevel;stroke-miterlimit:4;stroke-dasharray:none;stroke-dashoffset:0;stroke-opacity:1"
             rx="0.16663547" />
          <text
             x="1371.6237"
             y="522.52124"
             font-size="11.647px"
             style="font-size:45.5752px;line-height:1.25;font-family:sans-serif;fill:#000000;stroke-width:1.1394"
             xml:space="preserve"
             id="text16"><tspan
               x="1371.6237"
               y="522.52124"
               font-size="2.3294px"
               style="font-size:9.11504px;font-family:sans-serif;font-variant-ligatures:normal;font-variant-caps:normal;font-variant-numeric:normal;stroke-width:1.5705"
               id="tspan16">Time</tspan></text>
        </g>
        <g
           id="g18"
           transform="translate(67.896606)">
          <rect
             ry="0.16663547"
             y="527.29102"
             x="1369.0986"
             height="16.377625"
             width="67.89666"
             id="rect17"
             style="fill:none;fill-opacity:0.239216;stroke:#4d4d4d;stroke-width:0.908999;stroke-linecap:round;stroke-linejoin:bevel;stroke-miterlimit:4;stroke-dasharray:none;stroke-dashoffset:0;stroke-opacity:1"
             rx="0.16663547" />
          <text
             x="1522.3903"
             y="539.95697"
             font-size="3.2px"
             style="font-size:12.5217px;line-height:1.25;font-family:sans-serif;text-align:end;text-anchor:end;fill:#0055d4;stroke-width:1.5705"
             xml:space="preserve"
             id="text17"><tspan
               x="1431.1908"
               y="539.95697"
               font-size="3.2108px"
               style="font-size:12.564px;font-family:sans-serif;font-variant-ligatures:normal;font-variant-caps:normal;font-variant-numeric:normal;text-align:end;text-anchor:end;fill:#0055d4;stroke-width:1.5705"
               id="tspan17"
               chid="row0/timeCreated">...</tspan></text>
        </g>
        <g
           id="g19"
           transform="translate(67.896606,16.231224)">
          <rect
             ry="0.16663547"
             y="527.29102"
             x="1369.0986"
             height="16.377625"
             width="67.89666"
             id="rect18"
             style="fill:none;fill-opacity:0.239216;stroke:#4d4d4d;stroke-width:0.908999;stroke-linecap:round;stroke-linejoin:bevel;stroke-miterlimit:4;stroke-dasharray:none;stroke-dashoffset:0;stroke-opacity:1"
             rx="0.16663547" />
          <text
             x="1522.3903"
             y="539.95697"
             font-size="3.2px"
             style="font-size:12.5217px;line-height:1.25;font-family:sans-serif;text-align:end;text-anchor:end;fill:#0055d4;stroke-width:1.5705"
             xml:space="preserve"
             id="text18"><tspan
               x="1431.1908"
               y="539.95697"
               font-size="3.2108px"
               style="font-size:12.564px;font-family:sans-serif;font-variant-ligatures:normal;font-variant-caps:normal;font-variant-numeric:normal;text-align:end;text-anchor:end;fill:#0055d4;stroke-width:1.5705"
               id="tspan18"
               chid="row1/timeCreated">...</tspan></text>
        </g>
        <g
           id="g20"
           transform="translate(67.896606,32.462456)">
          <rect
             ry="0.16663547"
             y="527.29102"
             x="1369.0986"
             height="16.377625"
             width="67.89666"
             id="rect19"
             style="fill:none;fill-opacity:0.239216;stroke:#4d4d4d;stroke-width:0.908999;stroke-linecap:round;stroke-linejoin:bevel;stroke-miterlimit:4;stroke-dasharray:none;stroke-dashoffset:0;stroke-opacity:1"
             rx="0.16663547" />
          <text
             x="1522.3903"
             y="539.95697"
             font-size="3.2px"
             style="font-size:12.5217px;line-height:1.25;font-family:sans-serif;text-align:end;text-anchor:end;fill:#0055d4;stroke-width:1.5705"
             xml:space="preserve"
             id="text19"><tspan
               x="1431.1908"
               y="539.95697"
               font-size="3.2108px"
               style="font-size:12.564px;font-family:sans-serif;font-variant-ligatures:normal;font-variant-caps:normal;font-variant-numeric:normal;text-align:end;text-anchor:end;fill:#0055d4;stroke-width:1.5705"
               id="tspan19"
               chid="row2/timeCreated">...</tspan></text>
        </g>
        <g
           id="g21"
           transform="translate(135.79321)">
          <rect
             ry="0.16663547"
             y="511.05978"
             x="1369.0986"
             height="16.231232"
             width="67.896606"
             id="rect20"
             style="fill:#c8beb7;fill-opacity:0.239216;stroke:#4d4d4d;stroke-width:0.909005;stroke-linecap:round;stroke-linejoin:bevel;stroke-miterlimit:4;stroke-dasharray:none;stroke-dashoffset:0;stroke-opacity:1"
             rx="0.16663547" />
          <text
             x="1371.6237"
             y="522.52124"
             font-size="11.647px"
             style="font-size:45.5752px;line-height:1.25;font-family:sans-serif;fill:#000000;stroke-width:1.1394"
             xml:space="preserve"
             id="text20"><tspan
               x="1371.6237"
               y="522.52124"
               font-size="2.3294px"
               style="font-size:9.11504px;font-family:sans-serif;font-variant-ligatures:normal;font-variant-caps:normal;font-variant-numeric:normal;stroke-width:1.5705"
               id="tspan20">Line number</tspan></text>
        </g>
        <g
           id="g22"
           transform="translate(135.79321)">
          <rect
             ry="0.16663547"
             y="527.29102"
             x="1369.0986"
             height="16.377625"
             width="67.89666"
             id="rect21"
             style="fill:none;fill-opacity:0.239216;stroke:#4d4d4d;stroke-width:0.908999;stroke-linecap:round;stroke-linejoin:bevel;stroke-miterlimit:4;stroke-dasharray:none;stroke-dashoffset:0;stroke-opacity:1"
             rx="0.16663547" />
          <text
             x="1522.3903"
             y="539.95697"
             font-size="3.2px"
             style="font-size:12.5217px;line-height:1.25;font-family:sans-serif;text-align:end;text-anchor:end;fill:#0055d4;stroke-width:1.5705"
             xml:space="preserve"
             id="text21"><tspan
               x="1431.1908"
               y="539.95697"
               font-size="3.2108px"
               style="font-size:12.564px;font-family:sans-serif;font-variant-ligatures:normal;font-variant-caps:normal;font-variant-numeric:normal;text-align:end;text-anchor:end;fill:#0055d4;stroke-width:1.5705"
               id="tspan21"
               chid="row0/lineNumber">...</tspan></text>
        </g>
        <g
           id="g23"
           transform="translate(135.79321,16.231224)">
          <rect
             ry="0.16663547"
             y="527.29102"
             x="1369.0986"
             height="16.377625"
             width="67.89666"
             id="rect22"
             style="fill:none;fill-opacity:0.239216;stroke:#4d4d4d;stroke-width:0.908999;stroke-linecap:round;stroke-linejoin:bevel;stroke-miterlimit:4;stroke-dasharray:none;stroke-dashoffset:0;stroke-opacity:1"
             rx="0.16663547" />
          <text
             x="1522.3903"
             y="539.95697"
             font-size="3.2px"
             style="font-size:12.5217px;line-height:1.25;font-family:sans-serif;text-align:end;text-anchor:end;fill:#0055d4;stroke-width:1.5705"
             xml:space="preserve"
             id="text22"><tspan
               x="1431.1908"
               y="539.95697"
               font-size="3.2108px"
               style="font-size:12.564px;font-family:sans-serif;font-variant-ligatures:normal;font-variant-caps:normal;font-variant-numeric:normal;text-align:end;text-anchor:end;fill:#0055d4;stroke-width:1.5705"
               id="tspan22"
               chid="row1/lineNumber">...</tspan></text>
        </g>
        <g
           id="g24"
           transform="translate(135.79321,32.462456)">
          <rect
             ry="0.16663547"
             y="527.29102"
             x="1369.0986"
             height="16.377625"
             width="67.89666"
             id="rect23"
             style="fill:none;fill-opacity:0.239216;stroke:#4d4d4d;stroke-width:0.908999;stroke-linecap:round;stroke-linejoin:bevel;stroke-miterlimit:4;stroke-dasharray:none;stroke-dashoffset:0;stroke-opacity:1"
             rx="0.16663547" />
          <text
             x="1522.3903"
             y="539.95697"
             font-size="3.2px"
             style="font-size:12.5217px;line-height:1.25;font-family:sans-serif;text-align:end;text-anchor:end;fill:#0055d4;stroke-width:1.5705"
             xml:space="preserve"
             id="text23"><tspan
               x="1431.1908"
               y="539.95697"
               font-size="3.2108px"
               style="font-size:12.564px;font-family:sans-serif;font-variant-ligatures:normal;font-variant-caps:normal;font-variant-numeric:normal;text-align:end;text-anchor:end;fill:#0055d4;stroke-width:1.5705"
               id="tspan23"
               chid="row2/lineNumber">...</tspan></text>
        </g>
        <rect
           chid="boundingBox"
           style="opacity:1;fill:none;fill-opacity:1;stroke:#000000;stroke-width:1.061;stroke-miterlimit:4;stroke-dasharray:none;stroke-dashoffset:0;stroke-opacity:1"
           id="rectGateTableBoundingBox"
           width="203.68982"
           height="64.924927"
           x="1369.0986"
           y="511.05978" />
      </g>
    </g>
    <g
       transform="translate(-49.307733,569.16575)"
       shvVisuType="GateData"
       shvPath="devices/zone/ZoneB/gate/BG24"
       id="g38"
       shvDeviceType="Gate_G3"
       shvVisuTypeVariant="Template">
      <text
         x="891.97131"
         y="518.67572"
         font-size="3.1059px"
         style="font-size:12.1535px;line-height:1.25;font-family:sans-serif;font-variant-ligatures:normal;font-variant-caps:normal;font-variant-numeric:normal;fill:#000000;stroke-width:1.1394"
         xml:space="preserve"
         id="text24"><tspan
           style="font-size:16px;stroke-width:1.1394"
           x="891.97131"
           y="518.67572"
           id="tspan24"
           shvAlarmPosition="right">BG24</tspan></text>
      <g
         id="g37"
         transform="translate(-478.65168,16.191803)">
        <g
           id="g25">
          <rect
             ry="0.16663547"
             y="511.05978"
             x="1369.0986"
             height="16.231232"
             width="67.896606"
             id="rect24"
             style="fill:#c8beb7;fill-opacity:0.239216;stroke:#4d4d4d;stroke-width:0.909005;stroke-linecap:round;stroke-linejoin:bevel;stroke-miterlimit:4;stroke-dasharray:none;stroke-dashoffset:0;stroke-opacity:1"
             rx="0.16663547" />
          <text
             x="1371.6237"
             y="522.52124"
             font-size="11.647px"
             style="font-size:45.5752px;line-height:1.25;font-family:sans-serif;fill:#000000;stroke-width:1.1394"
             xml:space="preserve"
             id="text25"><tspan
               x="1371.6237"
               y="522.52124"
               font-size="2.3294px"
               style="font-size:9.11504px;font-family:sans-serif;font-variant-ligatures:normal;font-variant-caps:normal;font-variant-numeric:normal;stroke-width:1.5705"
               id="tspan25">Route</tspan></text>
        </g>
        <g
           id="g26">
          <rect
             ry="0.16663547"
             y="527.29102"
             x="1369.0986"
             height="16.377625"
             width="67.89666"
             id="rect25"
             style="fill:none;fill-opacity:0.239216;stroke:#4d4d4d;stroke-width:0.908999;stroke-linecap:round;stroke-linejoin:bevel;stroke-miterlimit:4;stroke-dasharray:none;stroke-dashoffset:0;stroke-opacity:1"
             rx="0.16663547" />
          <text
             x="1522.3903"
             y="539.95697"
             font-size="3.2px"
             style="font-size:12.5217px;line-height:1.25;font-family:sans-serif;text-align:end;text-anchor:end;fill:#0055d4;stroke-width:1.5705"
             xml:space="preserve"
             id="text26"><tspan
               x="1431.1908"
               y="539.95697"
               font-size="3.2108px"
               style="font-size:12.564px;font-family:sans-serif;font-variant-ligatures:normal;font-variant-caps:normal;font-variant-numeric:normal;text-align:end;text-anchor:end;fill:#0055d4;stroke-width:1.5705"
               id="tspan26"
               chid="row0/route">...</tspan></text>
        </g>
        <g
           id="g27"
           transform="translate(0,16.231224)">
          <rect
             ry="0.16663547"
             y="527.29102"
             x="1369.0986"
             height="16.377625"
             width="67.89666"
             id="rect26"
             style="fill:none;fill-opacity:0.239216;stroke:#4d4d4d;stroke-width:0.908999;stroke-linecap:round;stroke-linejoin:bevel;stroke-miterlimit:4;stroke-dasharray:none;stroke-dashoffset:0;stroke-opacity:1"
             rx="0.16663547" />
          <text
             x="1522.3903"
             y="539.95697"
             font-size="3.2px"
             style="font-size:12.5217px;line-height:1.25;font-family:sans-serif;text-align:end;text-anchor:end;fill:#0055d4;stroke-width:1.5705"
             xml:space="preserve"
             id="text27"><tspan
               x="1431.1908"
               y="539.95697"
               font-size="3.2108px"
               style="font-size:12.564px;font-family:sans-serif;font-variant-ligatures:normal;font-variant-caps:normal;font-variant-numeric:normal;text-align:end;text-anchor:end;fill:#0055d4;stroke-width:1.5705"
               id="tspan27"
               chid="row1/route">...</tspan></text>
        </g>
        <g
           id="g28"
           transform="translate(0,32.462456)">
          <rect
             ry="0.16663547"
             y="527.29102"
             x="1369.0986"
             height="16.377625"
             width="67.89666"
             id="rect27"
             style="fill:none;fill-opacity:0.239216;stroke:#4d4d4d;stroke-width:0.908999;stroke-linecap:round;stroke-linejoin:bevel;stroke-miterlimit:4;stroke-dasharray:none;stroke-dashoffset:0;stroke-opacity:1"
             rx="0.16663547" />
          <text
             x="1522.3903"
             y="539.95697"
             font-size="3.2px"
             style="font-size:12.5217px;line-height:1.25;font-family:sans-serif;text-align:end;text-anchor:end;fill:#0055d4;stroke-width:1.5705"
             xml:space="preserve"
             id="text28"><tspan
               x="1431.1908"
               y="539.95697"
               font-size="3.2108px"
               style="font-size:12.564px;font-family:sans-serif;font-variant-ligatures:normal;font-variant-caps:normal;font-variant-numeric:normal;text-align:end;text-anchor:end;fill:#0055d4;stroke-width:1.5705"
               id="tspan28"
               chid="row2/route">...</tspan></text>
        </g>
        <g
           id="g29"
           transform="translate(67.896606)">
          <rect
             ry="0.16663547"
             y="511.05978"
             x="1369.0986"
             height="16.231232"
             width="67.896606"
             id="rect28"
             style="fill:#c8beb7;fill-opacity:0.239216;stroke:#4d4d4d;stroke-width:0.909005;stroke-linecap:round;stroke-linejoin:bevel;stroke-miterlimit:4;stroke-dasharray:none;stroke-dashoffset:0;stroke-opacity:1"
             rx="0.16663547" />
          <text
             x="1371.6237"
             y="522.52124"
             font-size="11.647px"
             style="font-size:45.5752px;line-height:1.25;font-family:sans-serif;fill:#000000;stroke-width:1.1394"
             xml:space="preserve"
             id="text29"><tspan
               x="1371.6237"
               y="522.52124"
               font-size="2.3294px"
               style="font-size:9.11504px;font-family:sans-serif;font-variant-ligatures:normal;font-variant-caps:normal;font-variant-numeric:normal;stroke-width:1.5705"
               id="tspan29">Time</tspan></text>
        </g>
        <g
           id="g30"
           transform="translate(67.896606)">
          <rect
             ry="0.16663547"
             y="527.29102"
             x="1369.0986"
             height="16.377625"
             width="67.89666"
             id="rect29"
             style="fill:none;fill-opacity:0.239216;stroke:#4d4d4d;stroke-width:0.908999;stroke-linecap:round;stroke-linejoin:bevel;stroke-miterlimit:4;stroke-dasharray:none;stroke-dashoffset:0;stroke-opacity:1"
             rx="0.16663547" />
          <text
             x="1522.3903"
             y="539.95697"
             font-size="3.2px"
             style="font-size:12.5217px;line-height:1.25;font-family:sans-serif;text-align:end;text-anchor:end;fill:#0055d4;stroke-width:1.5705"
             xml:space="preserve"
             id="text30"><tspan
               x="1431.1908"
               y="539.95697"
               font-size="3.2108px"
               style="font-size:12.564px;font-family:sans-serif;font-variant-ligatures:normal;font-variant-caps:normal;font-variant-numeric:normal;text-align:end;text-anchor:end;fill:#0055d4;stroke-width:1.5705"
               id="tspan30"
               chid="row0/timeCreated">...</tspan></text>
        </g>
        <g
           id="g31"
           transform="translate(67.896606,16.231224)">
          <rect
             ry="0.16663547"
             y="527.29102"
             x="1369.0986"
             height="16.377625"
             width="67.89666"
             id="rect30"
             style="fill:none;fill-opacity:0.239216;stroke:#4d4d4d;stroke-width:0.908999;stroke-linecap:round;stroke-linejoin:bevel;stroke-miterlimit:4;stroke-dasharray:none;stroke-dashoffset:0;stroke-opacity:1"
             rx="0.16663547" />
          <text
             x="1522.3903"
             y="539.95697"
             font-size="3.2px"
             style="font-size:12.5217px;line-height:1.25;font-family:sans-serif;text-align:end;text-anchor:end;fill:#0055d4;stroke-width:1.5705"
             xml:space="preserve"
             id="text31"><tspan
               x="1431.1908"
               y="539.95697"
               font-size="3.2108px"
               style="font-size:12.564px;font-family:sans-serif;font-variant-ligatures:normal;font-variant-caps:normal;font-variant-numeric:normal;text-align:end;text-anchor:end;fill:#0055d4;stroke-width:1.5705"
               id="tspan31"
               chid="row1/timeCreated">...</tspan></text>
        </g>
        <g
           id="g32"
           transform="translate(67.896606,32.462456)">
          <rect
             ry="0.16663547"
             y="527.29102"
             x="1369.0986"
             height="16.377625"
             width="67.89666"
             id="rect31"
             style="fill:none;fill-opacity:0.239216;stroke:#4d4d4d;stroke-width:0.908999;stroke-linecap:round;stroke-linejoin:bevel;stroke-miterlimit:4;stroke-dasharray:none;stroke-dashoffset:0;stroke-opacity:1"
             rx="0.16663547" />
          <text
             x="1522.3903"
             y="539.95697"
             font-size="3.2px"
             style="font-size:12.5217px;line-height:1.25;font-family:sans-serif;text-align:end;text-anchor:end;fill:#0055d4;stroke-width:1.5705"
             xml:space="preserve"
             id="text32"><tspan
               x="1431.1908"
               y="539.95697"
               font-size="3.2108px"
               style="font-size:12.564px;font-family:sans-serif;font-variant-ligatures:normal;font-variant-caps:normal;font-variant-numeric:normal;text-align:end;text-anchor:end;fill:#0055d4;stroke-width:1.5705"
               id="tspan32"
               chid="row2/timeCreated">...</tspan></text>
        </g>
        <g
           id="g33"
           transform="translate(135.79321)">
          <rect
             ry="0.16663547"
             y="511.05978"
             x="1369.0986"
             height="16.231232"
             width="67.896606"
             id="rect32"
             style="fill:#c8beb7;fill-opacity:0.239216;stroke:#4d4d4d;stroke-width:0.909005;stroke-linecap:round;stroke-linejoin:bevel;stroke-miterlimit:4;stroke-dasharray:none;stroke-dashoffset:0;stroke-opacity:1"
             rx="0.16663547" />
          <text
             x="1371.6237"
             y="522.52124"
             font-size="11.647px"
             style="font-size:45.5752px;line-height:1.25;font-family:sans-serif;fill:#000000;stroke-width:1.1394"
             xml:space="preserve"
             id="text33"><tspan
               x="1371.6237"
               y="522.52124"
               font-size="2.3294px"
               style="font-size:9.11504px;font-family:sans-serif;font-variant-ligatures:normal;font-variant-caps:normal;font-variant-numeric:normal;stroke-width:1.5705"
               id="tspan33">Line number</tspan></text>
        </g>
        <g
           id="g34"
           transform="translate(135.79321)">
          <rect
             ry="0.16663547"
             y="527.29102"
             x="1369.0986"
             height="16.377625"
             width="67.89666"
             id="rect33"
             style="fill:none;fill-opacity:0.239216;stroke:#4d4d4d;stroke-width:0.908999;stroke-linecap:round;stroke-linejoin:bevel;stroke-miterlimit:4;stroke-dasharray:none;stroke-dashoffset:0;stroke-opacity:1"
             rx="0.16663547" />
          <text
             x="1522.3903"
             y="539.95697"
             font-size="3.2px"
             style="font-size:12.5217px;line-height:1.25;font-family:sans-serif;text-align:end;text-anchor:end;fill:#0055d4;stroke-width:1.5705"
             xml:space="preserve"
             id="text34"><tspan
               x="1431.1908"
               y="539.95697"
               font-size="3.2108px"
               style="font-size:12.564px;font-family:sans-serif;font-variant-ligatures:normal;font-variant-caps:normal;font-variant-numeric:normal;text-align:end;text-anchor:end;fill:#0055d4;stroke-width:1.5705"
               id="tspan34"
               chid="row0/lineNumber">...</tspan></text>
        </g>
        <g
           id="g35"
           transform="translate(135.79321,16.231224)">
          <rect
             ry="0.16663547"
             y="527.29102"
             x="1369.0986"
             height="16.377625"
             width="67.89666"
             id="rect34"
             style="fill:none;fill-opacity:0.239216;stroke:#4d4d4d;stroke-width:0.908999;stroke-linecap:round;stroke-linejoin:bevel;stroke-miterlimit:4;stroke-dasharray:none;stroke-dashoffset:0;stroke-opacity:1"
             rx="0.16663547" />
          <text
             x="1522.3903"
             y="539.95697"
             font-size="3.2px"
             style="font-size:12.5217px;line-height:1.25;font-family:sans-serif;text-align:end;text-anchor:end;fill:#0055d4;stroke-width:1.5705"
             xml:space="preserve"
             id="text35"><tspan
               x="1431.1908"
               y="539.95697"
               font-size="3.2108px"
               style="font-size:12.564px;font-family:sans-serif;font-variant-ligatures:normal;font-variant-caps:normal;font-variant-numeric:normal;text-align:end;text-anchor:end;fill:#0055d4;stroke-width:1.5705"
               id="tspan35"
               chid="row1/lineNumber">...</tspan></text>
        </g>
        <g
           id="g36"
           transform="translate(135.79321,32.462456)">
          <rect
             ry="0.16663547"
             y="527.29102"
             x="1369.0986"
             height="16.377625"
             width="67.89666"
             id="rect35"
             style="fill:none;fill-opacity:0.239216;stroke:#4d4d4d;stroke-width:0.908999;stroke-linecap:round;stroke-linejoin:bevel;stroke-miterlimit:4;stroke-dasharray:none;stroke-dashoffset:0;stroke-opacity:1"
             rx="0.16663547" />
          <text
             x="1522.3903"
             y="539.95697"
             font-size="3.2px"
             style="font-size:12.5217px;line-height:1.25;font-family:sans-serif;text-align:end;text-anchor:end;fill:#0055d4;stroke-width:1.5705"
             xml:space="preserve"
             id="text36"><tspan
               x="1431.1908"
               y="539.95697"
               font-size="3.2108px"
               style="font-size:12.564px;font-family:sans-serif;font-variant-ligatures:normal;font-variant-caps:normal;font-variant-numeric:normal;text-align:end;text-anchor:end;fill:#0055d4;stroke-width:1.5705"
               id="tspan36"
               chid="row2/lineNumber">...</tspan></text>
        </g>
        <rect
           chid="boundingBox"
           style="opacity:1;fill:none;fill-opacity:1;stroke:#000000;stroke-width:1.061;stroke-miterlimit:4;stroke-dasharray:none;stroke-dashoffset:0;stroke-opacity:1"
           id="rect36"
           width="203.68982"
           height="64.924927"
           x="1369.0986"
           y="511.05978" />
      </g>
    </g>
  </g>
  <g
     inkscape:groupmode="layer"
     id="layer23"
     inkscape:label="Detector"
     style="display:inline"
     transform="translate(-593.61972,-679.92111)">
    <g
       transform="translate(324.65342,217.81806)"
       id="g1006"
       shvPath="devices/detector/TC63"
       shvDeviceType="TC_G3"
       shvVisuType="Detector">
      <text
         x="435.80777"
         y="647.24426"
         font-size="3.1059px"
         style="font-size:12.1535px;line-height:1.25;font-family:sans-serif;font-variant-ligatures:normal;font-variant-caps:normal;font-variant-numeric:normal;fill:#000000;stroke-width:1.1394"
         xml:space="preserve"
         id="text955-3"><tspan
           shvAlarmPosition="right"
           x="435.80777"
           y="647.24426"
           font-size="3.1059px"
           style="font-size:16px;font-family:sans-serif;font-variant-ligatures:normal;font-variant-caps:normal;font-variant-numeric:normal;stroke-width:1.1394"
           id="tspan953-6">TC63</tspan></text>
      <path
         chid="detector"
         style="fill:#ffcc00;fill-opacity:0.241265;stroke:#bf9c0b;stroke-width:3;stroke-linejoin:bevel;stroke-miterlimit:4;stroke-dasharray:none;stroke-opacity:1"
         inkscape:connector-curvature="0"
         id="path887"
         d="m 427.45573,654.97084 v 39.13042 h 57.55192 v -39.13042 z" />
    </g>
    <g
       transform="rotate(90,373.40615,1003.7998)"
       id="g53"
       shvPath="devices/detector/TC74"
       shvDeviceType="TC_G3"
       shvVisuType="Detector">
      <text
         x="-616.74518"
         y="376.93744"
         font-size="3.1059px"
         style="font-size:12.1535px;line-height:1.25;font-family:sans-serif;font-variant-ligatures:normal;font-variant-caps:normal;font-variant-numeric:normal;fill:#000000;stroke-width:1.1394"
         xml:space="preserve"
         id="text52"
         transform="rotate(-90)"><tspan
           shvAlarmPosition="right"
           x="-616.74518"
           y="376.93744"
           font-size="3.1059px"
           style="font-size:16px;font-family:sans-serif;font-variant-ligatures:normal;font-variant-caps:normal;font-variant-numeric:normal;stroke-width:1.1394"
           id="tspan52">TC74</tspan></text>
      <path
         chid="detector"
         style="fill:#ffcc00;fill-opacity:0.241265;stroke:#bf9c0b;stroke-width:3;stroke-linejoin:bevel;stroke-miterlimit:4;stroke-dasharray:none;stroke-opacity:1"
         inkscape:connector-curvature="0"
         id="path52"
         d="m 384.664,625.09691 h 39.13043 V 567.54499 H 384.664 Z" />
    </g>
  </g>
  <g
     inkscape:groupmode="layer"
     id="layer24"
     inkscape:label="Cabinet"
     style="display:inline"
     transform="translate(-593.61972,-679.92111)">
    <g
       id="g1240"
       shvPath="devices/cabinet/SIG1_B"
       transform="translate(176.132,1139.9639)"
       shvDeviceType="Cabinet_G3"
       shvVisuType="Cabinet">
      <text
         x="468.88641"
         y="45.353493"
         font-size="3.1059px"
         style="font-size:12.1535px;line-height:1.25;font-family:sans-serif;font-variant-ligatures:normal;font-variant-caps:normal;font-variant-numeric:normal;fill:#000000;stroke-width:1.1394"
         xml:space="preserve"
         id="text955"><tspan
           x="468.88641"
           y="45.353493"
           font-size="3.1059px"
           style="font-size:16px;font-family:sans-serif;font-variant-ligatures:normal;font-variant-caps:normal;font-variant-numeric:normal;stroke-width:1.1394"
           id="tspan953"
           shvAlarmPosition="right">SIG1_B</tspan></text>
      <g
         id="g1230"
         transform="rotate(180,496.95529,75.068728)">
        <path
           sodipodi:nodetypes="ccccc"
           style="opacity:1;vector-effect:none;fill:#c8beb7;fill-opacity:0.239216;stroke:#4d4d4d;stroke-width:0.909;stroke-linecap:round;stroke-linejoin:bevel;stroke-miterlimit:4;stroke-dasharray:none;stroke-dashoffset:0;stroke-opacity:1"
           inkscape:connector-curvature="0"
           id="path1486"
           d="m 523.37835,99.43313 -52.86828,-0.005 0.002,-22.28752 52.86828,0.005 z"
           chid="box" />
        <g
           style="fill:none;stroke:#ff2a2a;stroke-width:0.410168;stroke-miterlimit:4;stroke-dasharray:none"
           id="g1492"
           chid="doors"
           transform="matrix(3.5276366e-4,-3.4343434,3.4343434,3.5276366e-4,-229.67423,473.66487)">
          <path
             style="stroke:#ff2a2a;stroke-width:0.410168;stroke-miterlimit:4;stroke-dasharray:none"
             inkscape:connector-curvature="0"
             id="path1488"
             d="m 115.48,219.26 5.4427,5.4427 a 7.6971,7.6971 0 0 0 2.2544,-5.4427 7.6971,7.6971 0 0 0 -7.6972,-7.6972 v 7.6972" />
          <path
             style="stroke:#ff2a2a;stroke-width:0.410168;stroke-miterlimit:4;stroke-dasharray:none"
             inkscape:connector-curvature="0"
             id="path1490"
             d="m 115.48,203.87 5.4427,-5.4427 a 7.6971,7.6971 0 0 1 2.2544,5.4427 7.6971,7.6971 0 0 1 -7.6972,7.6972 V 203.87" />
        </g>
        <path
           id="path1215"
           style="fill:none;stroke:#4d4d4d;stroke-width:1px;stroke-linecap:butt;stroke-linejoin:miter;stroke-opacity:1"
           d="m 470.5261,77.138812 52.85225,22.294318 v 0 0 0 0 m 0.002,-22.288889 -52.87057,22.283889"
           inkscape:connector-curvature="0" />
      </g>
    </g>
  </g>
  <g
     inkscape:groupmode="layer"
     id="layer25"
     inkscape:label="VisibleBoolProperty"
     transform="translate(-593.61972,-679.92111)" />
  <g
     inkscape:groupmode="layer"
     id="layer27"
     inkscape:label="VehicleCounter"
     style="display:inline"
     transform="translate(-593.61972,-679.92111)" />
  <g
     inkscape:groupmode="layer"
     id="layer28"
     inkscape:label="RfidData"
     style="display:inline"
     transform="translate(-593.61972,-679.92111)">
    <path
       chid="box"
       style="display:inline;fill:#121ea6;fill-opacity:0.44758;stroke:#000000;stroke-width:1.1394"
       inkscape:connector-curvature="0"
       id="path273-8-5"
       d="m 1031.7001,1015.6578 v 39.1303 h -26.6623 v -39.1303 z" />
    <text
       id="text276-1"
       xml:space="preserve"
       style="font-size:12.1535px;line-height:1.25;font-family:sans-serif;font-variant-ligatures:normal;font-variant-caps:normal;font-variant-numeric:normal;display:inline;fill:#000000;stroke-width:1.1394"
       font-size="3.1059px"
       y="1007.0881"
       x="997.73846"><tspan
         shvAlarmPosition="right"
         id="tspan276-8"
         y="1007.0881"
         x="997.73846"
         style="font-size:16px;stroke-width:1.1394">MP11</tspan></text>
    <g
       transform="translate(195.1895,-823.66349)"
       id="g1970-6"
       shvPath="devices/gpio/GPIO_B"
       shvPropertyPath="inputs/IN-PWR-MO-2"
       shvVisuType="VisibleBoolProperty"
       style="display:inline">
      <g
         id="g1946-9"
         chid="onTrue">
        <g
           id="g2171-6-8"
           style="display:inline"
           transform="matrix(3.7795276,0,0,3.7795276,587.11007,64.51833)"
           chid="lines">
          <path
             style="display:inline;fill:none;fill-opacity:1;stroke:#ffffff;stroke-width:1.823;stroke-linecap:butt;stroke-linejoin:miter;stroke-miterlimit:0;stroke-dasharray:none;stroke-dashoffset:0;stroke-opacity:1"
             d="m 107.06098,474.6011 -147.898319,0"
             id="path472-6"
             inkscape:connector-curvature="0"
             sodipodi:nodetypes="cc" />
          <path
             style="display:inline;fill:none;fill-opacity:1;stroke:#ffffff;stroke-width:1.823;stroke-linecap:butt;stroke-linejoin:miter;stroke-miterlimit:0;stroke-dasharray:none;stroke-dashoffset:0;stroke-opacity:1"
             d="m 107.06098,474.6011 -57.89764,0.0345 -37.676402,-37.67637 -52.324277,0"
             id="path476-4"
             inkscape:connector-curvature="0"
             sodipodi:nodetypes="cccc" />
          <path
             sodipodi:nodetypes="cc"
             inkscape:connector-curvature="0"
             id="path478-3"
             d="M -40.837339,474.6011 H 107.06098"
             style="display:inline;fill:none;fill-opacity:1;stroke:#ffd300;stroke-width:1.723;stroke-linecap:butt;stroke-linejoin:miter;stroke-miterlimit:0;stroke-dasharray:2.60485, 2.60485;stroke-dashoffset:0;stroke-opacity:1" />
          <path
             style="display:inline;fill:none;fill-opacity:1;stroke:#ffffff;stroke-width:1.823;stroke-linecap:butt;stroke-linejoin:miter;stroke-miterlimit:0;stroke-dasharray:none;stroke-dashoffset:0;stroke-opacity:1"
             d="m -26.635093,468.16532 -0.05779,-29.46586"
             id="path484-52"
             inkscape:connector-curvature="0"
             sodipodi:nodetypes="cc" />
          <path
             sodipodi:nodetypes="ccc"
             inkscape:connector-curvature="0"
             id="path474-1"
             d="M -40.837339,436.95923 H 11.486938 L 49.16334,474.6356"
             style="display:inline;fill:none;fill-opacity:1;stroke:#ffd300;stroke-width:1.723;stroke-linecap:butt;stroke-linejoin:miter;stroke-miterlimit:0;stroke-dasharray:2.60485, 2.60485;stroke-dashoffset:0;stroke-opacity:1" />
        </g>
        <text
           id="text1191-7-3-6-7-2-3-6"
           xml:space="preserve"
           style="font-size:12.1535px;line-height:1.25;font-family:sans-serif;font-variant-ligatures:normal;font-variant-caps:normal;font-variant-numeric:normal;fill:#000000;stroke-width:1.1394"
           font-size="3.1059px"
           y="1792.9125"
           x="555.37115"><tspan
             shvAlarmPosition="right"
             id="tspan1189-5-1-1-5-7-5-9"
             y="1792.9125"
             x="555.37115"
             style="font-size:16px;stroke-width:1.1394">IN-PWR-MO-2</tspan></text>
      </g>
    </g>
  </g>
</svg>
