{
    "visuStyle": {
        "alarm": {
            "error": {"background": "#d20000"},
            "warning": {"background": "#db6f15"},
            "info": {"background": "#ccce16"},
        "symbolScale": 1

        },
        "KSW": {
            "resetPressed": {"background": "yellow"},
            "buttonPressed": {"background": "blue"},
            "noneButtonPressed": {"background": "white"}
        },
        "TC": {
            "occupied": {"background": "#ffff00c0", "outline": "yellow"},
            "free": {"background": "#ffffffc0"},
            "error": {"background": "#ff0000c0"}
        },
        "PPI": {
			"warning": {
			        "chambers": {"background": "black", "blinking": false}
			},
			"error": {
			        "chambers": {"background": "black", "blinking": false}
			}
		},
        "RequestorDigital": {
            "resetPressed": {"background": "yellow"},
            "buttonPressed": {"background": "blue"},
            "noneButtonPressed": {"background": "white"}
        },
        "TC_G3": {
            "occupied": {"background": "#ffff00c0", "outline": "yellow"},
            "free": {"background": "#ffffffc0"},
            "claimed": {"background": "#90EE90"}
        },
        "Signal_G3": {
            "ok": {
                 "chambers": {"background": "grey", "blinking": false}},
            "warning": {
                 "chambers": {"background": "grey", "blinking": false}},
            "error": {
                 "chambers": {"background": "grey", "blinking": false}}
        },
        "Detector": {
            "occupied": {"background": "#ffff00bf", "outline": "yellow"},
            "free": {"background": "#ffffffbf", "outline": "yellow"},
            "claimed": {"background": "#90ee90bf", "outline": "yellow"}
        }
    },
    "widgetStyle": {
        "defaultText": {
            "type": "text"
        },
        "boolText": {
            "type": "text",
            "states": [
            {"value": true, "style": {"text": "Yes"}},
            {"value": false, "style": {"text": "No"}}
            ]
        },
        "boolWarningText": {
            "type": "text",
            "states": [
            {"value": true, "style": {"color": "orange", "text": "Yes"}},
            {"value": false, "style": {"text": "No"}}
            ]
        },
        "boolErrorText": {
            "type": "text",
            "states": [
            {"value": true, "style": {"color": "red", "text": "Yes"}},
            {"value": false, "style": {"text": "No"}}
            ]
        },
        "zoneSPAD": {
            "type": "text",
            "states": [
            {"value": true, "style": {"background": "red", "color": "yellow", "text": "SPAD"}},
            {"value": false, "style": {"text": "No"}}
            ]
        },
        "activityLed": {
            "type": "led",
            "states": [
            {"value": true, "style": {"text": "Active", "color": "white", "background": "green"}},
            {"value": false, "style": {"text": "Off", "color": "white", "background": "gray"}}
            ]
        },
        "errorLed": {
            "type": "led",
            "states": [
            {"value": true, "style": {"text": "On", "color": "white", "background": "red"}},
            {"value": false, "style": {"text": "Off", "color": "white", "background": "gray"}}
            ]
        },
        "twilightSensor": {
            "type": "text",
            "states": [
            {"value": true, "style": {"text": "NIGHT"}},
            {"value": false, "style": {"text": "DAY"}}
            ]
        },
        "okLed": {
            "type": "led",
            "states": [
            {"value": true, "style": {"text": "On", "color": "white", "background": "green"}},
            {"value": false, "style": {"text": "Off", "color": "white", "background": "gray"}}
            ]
        }
    },

    "audioStyle": {
        "info": {
            "audioFile": ":/audio/info.wav"            
        },
        "warning": {
            "audioFile": ":/audio/warning.wav"
        },
        "error": {
            "audioFile": ":/audio/error.wav"
        }
    }
}
