{
    "HP3": {
        "syncPath": ".app/shvjournal"
    },
    "gps": [
        53.78444459527132, 20.499360696709232
    ],
    "name": "Dworzec Główny C1",
    "type": "GateTSC",
    "visu": {
        "svgPath": "_files/site.svg"
    }
}
