<?xml version="1.0" encoding="UTF-8" standalone="no"?>
<svg
   xmlns:dc="http://purl.org/dc/elements/1.1/"
   xmlns:cc="http://creativecommons.org/ns#"
   xmlns:rdf="http://www.w3.org/1999/02/22-rdf-syntax-ns#"
   xmlns:svg="http://www.w3.org/2000/svg"
   xmlns="http://www.w3.org/2000/svg"
   xmlns:sodipodi="http://sodipodi.sourceforge.net/DTD/sodipodi-0.dtd"
   xmlns:inkscape="http://www.inkscape.org/namespaces/inkscape"
   sodipodi:docname="site.svg"
   inkscape:version="1.0 (4035a4fb49, 2020-05-01)"
   id="svg-container"
   version="1.1"
   viewBox="0 0 230.49208 98.238826"
   height="371.29633"
   width="871.15118">
  <defs
     id="defs399" />
  <sodipodi:namedview
     inkscape:window-maximized="1"
     inkscape:window-y="1072"
     inkscape:window-x="-8"
     inkscape:window-height="1017"
     inkscape:window-width="1920"
     fit-margin-bottom="10"
     fit-margin-right="10"
     fit-margin-left="10"
     fit-margin-top="10"
     units="px"
     showgrid="false"
     inkscape:document-rotation="0"
     inkscape:current-layer="layer4"
     inkscape:document-units="px"
     inkscape:cy="154.50118"
     inkscape:cx="320.32933"
     inkscape:zoom="2.8"
     inkscape:pageshadow="2"
     inkscape:pageopacity="0.0"
     borderopacity="1.0"
     bordercolor="#666666"
     pagecolor="#ffffff"
     id="base" />
  <metadata
     id="metadata402">
    <rdf:RDF>
      <cc:Work
         rdf:about="">
        <dc:format>image/svg+xml</dc:format>
        <dc:type
           rdf:resource="http://purl.org/dc/dcmitype/StillImage" />
        <dc:title></dc:title>
      </cc:Work>
    </rdf:RDF>
  </metadata>
  <g
     inkscape:groupmode="layer"
     id="layer4"
     inkscape:label="all"
     transform="translate(-236.04554,-56.502489)"
     style="display:inline">
    <path
       sodipodi:nodetypes="cc"
       style="fill:none;stroke:#6e6e6e;stroke-width:3.16698;stroke-linecap:round"
       inkscape:connector-curvature="0"
       d="M 446.39478,135.05995 402.45269,134.9582"
       id="path913" />
    <path
       id="path913-8"
       d="M 446.39477,110.08039 H 262.12281"
       inkscape:connector-curvature="0"
       style="fill:none;stroke:#6e6e6e;stroke-width:3.16698;stroke-linecap:round"
       sodipodi:nodetypes="cc" />
    <path
       id="path913-80"
       d="m 402.45269,134.9581 -24.9283,-24.58221"
       inkscape:connector-curvature="0"
       style="fill:none;stroke:#6e6e6e;stroke-width:3.16698;stroke-linecap:round"
       sodipodi:nodetypes="cc" />
    <g
       style="display:inline"
       transform="matrix(-0.26458334,0,0,-0.26458334,440.58247,145.46344)"
       shvPath="ppi/PPI01"
       id="g383-3-7-7">
      <text
         x="-543.52264"
         y="-205.96681"
         font-size="3.1059px"
         style="font-style:normal;font-variant:normal;font-weight:normal;font-stretch:normal;font-size:16px;line-height:1.25;font-family:sans-serif;-inkscape-font-specification:'sans-serif, Normal';font-variant-ligatures:normal;font-variant-caps:normal;font-variant-numeric:normal;font-variant-east-asian:normal;fill:#000000;stroke-width:1.1394"
         xml:space="preserve"
         id="text1005-7-6-5-9"
         transform="scale(-1)"><tspan
           x="-543.52264"
           y="-205.96681"
           font-size="3.1059px"
           style="font-style:normal;font-variant:normal;font-weight:normal;font-stretch:normal;font-size:16px;font-family:sans-serif;-inkscape-font-specification:'sans-serif, Normal';font-variant-ligatures:normal;font-variant-caps:normal;font-variant-numeric:normal;font-variant-east-asian:normal;stroke-width:1.1394"
           id="tspan1003-5-7-3-6"
           shvAlarmPosition="right">PPI01</tspan></text>
      <g
         id="g1097-3-5-5-6"
         transform="matrix(0,-1,-1,0,773.51963,712.15105)">
        <path
           inkscape:connector-curvature="0"
           chid="chambers"
           id="path981-56-3-6-1"
           d="m 468.63477,192.13086 a 19.565218,19.565218 0 0 0 -19.11719,19.68359 19.565218,19.565218 0 0 0 18.53906,19.64453 19.565217,19.565217 0 0 0 -18.53906,19.64063 19.565217,19.565217 0 0 0 17.33594,19.53906 19.565217,19.565217 0 0 0 -17.33594,19.55274 19.56543,19.56543 0 1 0 39.13086,0 19.565217,19.565217 0 0 0 -17.33594,-19.53907 19.565217,19.565217 0 0 0 17.33594,-19.55273 19.565217,19.565217 0 0 0 -18.53516,-19.64453 19.565218,19.565218 0 0 0 18.53516,-19.64063 19.565218,19.565218 0 0 0 -20.01367,-19.68359 z"
           style="fill:#000000;fill-opacity:1;stroke:#000000;stroke-width:1.03531;stroke-opacity:1" />
        <path
           transform="matrix(3.9130435,0,0,3.9130435,-100.37692,-305.68699)"
           style="fill:#ffffff;fill-opacity:1;stroke:#000000;stroke-width:0.26458"
           inkscape:connector-curvature="0"
           d="m 145.55,131.22 -2.1225,-2.1225 -1.0606,1.0606 2.1225,2.1225 -2.1225,2.1225 1.0606,1.0606 2.1225,-2.1225 2.1225,2.1225 1.0606,-1.0606 -2.1225,-2.1225 2.1225,-2.1225 -1.0606,-1.0606 z"
           id="path1001-9-5-2-3"
           chid="symbol/Cross" />
        <g
           transform="matrix(3.9130435,0,0,3.9130435,-100.37692,-305.68699)"
           id="g183-06-9-9-3"
           style="fill:#000000;fill-opacity:1">
          <path
             id="path997-2-3-1-2"
             d="m 145.67967,157.28 v 5"
             inkscape:connector-curvature="0"
             style="fill:#000000;fill-opacity:1;stroke:#000000;stroke-width:0.26458" />
          <path
             id="path999-61-6-2-2"
             d="m 140.54,162.28 h 9.9998"
             inkscape:connector-curvature="0"
             style="fill:#000000;fill-opacity:1;stroke:#000000;stroke-width:0.26458" />
        </g>
        <path
           chid="symbol/Left"
           inkscape:connector-curvature="0"
           d="m 486.23117,290.20712 -24.73363,-17.15617 -3.3511,4.83129 17.76804,12.32436 -17.76804,12.32437 3.3511,4.83129 z"
           id="path989-3-7-7-2"
           style="fill:#ffffff;fill-opacity:1;stroke:#000000;stroke-width:1.035;stroke-miterlimit:4;stroke-dasharray:none;stroke-opacity:1" />
        <path
           chid="symbol/Straight"
           transform="matrix(1.035313,0,0,1.035313,-198.57083,-382.02264)"
           inkscape:connector-curvature="0"
           d="m 645.47789,594.7 -16.571,23.89 4.6665,3.2368 11.904,-17.162 11.904,17.162 4.6665,-3.2368 z"
           id="path983-0-1-0-5"
           style="fill:#ffffff;fill-opacity:1;stroke:#000000;stroke-opacity:1" />
      </g>
    </g>
    <g
       style="display:inline"
       id="g1240"
       shvPath="elbox/SSZ_I"
       transform="matrix(-0.26458334,0,0,-0.26458334,467.88827,93.362449)">
      <text
         x="-516.37079"
         y="-104.91463"
         font-size="3.1059px"
         style="font-style:normal;font-variant:normal;font-weight:normal;font-stretch:normal;font-size:16px;line-height:1.25;font-family:sans-serif;-inkscape-font-specification:'sans-serif, Normal';font-variant-ligatures:normal;font-variant-caps:normal;font-variant-numeric:normal;font-variant-east-asian:normal;fill:#000000;stroke-width:1.1394"
         xml:space="preserve"
         id="text955"
         transform="scale(-1)"><tspan
           x="-516.37079"
           y="-104.91463"
           font-size="3.1059px"
           style="font-style:normal;font-variant:normal;font-weight:normal;font-stretch:normal;font-size:16px;font-family:sans-serif;-inkscape-font-specification:'sans-serif, Normal';font-variant-ligatures:normal;font-variant-caps:normal;font-variant-numeric:normal;font-variant-east-asian:normal;stroke-width:1.1394"
           id="tspan953"
           shvAlarmPosition="right">SSZ_I</tspan></text>
      <g
         id="g1230"
         transform="matrix(-1,0,0,1,993.91058,0.24363693)">
        <path
           id="path1215"
           style="fill:none;stroke:#4d4d4d;stroke-width:1px;stroke-linecap:butt;stroke-linejoin:miter;stroke-opacity:1"
           d="m 470.5261,77.138812 52.85225,22.294318 v 0 0 0 0 m 0.002,-22.288889 -52.87057,22.283889"
           inkscape:connector-curvature="0" />
        <path
           sodipodi:nodetypes="ccccc"
           style="opacity:1;vector-effect:none;fill:#c8beb7;fill-opacity:0.239216;stroke:#4d4d4d;stroke-width:0.909;stroke-linecap:round;stroke-linejoin:bevel;stroke-miterlimit:4;stroke-dasharray:none;stroke-dashoffset:0;stroke-opacity:1"
           inkscape:connector-curvature="0"
           id="path1486"
           d="m 523.37835,99.43313 -52.86828,-0.005 0.002,-22.28752 52.86828,0.005 z"
           chid="box" />
        <g
           style="fill:none;stroke:#ff2a2a;stroke-width:0.410168;stroke-miterlimit:4;stroke-dasharray:none"
           id="g1492"
           chid="doors"
           transform="matrix(3.5276366e-4,-3.4343434,3.4343434,3.5276366e-4,-229.67423,473.66487)">
          <path
             style="stroke:#ff2a2a;stroke-width:0.410168;stroke-miterlimit:4;stroke-dasharray:none"
             inkscape:connector-curvature="0"
             id="path1488"
             d="m 115.48,219.26 5.4427,5.4427 a 7.6971,7.6971 0 0 0 2.2544,-5.4427 7.6971,7.6971 0 0 0 -7.6972,-7.6972 v 7.6972" />
          <path
             style="stroke:#ff2a2a;stroke-width:0.410168;stroke-miterlimit:4;stroke-dasharray:none"
             inkscape:connector-curvature="0"
             id="path1490"
             d="m 115.48,203.87 5.4427,-5.4427 a 7.6971,7.6971 0 0 1 2.2544,5.4427 7.6971,7.6971 0 0 1 -7.6972,7.6972 V 203.87" />
        </g>
      </g>
    </g>
    <g
       style="display:inline"
       transform="matrix(0.26458334,0,0,0.26458334,195.83392,15.64498)"
       shvPath="heating/group/GR_SSZ_I"
       id="g1277">
      <text
         id="text1103-9-4"
         xml:space="preserve"
         style="font-style:normal;font-variant:normal;font-weight:normal;font-stretch:normal;font-size:16px;line-height:1.25;font-family:sans-serif;-inkscape-font-specification:'sans-serif, Normal';font-variant-ligatures:normal;font-variant-caps:normal;font-variant-numeric:normal;font-variant-east-asian:normal;fill:#000000;stroke-width:1.1394"
         font-size="3.1059px"
         y="445.9082"
         x="500.77972"><tspan
           shvAlarmPosition="right"
           id="tspan1101-3-4"
           y="445.9082"
           x="500.77972"
           style="font-style:normal;font-variant:normal;font-weight:normal;font-stretch:normal;font-size:16px;font-family:sans-serif;-inkscape-font-specification:'sans-serif, Normal';font-variant-ligatures:normal;font-variant-caps:normal;font-variant-numeric:normal;font-variant-east-asian:normal;stroke-width:1.1394">Heating SSZ_I</tspan></text>
      <g
         id="g1250">
        <rect
           style="fill:none;fill-opacity:0.239216;stroke:#4d4d4d;stroke-width:0.947271;stroke-linecap:round;stroke-linejoin:bevel;stroke-miterlimit:4;stroke-dasharray:none;stroke-dashoffset:0;stroke-opacity:1"
           id="rect1077-6-7"
           width="124.53449"
           height="16.218493"
           x="501.33585"
           y="450.84851"
           ry="0.1665045"
           rx="0.1665045" />
        <text
           x="515.41522"
           y="462.66589"
           font-size="11.647px"
           style="font-size:45.5752px;line-height:1.25;font-family:sans-serif;fill:#000000;stroke-width:1.1394"
           xml:space="preserve"
           id="text1081-7-6"><tspan
             x="515.41522"
             y="462.66589"
             font-size="2.3294px"
             style="font-size:9.11504px;font-family:sans-serif;font-variant-ligatures:normal;font-variant-caps:normal;font-variant-numeric:normal;stroke-width:1.5705"
             id="tspan1079-5-5">Air</tspan></text>
        <text
           x="622.88776"
           y="463.33911"
           font-size="3.2px"
           style="font-size:12.5217px;line-height:1.25;font-family:sans-serif;text-align:end;text-anchor:end;fill:#0055d4;stroke-width:1.5705"
           xml:space="preserve"
           id="text1085-3-6"><tspan
             x="622.88776"
             y="463.33911"
             font-size="3.2108px"
             style="font-size:12.564px;font-family:sans-serif;font-variant-ligatures:normal;font-variant-caps:normal;font-variant-numeric:normal;text-align:end;text-anchor:end;fill:#0055d4;stroke-width:1.5705"
             id="tspan1083-5-9"
             chid="tempAir">tempAir</tspan></text>
        <rect
           ry="0.1665045"
           y="467.06702"
           x="501.33585"
           height="16.218493"
           width="124.53449"
           id="rect1087-6-3"
           style="fill:none;fill-opacity:0.239216;stroke:#4d4d4d;stroke-width:0.947271;stroke-linecap:round;stroke-linejoin:bevel;stroke-miterlimit:4;stroke-dasharray:none;stroke-dashoffset:0;stroke-opacity:1"
           rx="0.1665045" />
        <text
           id="text1091-2-7"
           xml:space="preserve"
           style="font-size:45.5752px;line-height:1.25;font-family:sans-serif;fill:#000000;stroke-width:1.1394"
           font-size="11.647px"
           y="478.4502"
           x="514.59186"><tspan
             id="tspan1089-9-4"
             style="font-size:9.11504px;font-family:sans-serif;font-variant-ligatures:normal;font-variant-caps:normal;font-variant-numeric:normal;stroke-width:1.5705"
             font-size="2.3294px"
             y="478.4502"
             x="514.59186">Meteo</tspan></text>
        <text
           id="text1095-1-5"
           xml:space="preserve"
           style="font-size:12.5217px;line-height:1.25;font-family:sans-serif;text-align:end;text-anchor:end;fill:#0055d4;stroke-width:1.5705"
           font-size="3.2px"
           y="479.60699"
           x="622.52838"><tspan
             chid="tempMeteo"
             id="tspan1093-2-25"
             style="font-size:12.564px;font-family:sans-serif;font-variant-ligatures:normal;font-variant-caps:normal;font-variant-numeric:normal;fill:#0055d4;stroke-width:1.5705"
             font-size="3.2108px"
             y="479.60699"
             x="622.52838">tempMet</tspan></text>
        <rect
           style="fill:#c8beb7;fill-opacity:0.239216;stroke:#4d4d4d;stroke-width:0.909;stroke-linecap:round;stroke-linejoin:bevel;stroke-miterlimit:4;stroke-dasharray:none;stroke-dashoffset:0;stroke-opacity:1"
           id="rect1097-7-4"
           width="57.19875"
           height="16.231249"
           x="501.31671"
           y="467.06061"
           ry="0.16663547"
           rx="0.16663547" />
        <rect
           ry="0.16663547"
           y="450.82935"
           x="501.31671"
           height="16.231249"
           width="57.198719"
           id="rect1099-0-7"
           style="fill:#c8beb7;fill-opacity:0.239216;stroke:#4d4d4d;stroke-width:0.909;stroke-linecap:round;stroke-linejoin:bevel;stroke-miterlimit:4;stroke-dasharray:none;stroke-dashoffset:0;stroke-opacity:1"
           rx="0.16663547" />
        <rect
           style="fill:none;fill-opacity:0.239216;stroke:#4d4d4d;stroke-width:0.947271;stroke-linecap:round;stroke-linejoin:bevel;stroke-miterlimit:4;stroke-dasharray:none;stroke-dashoffset:0;stroke-opacity:1"
           id="rect1087-6-0-0"
           width="124.53449"
           height="16.218493"
           x="501.33585"
           y="483.28546"
           ry="0.1665045"
           rx="0.1665045" />
        <text
           x="623.18164"
           y="495.48608"
           font-size="3.2px"
           style="font-size:12.5217px;line-height:1.25;font-family:sans-serif;text-align:end;text-anchor:end;fill:#0055d4;stroke-width:1.5705"
           xml:space="preserve"
           id="text1095-1-6-7"><tspan
             x="623.18164"
             y="495.48608"
             font-size="3.2108px"
             style="font-size:12.564px;font-family:sans-serif;font-variant-ligatures:normal;font-variant-caps:normal;font-variant-numeric:normal;fill:#0055d4;stroke-width:1.5705"
             id="tspan1093-2-2-8"
             chid="tempRail">tempRail</tspan></text>
        <text
           x="514.59155"
           y="494.86938"
           font-size="11.647px"
           style="font-size:45.5752px;line-height:1.25;font-family:sans-serif;fill:#000000;stroke-width:1.1394"
           xml:space="preserve"
           id="text1091-2-1-6"><tspan
             x="514.59155"
             y="494.86938"
             font-size="2.3294px"
             style="font-size:9.11504px;font-family:sans-serif;font-variant-ligatures:normal;font-variant-caps:normal;font-variant-numeric:normal;stroke-width:1.5705"
             id="tspan1089-9-8-8">Rail</tspan></text>
        <rect
           ry="0.16663547"
           y="483.29187"
           x="501.31671"
           height="16.231249"
           width="57.19875"
           id="rect1097-7-6-8"
           style="fill:#c8beb7;fill-opacity:0.239216;stroke:#4d4d4d;stroke-width:0.909;stroke-linecap:round;stroke-linejoin:bevel;stroke-miterlimit:4;stroke-dasharray:none;stroke-dashoffset:0;stroke-opacity:1"
           rx="0.16663547" />
        <path
           style="fill:#4d4d4d;fill-opacity:1;stroke:none;stroke-width:0.559421;stroke-opacity:1"
           id="path2-4"
           d="m 509.36788,459.54934 v -4.47536 a 1.6782668,1.6782668 0 0 0 -3.35653,0 v 4.47536 a 2.7971061,2.7971061 0 1 0 3.35653,0 m -1.67827,-5.03479 a 0.55942121,0.55942121 0 0 1 0.55942,0.55943 v 1.67825 h -1.11883 v -1.67825 a 0.55942121,0.55942121 0 0 1 0.55941,-0.55943 z"
           inkscape:connector-curvature="0" />
        <path
           style="fill:#4d4d4d;fill-opacity:1;stroke:none;stroke-width:0.559421;stroke-opacity:1"
           id="path2-7-3"
           d="m 509.3678,475.78034 v -4.47536 a 1.6782668,1.6782668 0 0 0 -3.35653,0 v 4.47536 a 2.7971061,2.7971061 0 1 0 3.35653,0 m -1.67827,-5.03479 a 0.55942121,0.55942121 0 0 1 0.55942,0.55943 v 1.67825 h -1.11883 v -1.67825 a 0.55942121,0.55942121 0 0 1 0.55941,-0.55943 z"
           inkscape:connector-curvature="0" />
        <path
           style="fill:#4d4d4d;fill-opacity:1;stroke:none;stroke-width:0.559421;stroke-opacity:1"
           id="path2-9-1"
           d="m 509.3678,492.01234 v -4.47536 a 1.6782668,1.6782668 0 0 0 -3.35653,0 v 4.47536 a 2.7971061,2.7971061 0 1 0 3.35653,0 m -1.67827,-5.03479 a 0.55942121,0.55942121 0 0 1 0.55942,0.55943 v 1.67825 h -1.11883 v -1.67825 a 0.55942121,0.55942121 0 0 1 0.55941,-0.55943 z"
           inkscape:connector-curvature="0" />
        <rect
           y="450.8653"
           x="501.26184"
           height="48.712708"
           width="124.64893"
           id="rect249-4"
           style="opacity:1;fill:none;fill-opacity:1;stroke:#000000;stroke-width:0.844;stroke-miterlimit:4;stroke-dasharray:none;stroke-dashoffset:0;stroke-opacity:1"
           chid="boundingBox" />
      </g>
    </g>
    <g
       style="display:inline"
       id="g1575"
       shvPath="zone/A/gate/G1"
       shvVisuType="Gate"
       transform="matrix(-0.26458334,0,0,-0.26458334,640.49828,175.99954)">
      <text
         x="-874.57562"
         y="-120.98557"
         font-size="3.1059px"
         style="font-style:normal;font-variant:normal;font-weight:normal;font-stretch:normal;font-size:16px;line-height:1.25;font-family:sans-serif;-inkscape-font-specification:'sans-serif, Normal';font-variant-ligatures:normal;font-variant-caps:normal;font-variant-numeric:normal;fill:#000000;stroke-width:1.1394"
         xml:space="preserve"
         id="text955-36"
         transform="scale(-1)"><tspan
           x="-874.57562"
           y="-120.98557"
           font-size="3.1059px"
           style="font-style:normal;font-variant:normal;font-weight:normal;font-stretch:normal;font-size:16px;font-family:sans-serif;-inkscape-font-specification:'sans-serif, Normal';font-variant-ligatures:normal;font-variant-caps:normal;font-variant-numeric:normal;stroke-width:1.1394"
           id="tspan953-75"
           shvAlarmPosition="right">G1</tspan></text>
      <path
         id="path614"
         style="display:inline;fill:none;stroke:#cc0033;stroke-width:3.895;stroke-miterlimit:4;stroke-dasharray:none"
         d="m 860.54892,270.30291 10.55368,-0.008 -0.0337,-132.22968 h -10.5537"
         inkscape:connector-curvature="0"
         chid="gate"
         sodipodi:nodetypes="cccc" />
    </g>
    <g
       style="display:inline"
       transform="matrix(-0.26458334,0,0,-0.26458334,457.41244,364.78536)"
       id="g1000-5"
       shvPath="vetra/VET03"
       shvVisuType="VetraTransceiver">
      <text
         id="text1191-4"
         xml:space="preserve"
         style="font-style:normal;font-variant:normal;font-weight:normal;font-stretch:normal;font-size:16px;line-height:1.25;font-family:sans-serif;-inkscape-font-specification:'sans-serif, Normal';font-variant-ligatures:normal;font-variant-caps:normal;font-variant-numeric:normal;font-variant-east-asian:normal;fill:#000000;stroke-width:1.1394"
         font-size="3.1059px"
         y="-927.18097"
         x="-132.59872"
         transform="scale(-1)"><tspan
           shvAlarmPosition="right"
           id="tspan1189-8"
           y="-927.18097"
           x="-132.59872"
           style="font-style:normal;font-variant:normal;font-weight:normal;font-stretch:normal;font-size:16px;font-family:sans-serif;-inkscape-font-specification:'sans-serif, Normal';font-variant-ligatures:normal;font-variant-caps:normal;font-variant-numeric:normal;font-variant-east-asian:normal;stroke-width:1.1394">VET03</tspan></text>
      <path
         chid="transceiver"
         id="path1187-2"
         d="m 98.006229,952.90856 h 19.565351 v 19.56535 H 98.006229 Z"
         inkscape:connector-curvature="0"
         style="fill:#ffffff;stroke:#000000;stroke-width:1.03531" />
    </g>
    <g
       style="display:inline"
       transform="matrix(0.26458334,0,0,0.26458334,293.63482,-466.10714)"
       shvVisuType="VetraData"
       shvPath="vetra/VET03"
       id="g537-4">
      <text
         x="502.00519"
         y="2123.5703"
         font-size="3.1059px"
         style="font-style:normal;font-variant:normal;font-weight:normal;font-stretch:normal;font-size:16px;line-height:1.25;font-family:sans-serif;-inkscape-font-specification:'sans-serif, Normal';font-variant-ligatures:normal;font-variant-caps:normal;font-variant-numeric:normal;font-variant-east-asian:normal;fill:#000000;stroke-width:1.1394"
         xml:space="preserve"
         id="text1062-4"><tspan
           style="font-style:normal;font-variant:normal;font-weight:normal;font-stretch:normal;font-size:16px;font-family:sans-serif;-inkscape-font-specification:'sans-serif, Normal';font-variant-ligatures:normal;font-variant-caps:normal;font-variant-numeric:normal;font-variant-east-asian:normal;stroke-width:1.1394"
           x="502.00519"
           y="2123.5703"
           id="tspan1060-0"
           shvAlarmPosition="right">VET03</tspan></text>
      <g
         id="g519-3">
        <rect
           rx="0.16663547"
           ry="0.16663547"
           y="2145.2419"
           x="501.29434"
           height="16.231249"
           width="57.19875"
           id="rect1056-5"
           style="fill:#c8beb7;fill-opacity:0.239216;stroke:#4d4d4d;stroke-width:0.909;stroke-linecap:round;stroke-linejoin:bevel;stroke-miterlimit:4;stroke-dasharray:none;stroke-dashoffset:0;stroke-opacity:1" />
        <rect
           rx="0.16663547"
           style="fill:#c8beb7;fill-opacity:0.239216;stroke:#4d4d4d;stroke-width:0.909;stroke-linecap:round;stroke-linejoin:bevel;stroke-miterlimit:4;stroke-dasharray:none;stroke-dashoffset:0;stroke-opacity:1"
           id="rect1058-3"
           width="57.198719"
           height="16.231249"
           x="501.29434"
           y="2129.0107"
           ry="0.16663547" />
        <rect
           rx="0.16663547"
           ry="0.16663547"
           y="2129.0107"
           x="501.29434"
           height="16.231249"
           width="114.58488"
           id="rect1024-1"
           style="fill:none;fill-opacity:0.239216;stroke:#4d4d4d;stroke-width:0.909;stroke-linecap:round;stroke-linejoin:bevel;stroke-miterlimit:4;stroke-dasharray:none;stroke-dashoffset:0;stroke-opacity:1" />
        <text
           id="text1099-7"
           xml:space="preserve"
           style="font-size:45.5752px;line-height:1.25;font-family:sans-serif;fill:#000000;stroke-width:1.1394"
           font-size="11.647px"
           y="2141.1619"
           x="504.61337"><tspan
             id="tspan1097-7"
             style="font-size:9.11504px;font-family:sans-serif;font-variant-ligatures:normal;font-variant-caps:normal;font-variant-numeric:normal;stroke-width:1.5705"
             font-size="2.3294px"
             y="2141.1619"
             x="504.61337">Tram ID</tspan></text>
        <text
           id="text1107-1"
           xml:space="preserve"
           style="font-size:12.5217px;line-height:1.25;font-family:sans-serif;text-align:end;text-anchor:end;fill:#0055d4;stroke-width:1.5705"
           font-size="3.2px"
           y="2142.9302"
           x="705.5993"><tspan
             chid="tramId"
             id="tspan1105-3"
             style="font-size:12.564px;font-family:sans-serif;font-variant-ligatures:normal;font-variant-caps:normal;font-variant-numeric:normal;text-align:end;text-anchor:end;fill:#0055d4;stroke-width:1.5705"
             font-size="3.2108px"
             y="2142.9302"
             x="614.39984">tram-id</tspan></text>
        <rect
           rx="0.16663547"
           style="fill:none;fill-opacity:0.239216;stroke:#4d4d4d;stroke-width:0.909;stroke-linecap:round;stroke-linejoin:bevel;stroke-miterlimit:4;stroke-dasharray:none;stroke-dashoffset:0;stroke-opacity:1"
           id="rect1044-5"
           width="114.58488"
           height="16.231249"
           x="501.29434"
           y="2145.2419"
           ry="0.16663547" />
        <text
           x="504.61337"
           y="2157.3931"
           font-size="11.647px"
           style="font-size:45.5752px;line-height:1.25;font-family:sans-serif;fill:#000000;stroke-width:1.1394"
           xml:space="preserve"
           id="text1048-0"><tspan
             x="504.61337"
             y="2157.3931"
             font-size="2.3294px"
             style="font-size:9.11504px;font-family:sans-serif;font-variant-ligatures:normal;font-variant-caps:normal;font-variant-numeric:normal;stroke-width:1.5705"
             id="tspan1046-8">Route code</tspan></text>
        <text
           x="642.36481"
           y="2158.2581"
           font-size="3.2px"
           style="font-size:12.5217px;line-height:1.25;font-family:sans-serif;text-align:end;text-anchor:end;fill:#0055d4;stroke-width:1.5705"
           xml:space="preserve"
           id="text1052-8"><tspan
             x="614.12646"
             y="2158.2581"
             font-size="3.2108px"
             style="font-size:12.564px;font-family:sans-serif;font-variant-ligatures:normal;font-variant-caps:normal;font-variant-numeric:normal;text-align:end;text-anchor:end;fill:#0055d4;stroke-width:1.5705"
             id="tspan1050-3"
             chid="routeCode">code</tspan></text>
        <rect
           y="2129.0107"
           x="501.29434"
           height="32.462524"
           width="114.58491"
           id="rect249-3-8"
           style="opacity:1;fill:none;fill-opacity:1;stroke:#000000;stroke-width:0.66059;stroke-miterlimit:4;stroke-dasharray:none;stroke-dashoffset:0;stroke-opacity:1"
           chid="boundingBox" />
      </g>
    </g>
    <path
       sodipodi:nodetypes="cc"
       style="display:inline;fill:none;stroke:#6e6e6e;stroke-width:3.16698;stroke-linecap:round"
       inkscape:connector-curvature="0"
       d="M 276.01109,144.40751 310.4462,110.08039"
       id="path913-80-4" />
    <g
       shvVisuType="VetraTransceiver"
       shvPath="vetra/VET04"
       id="g1000-5-0"
       transform="matrix(-0.26458334,0,0,-0.26458334,457.41257,389.81112)"
       style="display:inline">
      <text
         x="-132.98154"
         y="-985.18097"
         font-size="3.1059px"
         style="font-style:normal;font-variant:normal;font-weight:normal;font-stretch:normal;font-size:16px;line-height:1.25;font-family:sans-serif;-inkscape-font-specification:'sans-serif, Normal';font-variant-ligatures:normal;font-variant-caps:normal;font-variant-numeric:normal;font-variant-east-asian:normal;fill:#000000;stroke-width:1.1394"
         xml:space="preserve"
         id="text1191-4-5"
         transform="scale(-1)"><tspan
           style="font-style:normal;font-variant:normal;font-weight:normal;font-stretch:normal;font-size:16px;font-family:sans-serif;-inkscape-font-specification:'sans-serif, Normal';font-variant-ligatures:normal;font-variant-caps:normal;font-variant-numeric:normal;font-variant-east-asian:normal;stroke-width:1.1394"
           x="-132.98154"
           y="-985.18097"
           id="tspan1189-8-4"
           shvAlarmPosition="right">VET04</tspan></text>
      <path
         style="fill:#ffffff;stroke:#000000;stroke-width:1.03531"
         inkscape:connector-curvature="0"
         d="m 98.006229,952.90856 h 19.565351 v 19.56535 H 98.006229 Z"
         id="path1187-2-2"
         chid="transceiver" />
    </g>
    <g
       id="g537-4-7"
       shvPath="vetra/VET04"
       shvVisuType="VetraData"
       transform="matrix(0.26458334,0,0,0.26458334,293.63473,-419.91457)"
       style="display:inline">
      <text
         id="text1062-4-9"
         xml:space="preserve"
         style="font-style:normal;font-variant:normal;font-weight:normal;font-stretch:normal;font-size:16px;line-height:1.25;font-family:sans-serif;-inkscape-font-specification:'sans-serif, Normal';font-variant-ligatures:normal;font-variant-caps:normal;font-variant-numeric:normal;font-variant-east-asian:normal;fill:#000000;stroke-width:1.1394"
         font-size="3.1059px"
         y="2123.5703"
         x="502.00519"><tspan
           shvAlarmPosition="right"
           id="tspan1060-0-0"
           y="2123.5703"
           x="502.00519"
           style="font-style:normal;font-variant:normal;font-weight:normal;font-stretch:normal;font-size:16px;font-family:sans-serif;-inkscape-font-specification:'sans-serif, Normal';font-variant-ligatures:normal;font-variant-caps:normal;font-variant-numeric:normal;font-variant-east-asian:normal;stroke-width:1.1394">VET04</tspan></text>
      <g
         id="g519-3-8">
        <rect
           style="fill:#c8beb7;fill-opacity:0.239216;stroke:#4d4d4d;stroke-width:0.909;stroke-linecap:round;stroke-linejoin:bevel;stroke-miterlimit:4;stroke-dasharray:none;stroke-dashoffset:0;stroke-opacity:1"
           id="rect1056-5-3"
           width="57.19875"
           height="16.231249"
           x="501.29434"
           y="2145.2419"
           ry="0.16663547"
           rx="0.16663547" />
        <rect
           ry="0.16663547"
           y="2129.0107"
           x="501.29434"
           height="16.231249"
           width="57.198719"
           id="rect1058-3-2"
           style="fill:#c8beb7;fill-opacity:0.239216;stroke:#4d4d4d;stroke-width:0.909;stroke-linecap:round;stroke-linejoin:bevel;stroke-miterlimit:4;stroke-dasharray:none;stroke-dashoffset:0;stroke-opacity:1"
           rx="0.16663547" />
        <rect
           style="fill:none;fill-opacity:0.239216;stroke:#4d4d4d;stroke-width:0.909;stroke-linecap:round;stroke-linejoin:bevel;stroke-miterlimit:4;stroke-dasharray:none;stroke-dashoffset:0;stroke-opacity:1"
           id="rect1024-1-6"
           width="114.58488"
           height="16.231249"
           x="501.29434"
           y="2129.0107"
           ry="0.16663547"
           rx="0.16663547" />
        <text
           x="504.61337"
           y="2141.1619"
           font-size="11.647px"
           style="font-size:45.5752px;line-height:1.25;font-family:sans-serif;fill:#000000;stroke-width:1.1394"
           xml:space="preserve"
           id="text1099-7-4"><tspan
             x="504.61337"
             y="2141.1619"
             font-size="2.3294px"
             style="font-size:9.11504px;font-family:sans-serif;font-variant-ligatures:normal;font-variant-caps:normal;font-variant-numeric:normal;stroke-width:1.5705"
             id="tspan1097-7-3">Tram ID</tspan></text>
        <text
           x="705.5993"
           y="2142.9302"
           font-size="3.2px"
           style="font-size:12.5217px;line-height:1.25;font-family:sans-serif;text-align:end;text-anchor:end;fill:#0055d4;stroke-width:1.5705"
           xml:space="preserve"
           id="text1107-1-0"><tspan
             x="614.39984"
             y="2142.9302"
             font-size="3.2108px"
             style="font-size:12.564px;font-family:sans-serif;font-variant-ligatures:normal;font-variant-caps:normal;font-variant-numeric:normal;text-align:end;text-anchor:end;fill:#0055d4;stroke-width:1.5705"
             id="tspan1105-3-5"
             chid="tramId">tram-id</tspan></text>
        <rect
           ry="0.16663547"
           y="2145.2419"
           x="501.29434"
           height="16.231249"
           width="114.58488"
           id="rect1044-5-2"
           style="fill:none;fill-opacity:0.239216;stroke:#4d4d4d;stroke-width:0.909;stroke-linecap:round;stroke-linejoin:bevel;stroke-miterlimit:4;stroke-dasharray:none;stroke-dashoffset:0;stroke-opacity:1"
           rx="0.16663547" />
        <text
           id="text1048-0-7"
           xml:space="preserve"
           style="font-size:45.5752px;line-height:1.25;font-family:sans-serif;fill:#000000;stroke-width:1.1394"
           font-size="11.647px"
           y="2157.3931"
           x="504.61337"><tspan
             id="tspan1046-8-2"
             style="font-size:9.11504px;font-family:sans-serif;font-variant-ligatures:normal;font-variant-caps:normal;font-variant-numeric:normal;stroke-width:1.5705"
             font-size="2.3294px"
             y="2157.3931"
             x="504.61337">Route code</tspan></text>
        <text
           id="text1052-8-6"
           xml:space="preserve"
           style="font-size:12.5217px;line-height:1.25;font-family:sans-serif;text-align:end;text-anchor:end;fill:#0055d4;stroke-width:1.5705"
           font-size="3.2px"
           y="2158.2581"
           x="642.36481"><tspan
             chid="routeCode"
             id="tspan1050-3-4"
             style="font-size:12.564px;font-family:sans-serif;font-variant-ligatures:normal;font-variant-caps:normal;font-variant-numeric:normal;text-align:end;text-anchor:end;fill:#0055d4;stroke-width:1.5705"
             font-size="3.2108px"
             y="2158.2581"
             x="614.12646">code</tspan></text>
        <rect
           chid="boundingBox"
           style="opacity:1;fill:none;fill-opacity:1;stroke:#000000;stroke-width:0.66059;stroke-miterlimit:4;stroke-dasharray:none;stroke-dashoffset:0;stroke-opacity:1"
           id="rect249-3-8-2"
           width="114.58491"
           height="32.462524"
           x="501.29434"
           y="2129.0107" />
      </g>
    </g>
    <text
       xml:space="preserve"
       style="font-style:normal;font-variant:normal;font-weight:normal;font-stretch:normal;font-size:4.23333px;line-height:1.45;font-family:sans-serif;-inkscape-font-specification:'sans-serif, Normal';font-variant-ligatures:normal;font-variant-caps:normal;font-variant-numeric:normal;font-variant-east-asian:normal;text-align:center;letter-spacing:0px;word-spacing:0px;text-anchor:middle;fill:#a4a4a4;fill-opacity:1;stroke:#a4a4a4;stroke-width:0.264583;stroke-miterlimit:4;stroke-dasharray:none;stroke-opacity:1"
       x="455.56558"
       y="132.20711"
       id="text1728"><tspan
         sodipodi:role="line"
         id="tspan1726"
         x="455.56558"
         y="132.20711"
         style="font-style:normal;font-variant:normal;font-weight:normal;font-stretch:normal;font-size:4.23333px;font-family:sans-serif;-inkscape-font-specification:'sans-serif, Normal';font-variant-ligatures:normal;font-variant-caps:normal;font-variant-numeric:normal;font-variant-east-asian:normal;fill:#a4a4a4;fill-opacity:1;stroke:#a4a4a4;stroke-width:0.264583;stroke-miterlimit:4;stroke-dasharray:none;stroke-opacity:1">TOR 1-5</tspan></text>
    <text
       id="text1728-1"
       y="115.72351"
       x="455.03033"
       style="font-style:normal;font-variant:normal;font-weight:normal;font-stretch:normal;font-size:4.23333px;line-height:1.45;font-family:sans-serif;-inkscape-font-specification:'sans-serif, Normal';font-variant-ligatures:normal;font-variant-caps:normal;font-variant-numeric:normal;font-variant-east-asian:normal;text-align:center;letter-spacing:0px;word-spacing:0px;text-anchor:middle;display:inline;fill:#a4a4a4;fill-opacity:1;stroke:#a4a4a4;stroke-width:0.264583;stroke-miterlimit:4;stroke-dasharray:none;stroke-opacity:1"
       xml:space="preserve"><tspan
         style="font-style:normal;font-variant:normal;font-weight:normal;font-stretch:normal;font-size:4.23333px;font-family:sans-serif;-inkscape-font-specification:'sans-serif, Normal';font-variant-ligatures:normal;font-variant-caps:normal;font-variant-numeric:normal;font-variant-east-asian:normal;fill:#a4a4a4;fill-opacity:1;stroke:#a4a4a4;stroke-width:0.264583;stroke-miterlimit:4;stroke-dasharray:none;stroke-opacity:1"
         y="115.72351"
         x="455.03033"
         id="tspan1726-7"
         sodipodi:role="line">TOR 10z</tspan></text>
    <text
       id="text1728-0"
       y="150.59352"
       x="267.44647"
       style="font-style:normal;font-variant:normal;font-weight:normal;font-stretch:normal;font-size:4.23333px;line-height:1.45;font-family:sans-serif;-inkscape-font-specification:'sans-serif, Normal';font-variant-ligatures:normal;font-variant-caps:normal;font-variant-numeric:normal;font-variant-east-asian:normal;text-align:center;letter-spacing:0px;word-spacing:0px;text-anchor:middle;display:inline;fill:#a4a4a4;fill-opacity:1;stroke:#a4a4a4;stroke-width:0.264583;stroke-miterlimit:4;stroke-dasharray:none;stroke-opacity:1"
       xml:space="preserve"><tspan
         style="font-style:normal;font-variant:normal;font-weight:normal;font-stretch:normal;font-size:4.23333px;font-family:sans-serif;-inkscape-font-specification:'sans-serif, Normal';font-variant-ligatures:normal;font-variant-caps:normal;font-variant-numeric:normal;font-variant-east-asian:normal;fill:#a4a4a4;fill-opacity:1;stroke:#a4a4a4;stroke-width:0.264583;stroke-miterlimit:4;stroke-dasharray:none;stroke-opacity:1"
         y="150.59352"
         x="267.44647"
         id="tspan1726-79"
         sodipodi:role="line">TOR 7-8</tspan></text>
    <text
       xml:space="preserve"
       style="font-style:normal;font-variant:normal;font-weight:normal;font-stretch:normal;font-size:4.23333px;line-height:1.45;font-family:sans-serif;-inkscape-font-specification:'sans-serif, Normal';font-variant-ligatures:normal;font-variant-caps:normal;font-variant-numeric:normal;font-variant-east-asian:normal;text-align:center;letter-spacing:0px;word-spacing:0px;text-anchor:middle;display:inline;fill:#a4a4a4;fill-opacity:1;stroke:#a4a4a4;stroke-width:0.264583;stroke-miterlimit:4;stroke-dasharray:none;stroke-opacity:1"
       x="252.62521"
       y="115.72367"
       id="text1728-1-4"><tspan
         sodipodi:role="line"
         id="tspan1726-7-9"
         x="252.62521"
         y="115.72367"
         style="font-style:normal;font-variant:normal;font-weight:normal;font-stretch:normal;font-size:4.23333px;font-family:sans-serif;-inkscape-font-specification:'sans-serif, Normal';font-variant-ligatures:normal;font-variant-caps:normal;font-variant-numeric:normal;font-variant-east-asian:normal;fill:#a4a4a4;fill-opacity:1;stroke:#a4a4a4;stroke-width:0.264583;stroke-miterlimit:4;stroke-dasharray:none;stroke-opacity:1">TOR 9-10</tspan></text>
    <g
       id="g1575-2"
       shvPath="zone/A/gate/G11"
       shvVisuType="Gate"
       transform="matrix(-0.26458334,0,0,-0.26458334,479.07614,193.76728)">
      <text
         x="-787.4007"
         y="-235.31425"
         font-size="3.1059px"
         style="font-size:12.1535px;line-height:1.25;font-family:sans-serif;font-variant-ligatures:normal;font-variant-caps:normal;font-variant-numeric:normal;fill:#000000;stroke-width:1.1394"
         xml:space="preserve"
         id="text955-36-6"
         transform="scale(-1)"><tspan
           x="-787.4007"
           y="-235.31425"
           font-size="3.1059px"
           style="font-size:16px;font-family:sans-serif;font-variant-ligatures:normal;font-variant-caps:normal;font-variant-numeric:normal;stroke-width:1.1394"
           id="tspan953-75-6"
           shvAlarmPosition="right">G11</tspan></text>
      <path
         id="path614-4"
         style="display:inline;fill:none;stroke:#cc0033;stroke-width:3.895;stroke-miterlimit:4;stroke-dasharray:none"
         d="m 762.84735,222.08686 -7.46824,7.45692 -29.83696,-29.88461 7.46825,-7.45694"
         inkscape:connector-curvature="0"
         chid="gate" />
    </g>
    <g
       transform="matrix(-0.26458334,0,0,-0.26458334,475.97957,170.38842)"
       shvVisuType="Gate"
       shvPath="zone/A/gate/G10"
       id="g1575-2-6"
       style="display:inline">
      <text
         id="text955-36-6-8"
         xml:space="preserve"
         style="font-size:12.1535px;line-height:1.25;font-family:sans-serif;font-variant-ligatures:normal;font-variant-caps:normal;font-variant-numeric:normal;fill:#000000;stroke-width:1.1394"
         font-size="3.1059px"
         y="-261.0397"
         x="-815.8465"
         transform="scale(-1)"><tspan
           shvAlarmPosition="right"
           id="tspan953-75-6-9"
           style="font-size:16px;font-family:sans-serif;font-variant-ligatures:normal;font-variant-caps:normal;font-variant-numeric:normal;stroke-width:1.1394"
           font-size="3.1059px"
           y="-261.0397"
           x="-815.8465">G10</tspan></text>
      <path
         chid="gate"
         inkscape:connector-curvature="0"
         d="m 797.2166,249.09554 -10.55368,-0.008 0.0337,-42.22953 10.5537,0.008"
         style="display:inline;fill:none;stroke:#cc0033;stroke-width:3.895;stroke-miterlimit:4;stroke-dasharray:none"
         id="path614-4-2" />
    </g>
    <g
       transform="matrix(-0.26458334,0,0,-0.26458334,977.3779,781.86708)"
       shvPath="ss/SS01"
       id="g948">
      <g
         id="g940"
         transform="translate(-79.55197,109.55735)">
        <path
           chid="chambers"
           inkscape:connector-curvature="0"
           id="path917"
           d="m 2395.9581,2538.5574 a 20,20.044821 0 0 1 -39.9999,10e-5 20,20.044821 0 0 1 39.9999,-10e-5"
           style="fill:#000000;fill-opacity:1;stroke:none;stroke-width:1;stroke-miterlimit:4;stroke-dasharray:none;stroke-opacity:1" />
        <path
           chid="symbol/Go"
           style="fill:#ffffff;stroke:none;stroke-width:0.801757"
           inkscape:connector-curvature="0"
           id="path442-2-7"
           d="m 2361.189,2535.6051 v 5.9049 l 29.5384,-2e-4 v -5.9049 z" />
        <path
           chid="symbol/Stop"
           style="fill:#ffffff;stroke:none;stroke-width:0.801757"
           inkscape:connector-curvature="0"
           id="path444-9-0"
           d="m 2373.0057,2523.7882 v 29.5385 l 5.9049,-1e-4 v -29.5384 z" />
      </g>
      <text
         id="text1191-0-9-3-4-4-3-6-3"
         xml:space="preserve"
         style="font-size:16px;line-height:1.25;font-family:sans-serif;font-variant-ligatures:normal;font-variant-caps:normal;font-variant-numeric:normal;fill:#000000;stroke-width:1.1394"
         font-size="3.1059px"
         y="-2613.4155"
         x="-2219.7368"
         transform="scale(-1)"><tspan
           shvAlarmPosition="right"
           id="tspan1189-23-1-75-7-9-6-7-6"
           y="-2613.4155"
           x="-2219.7368"
           style="font-size:16px;stroke-width:1.1394">SS01</tspan></text>
    </g>
    <g
       shvPath="mps/MAT01"
       id="g1235"
       transform="matrix(-0.26458334,0,0,-0.26458334,558.1942,280.94005)">
      <text
         id="text955-3-5-3-3"
         xml:space="preserve"
         style="font-size:12.1535px;line-height:1.25;font-family:sans-serif;font-variant-ligatures:normal;font-variant-caps:normal;font-variant-numeric:normal;fill:#000000;stroke-width:1.1394"
         font-size="3.1059px"
         y="-734.29242"
         x="-635.93622"
         transform="scale(-1)"><tspan
           id="tspan953-6-3-6-6"
           style="font-size:16px;font-family:sans-serif;font-variant-ligatures:normal;font-variant-caps:normal;font-variant-numeric:normal;stroke-width:1.1394"
           font-size="3.1059px"
           y="-734.29242"
           x="-635.93622"
           shvAlarmPosition="right">MAT01</tspan></text>
      <g
         id="g1223"
         transform="rotate(90,604.04189,802.53993)">
        <rect
           chid="mps"
           y="621.03235"
           x="502.5"
           height="50.77906"
           width="105"
           id="rect1233-7"
           style="opacity:1;fill:#9b9b9b;fill-opacity:1;fill-rule:nonzero;stroke:#000000;stroke-width:5;stroke-linecap:butt;stroke-miterlimit:4;stroke-dasharray:none;stroke-dashoffset:0;stroke-opacity:1;paint-order:stroke fill markers" />
        <text
           id="text1255-5"
           y="636.6861"
           x="507.34912"
           style="font-style:normal;font-weight:normal;font-size:40px;line-height:1.25;font-family:sans-serif;letter-spacing:0px;word-spacing:0px;fill:#000000;fill-opacity:1;stroke:none"
           xml:space="preserve"><tspan
             style="font-size:12.564px;font-family:sans-serif;font-variant-ligatures:normal;font-variant-caps:normal;font-variant-numeric:normal;fill:#000000;fill-opacity:1;stroke-width:1.5705"
             chid="row0"
             y="636.6861"
             x="507.34912"
             id="tspan1253-3"
             sodipodi:role="line">Row 0</tspan></text>
        <text
           xml:space="preserve"
           style="font-style:normal;font-weight:normal;font-size:40px;line-height:1.25;font-family:sans-serif;letter-spacing:0px;word-spacing:0px;fill:#000000;fill-opacity:1;stroke:none"
           x="507.4321"
           y="664.40491"
           id="text1255-5-7"><tspan
             sodipodi:role="line"
             id="tspan1253-3-5"
             x="507.4321"
             y="664.40491"
             chid="row2"
             style="font-size:12.564px;font-family:sans-serif;font-variant-ligatures:normal;font-variant-caps:normal;font-variant-numeric:normal;fill:#000000;fill-opacity:1;stroke-width:1.5705">Row 2</tspan></text>
        <text
           id="text1255-5-3"
           y="650.36639"
           x="507.40778"
           style="font-style:normal;font-weight:normal;font-size:40px;line-height:1.25;font-family:sans-serif;letter-spacing:0px;word-spacing:0px;fill:#000000;fill-opacity:1;stroke:none"
           xml:space="preserve"><tspan
             style="font-size:12.564px;font-family:sans-serif;font-variant-ligatures:normal;font-variant-caps:normal;font-variant-numeric:normal;fill:#000000;fill-opacity:1;stroke-width:1.5705"
             chid="row1"
             y="650.36639"
             x="507.40778"
             id="tspan1253-3-6"
             sodipodi:role="line">Row 1</tspan></text>
      </g>
    </g>
    <g
       shvPath="ksw/KSW01"
       id="g566"
       transform="matrix(-0.19711768,0,0,-0.19712201,744.23338,213.9193)">
      <g
         style="display:inline;stroke-width:0.720284"
         id="g4296-5-5"
         transform="matrix(4.7791321,0,0,4.8009982,2116.1524,-16.791468)">
        <path
           inkscape:connector-curvature="0"
           id="path74-9-8"
           style="fill:#ffffff;fill-opacity:1;stroke:#000000;stroke-width:0.190575"
           d="m -55.945701,141.22819 h 4.98493 v 5.00002 h -4.98493 z"
           chid="box" />
        <path
           inkscape:connector-curvature="0"
           id="path72-4-2"
           style="fill:#ffffff;fill-opacity:1;stroke:#000000;stroke-width:0.190575"
           d="m -53.353501,143.93903 -1.28968,0.51589 v -1.49418 l 1.28968,0.51585 a 0.6225704,0.6225704 0 1 1 0,0.46244 z" />
      </g>
      <text
         id="text1191-7-3-6-3"
         xml:space="preserve"
         style="font-size:16.5885px;line-height:1.25;font-family:sans-serif;font-variant-ligatures:normal;font-variant-caps:normal;font-variant-numeric:normal;fill:#000000;stroke-width:1.52936"
         font-size="3.1059px"
         y="-665.9657"
         x="-1797.3895"
         transform="scale(-1)"><tspan
           shvAlarmPosition="right"
           id="tspan1189-5-1-1-6"
           y="-665.9657"
           x="-1797.3895"
           style="font-size:21.4759px;stroke-width:1.52936">KSW01</tspan></text>
    </g>
    <path
       style="display:inline;fill:#000000;fill-opacity:1;stroke:#000000;stroke-width:0.273926"
       inkscape:connector-curvature="0"
       d="m 379.80606,81.138906 h 5.17662"
       id="path997-2-3-1-2-6" />
    <path
       style="display:inline;fill:#000000;fill-opacity:1;stroke:#000000;stroke-width:0.273926"
       inkscape:connector-curvature="0"
       d="m 384.98268,75.817664 v 10.35306"
       id="path999-61-6-2-2-6" />
    <g
       id="g2169-3"
       shvPath="zone/A/route/Route2"
       transform="matrix(-0.26458334,0,0,-0.26458334,468.42438,574.12228)"
       style="display:inline">
      <path
         sodipodi:nodetypes="ccsccc"
         chid="route"
         id="path855-1"
         d="m 691.23132,1660.1193 -94.14843,93.74 c -70.43029,0.01 -408.26191,0.014 -359.24082,0.016 10.7312,5e-4 54.19372,7e-4 107.12395,7e-4 l -95.6242,-94.0433 -16.49977,4e-4"
         inkscape:connector-curvature="0"
         style="fill:none;stroke:#ffbb33;stroke-width:20;stroke-linecap:round" />
      <text
         x="-260.81305"
         y="-1605.5934"
         font-size="3.1059px"
         style="font-size:12.1535px;line-height:1.25;font-family:sans-serif;font-variant-ligatures:normal;font-variant-caps:normal;font-variant-numeric:normal;fill:#000000;stroke-width:1.1394"
         xml:space="preserve"
         id="text1191-97-9"
         transform="scale(-1)"><tspan
           style="font-size:16px;stroke-width:1.1394"
           x="-260.81305"
           y="-1605.5934"
           id="tspan1189-3-3"
           shvAlarmPosition="right">Route2</tspan></text>
    </g>
    <g
       style="display:inline"
       transform="matrix(-0.26458334,0,0,-0.26458334,290.27927,494.01069)"
       shvPath="zone/A/segment/S02"
       id="g1496-7">
      <text
         id="text1191-7-3-7"
         xml:space="preserve"
         style="font-style:normal;font-variant:normal;font-weight:normal;font-stretch:normal;font-size:16px;line-height:1.25;font-family:sans-serif;-inkscape-font-specification:'sans-serif, Normal';font-variant-ligatures:normal;font-variant-caps:normal;font-variant-numeric:normal;font-variant-east-asian:normal;fill:#000000;stroke-width:1.1394"
         font-size="3.1059px"
         y="-1478.179"
         x="-12.835899"
         transform="scale(-1)"><tspan
           shvAlarmPosition="right"
           id="tspan1189-5-1-4"
           y="-1478.179"
           x="-12.835899"
           style="font-style:normal;font-variant:normal;font-weight:normal;font-stretch:normal;font-size:16px;font-family:sans-serif;-inkscape-font-specification:'sans-serif, Normal';font-variant-ligatures:normal;font-variant-caps:normal;font-variant-numeric:normal;font-variant-east-asian:normal;stroke-width:1.1394">S02</tspan></text>
      <path
         sodipodi:nodetypes="cc"
         style="fill:none;stroke:#ff0000;stroke-width:3.92632;stroke-linecap:round"
         inkscape:connector-curvature="0"
         d="m 72.717692,1465.0749 -213.572222,0.5876"
         id="path855-3-6"
         chid="segment" />
    </g>
    <g
       id="g1496-7-4"
       shvPath="zone/A/segment/S03"
       transform="matrix(-0.26458334,0,0,-0.26458334,286.76532,467.93104)"
       style="display:inline">
      <text
         x="52.05954"
         y="-1268.0875"
         font-size="3.1059px"
         style="font-style:normal;font-variant:normal;font-weight:normal;font-stretch:normal;font-size:16px;line-height:1.25;font-family:sans-serif;-inkscape-font-specification:'sans-serif, Normal';font-variant-ligatures:normal;font-variant-caps:normal;font-variant-numeric:normal;font-variant-east-asian:normal;fill:#000000;stroke-width:1.1394"
         xml:space="preserve"
         id="text1191-7-3-7-2"
         transform="scale(-1)"><tspan
           style="font-style:normal;font-variant:normal;font-weight:normal;font-stretch:normal;font-size:16px;font-family:sans-serif;-inkscape-font-specification:'sans-serif, Normal';font-variant-ligatures:normal;font-variant-caps:normal;font-variant-numeric:normal;font-variant-east-asian:normal;stroke-width:1.1394"
           x="52.05954"
           y="-1268.0875"
           id="tspan1189-5-1-4-8"
           shvAlarmPosition="right">S03</tspan></text>
      <path
         chid="segment"
         id="path855-3-6-1"
         d="m -7.3540915,1250.7661 -88.1484295,87.74 -60.461839,-0.025"
         inkscape:connector-curvature="0"
         style="fill:none;stroke:#ff0000;stroke-width:3.92632;stroke-linecap:round"
         sodipodi:nodetypes="ccc" />
    </g>
    <g
       style="display:inline"
       transform="matrix(-0.26458335,0,0,-0.26458335,468.42438,574.1222)"
       shvPath="zone/A/route/Route1"
       id="g2169-3-0">
      <path
         style="fill:none;stroke:#ffbb33;stroke-width:20;stroke-linecap:round"
         inkscape:connector-curvature="0"
         d="m 745.72242,1753.8589 -148.63953,4e-4 c -70.43029,0.01 -408.26191,0.014 -359.24082,0.016 10.7312,5e-4 54.19372,7e-4 107.12395,7e-4 l -95.6242,-94.0433 -16.49977,4e-4"
         id="path855-1-0"
         chid="route"
         sodipodi:nodetypes="ccsccc" />
      <text
         id="text1191-97-9-9"
         xml:space="preserve"
         style="font-size:12.1535px;line-height:1.25;font-family:sans-serif;font-variant-ligatures:normal;font-variant-caps:normal;font-variant-numeric:normal;fill:#000000;stroke-width:1.1394"
         font-size="3.1059px"
         y="-1786.963"
         x="-262.93805"
         transform="scale(-1)"><tspan
           shvAlarmPosition="right"
           id="tspan1189-3-3-5"
           y="-1786.963"
           x="-262.93805"
           style="font-size:16px;stroke-width:1.1394">Route1</tspan></text>
    </g>
  </g>
  <g
     inkscape:groupmode="layer"
     id="layer7"
     inkscape:label="heating"
     transform="translate(-89.309259,7.9192598)">
    <g
       style="display:inline"
       id="g2617-1"
       shvPath="heating/group/GR_SSZ_I/contactor/K2/rod/TSM01_HR_R"
       transform="matrix(-0.26458334,0,0,-0.26458334,418.82519,315.16833)">
      <path
         style="fill:none;stroke:#000000;stroke-width:1.03531"
         inkscape:connector-curvature="0"
         d="m 710.24236,991.63865 v 3.913 h 58.69562 v -3.913 z"
         id="path1133-0"
         chid="rod" />
      <text
         id="text1191-7-3-6-9-8"
         xml:space="preserve"
         style="font-style:normal;font-variant:normal;font-weight:normal;font-stretch:normal;font-size:16px;line-height:1.25;font-family:sans-serif;-inkscape-font-specification:'sans-serif, Normal';font-variant-ligatures:normal;font-variant-caps:normal;font-variant-numeric:normal;font-variant-east-asian:normal;fill:#000000;stroke-width:1.1394"
         font-size="3.1059px"
         y="-973.59387"
         x="-829.32843"
         transform="scale(-1)"><tspan
           shvAlarmPosition="right"
           id="tspan1189-5-1-1-2-8"
           y="-973.59387"
           x="-829.32843"
           style="font-style:normal;font-variant:normal;font-weight:normal;font-stretch:normal;font-size:16px;font-family:sans-serif;-inkscape-font-specification:'sans-serif, Normal';font-variant-ligatures:normal;font-variant-caps:normal;font-variant-numeric:normal;font-variant-east-asian:normal;stroke-width:1.1394">TSM01_HR_R</tspan></text>
    </g>
    <g
       transform="matrix(-0.26458334,0,0,-0.26458334,408.73674,334.51325)"
       shvPath="heating/group/GR_SSZ_I/contactor/K2/rod/TSM01_HR_L"
       id="g2617-7-5"
       style="display:inline">
      <path
         chid="rod"
         id="path1133-7-5"
         d="m 672.11273,1115.7968 v 3.913 h 58.69562 v -3.913 z"
         inkscape:connector-curvature="0"
         style="fill:none;stroke:#000000;stroke-width:1.03531" />
      <text
         x="-763.37067"
         y="-1128.3854"
         font-size="3.1059px"
         style="font-style:normal;font-variant:normal;font-weight:normal;font-stretch:normal;font-size:16px;line-height:1.25;font-family:sans-serif;-inkscape-font-specification:'sans-serif, Normal';font-variant-ligatures:normal;font-variant-caps:normal;font-variant-numeric:normal;font-variant-east-asian:normal;fill:#000000;stroke-width:1.1394"
         xml:space="preserve"
         id="text1191-7-3-6-9-1-7"
         transform="scale(-1)"><tspan
           style="font-style:normal;font-variant:normal;font-weight:normal;font-stretch:normal;font-size:16px;font-family:sans-serif;-inkscape-font-specification:'sans-serif, Normal';font-variant-ligatures:normal;font-variant-caps:normal;font-variant-numeric:normal;font-variant-east-asian:normal;stroke-width:1.1394"
           x="-763.37067"
           y="-1128.3854"
           id="tspan1189-5-1-1-2-7-9"
           shvAlarmPosition="right">TSM01_HR_L</tspan></text>
    </g>
    <g
       transform="matrix(-0.26458334,0,0,-0.26458334,368.34933,315.40948)"
       shvPath="heating/group/GR_SSZ_I/contactor/K2/rod/TSH01_HR_L"
       id="g2617-1-9"
       style="display:inline">
      <path
         chid="rod"
         id="path1133-0-8"
         d="m 710.24236,991.63865 v 3.913 h 58.69562 v -3.913 z"
         inkscape:connector-curvature="0"
         style="fill:none;stroke:#000000;stroke-width:1.03531" />
      <text
         x="-779.71906"
         y="-973.59387"
         font-size="3.1059px"
         style="font-style:normal;font-variant:normal;font-weight:normal;font-stretch:normal;font-size:16px;line-height:1.25;font-family:sans-serif;-inkscape-font-specification:'sans-serif, Normal';font-variant-ligatures:normal;font-variant-caps:normal;font-variant-numeric:normal;font-variant-east-asian:normal;fill:#000000;stroke-width:1.1394"
         xml:space="preserve"
         id="text1191-7-3-6-9-8-4"
         transform="scale(-1)"><tspan
           style="font-style:normal;font-variant:normal;font-weight:normal;font-stretch:normal;font-size:16px;font-family:sans-serif;-inkscape-font-specification:'sans-serif, Normal';font-variant-ligatures:normal;font-variant-caps:normal;font-variant-numeric:normal;font-variant-east-asian:normal;stroke-width:1.1394"
           x="-779.71906"
           y="-973.59387"
           id="tspan1189-5-1-1-2-8-8"
           shvAlarmPosition="right">TSH01_HR_L</tspan></text>
    </g>
    <g
       style="display:inline"
       id="g2617-7-5-3"
       shvPath="heating/group/GR_SSZ_I/contactor/K2/rod/TSH01_HR_R"
       transform="matrix(-0.26458334,0,0,-0.26458334,358.26087,334.7544)">
      <path
         style="fill:none;stroke:#000000;stroke-width:1.03531"
         inkscape:connector-curvature="0"
         d="m 672.11273,1115.7968 v 3.913 h 58.69562 v -3.913 z"
         id="path1133-7-5-3"
         chid="rod" />
      <text
         id="text1191-7-3-6-9-1-7-0"
         xml:space="preserve"
         style="font-style:normal;font-variant:normal;font-weight:normal;font-stretch:normal;font-size:16px;line-height:1.25;font-family:sans-serif;-inkscape-font-specification:'sans-serif, Normal';font-variant-ligatures:normal;font-variant-caps:normal;font-variant-numeric:normal;font-variant-east-asian:normal;fill:#000000;stroke-width:1.1394"
         font-size="3.1059px"
         y="-1129.2964"
         x="-743.4176"
         transform="scale(-1)"><tspan
           shvAlarmPosition="right"
           id="tspan1189-5-1-1-2-7-9-5"
           y="-1129.2964"
           x="-743.4176"
           style="font-style:normal;font-variant:normal;font-weight:normal;font-stretch:normal;font-size:16px;font-family:sans-serif;-inkscape-font-specification:'sans-serif, Normal';font-variant-ligatures:normal;font-variant-caps:normal;font-variant-numeric:normal;font-variant-east-asian:normal;stroke-width:1.1394">TSH01_HR_R</tspan></text>
    </g>
    <g
       id="g4446"
       transform="translate(26.951917,-205.09966)"
       shvPath="zone/A"
       shvVisuType="zoneStatusText"
       style="display:inline;stroke-width:14.2848">
      <text
         xml:space="preserve"
         style="font-style:normal;font-variant:normal;font-weight:normal;font-stretch:normal;font-size:4.37095px;line-height:1.25;font-family:sans-serif;font-variant-ligatures:normal;font-variant-position:normal;font-variant-caps:normal;font-variant-numeric:normal;font-variant-alternates:normal;font-feature-settings:normal;text-indent:0;text-align:start;text-decoration:none;text-decoration-line:none;text-decoration-style:solid;text-decoration-color:#000000;letter-spacing:normal;word-spacing:normal;text-transform:none;writing-mode:lr-tb;direction:ltr;text-orientation:mixed;dominant-baseline:auto;baseline-shift:baseline;text-anchor:start;white-space:normal;shape-padding:0;opacity:1;vector-effect:none;fill:#4d4d4d;fill-opacity:1;stroke:none;stroke-width:0.301466;stroke-linecap:butt;stroke-linejoin:miter;stroke-miterlimit:4;stroke-dasharray:none;stroke-dashoffset:0;stroke-opacity:1"
         x="64.806824"
         y="203.02621"
         id="text164-4"><tspan
           sodipodi:role="line"
           id="tspan162-9"
           x="64.806824"
           y="203.02621"
           style="stroke-width:0.301466">Zone state:</tspan></text>
      <text
         xml:space="preserve"
         style="font-style:normal;font-variant:normal;font-weight:bold;font-stretch:normal;font-size:4.23333px;line-height:1.25;font-family:sans-serif;-inkscape-font-specification:'sans-serif Bold';letter-spacing:0px;word-spacing:0px;fill:#000000;fill-opacity:1;stroke:none;stroke-width:0.264583"
         x="93.209305"
         y="203.04257"
         id="text164-3-5"><tspan
           sodipodi:role="line"
           id="tspan162-6-7"
           x="93.209305"
           y="203.04257"
           chid="statusText"
           style="stroke-width:0.264583"
           shvAlarmPosition="left">Undefined</tspan></text>
    </g>
  </g>
  <g
     inkscape:groupmode="layer"
     id="layer9"
     inkscape:label="segment"
     transform="translate(-236.04554,-56.502489)">
    <g
       id="g1496-6-2"
       shvPath="zone/A/segment/S01"
       transform="matrix(-0.26458334,0,0,-0.26458334,412.59031,528.89849)"
       style="display:inline">
      <text
         x="-121.92101"
         y="-1498.516"
         font-size="3.1059px"
         style="font-style:normal;font-variant:normal;font-weight:normal;font-stretch:normal;font-size:16px;line-height:1.25;font-family:sans-serif;-inkscape-font-specification:'sans-serif, Normal';font-variant-ligatures:normal;font-variant-caps:normal;font-variant-numeric:normal;font-variant-east-asian:normal;fill:#000000;stroke-width:1.1394"
         xml:space="preserve"
         id="text1191-7-3-2-8"
         transform="scale(-1)"><tspan
           style="font-style:normal;font-variant:normal;font-weight:normal;font-stretch:normal;font-size:16px;font-family:sans-serif;-inkscape-font-specification:'sans-serif, Normal';font-variant-ligatures:normal;font-variant-caps:normal;font-variant-numeric:normal;font-variant-east-asian:normal;stroke-width:1.1394"
           x="-121.92101"
           y="-1498.516"
           id="tspan1189-5-1-64-4"
           shvAlarmPosition="right">S01</tspan></text>
      <path
         chid="segment"
         id="path855-3-0-5"
         d="m 319.59465,1568.9088 c -70.1651,0 -323.7924235,0 -295.132861,0 7.959082,0 57.992411,0 115.133041,0 l -95.279411,-94.0003 -22.499769,-2e-4"
         inkscape:connector-curvature="0"
         style="fill:none;stroke:#ff0000;stroke-width:3.92632;stroke-linecap:round"
         sodipodi:nodetypes="csccc" />
    </g>
  </g>
  <g
     inkscape:groupmode="layer"
     id="layer8"
     inkscape:label="TC"
     transform="translate(-89.309259,7.9192598)">
    <g
       style="display:inline"
       transform="matrix(-0.26458334,0,0,-0.26458334,376.98716,189.07824)"
       id="g1006-6"
       shvPath="tc/TC02">
      <text
         x="-697.92847"
         y="-569.1618"
         font-size="3.1059px"
         style="font-style:normal;font-variant:normal;font-weight:normal;font-stretch:normal;font-size:16px;line-height:1.25;font-family:sans-serif;-inkscape-font-specification:'sans-serif, Normal';font-variant-ligatures:normal;font-variant-caps:normal;font-variant-numeric:normal;font-variant-east-asian:normal;fill:#000000;stroke-width:1.1394"
         xml:space="preserve"
         id="text955-3-9"
         transform="scale(-1)"><tspan
           shvAlarmPosition="right"
           x="-697.92847"
           y="-569.1618"
           font-size="3.1059px"
           style="font-style:normal;font-variant:normal;font-weight:normal;font-stretch:normal;font-size:16px;font-family:sans-serif;-inkscape-font-specification:'sans-serif, Normal';font-variant-ligatures:normal;font-variant-caps:normal;font-variant-numeric:normal;font-variant-east-asian:normal;stroke-width:1.1394"
           id="tspan953-6-5">TC02</tspan></text>
      <path
         sodipodi:nodetypes="ccccc"
         chid="tc"
         style="fill:#ffcc00;fill-opacity:0.241265;stroke:#bf9c0b;stroke-width:3;stroke-linejoin:bevel;stroke-miterlimit:4;stroke-dasharray:none;stroke-opacity:1"
         inkscape:connector-curvature="0"
         id="path887-8"
         d="M 738.88926,561.20969 V 522.07926 H 615.88911 v 39.13043 z" />
    </g>
    <g
       shvPath="tc/TC03"
       id="g1006-6-1"
       transform="matrix(-0.26458334,0,0,-0.26458334,331.97344,189.07823)"
       style="display:inline">
      <text
         id="text955-3-9-1"
         xml:space="preserve"
         style="font-style:normal;font-variant:normal;font-weight:normal;font-stretch:normal;font-size:16px;line-height:1.25;font-family:sans-serif;-inkscape-font-specification:'sans-serif, Normal';font-variant-ligatures:normal;font-variant-caps:normal;font-variant-numeric:normal;font-variant-east-asian:normal;fill:#000000;stroke-width:1.1394"
         font-size="3.1059px"
         y="-510.57483"
         x="-747.05841"
         transform="scale(-1)"><tspan
           id="tspan953-6-5-5"
           style="font-style:normal;font-variant:normal;font-weight:normal;font-stretch:normal;font-size:16px;font-family:sans-serif;-inkscape-font-specification:'sans-serif, Normal';font-variant-ligatures:normal;font-variant-caps:normal;font-variant-numeric:normal;font-variant-east-asian:normal;stroke-width:1.1394"
           font-size="3.1059px"
           y="-510.57483"
           x="-747.05841"
           shvAlarmPosition="right">TC03</tspan></text>
      <path
         d="m 650.88926,561.20969 36,-39.13043 h -71.00015 v 39.13043 z"
         id="path887-8-1"
         inkscape:connector-curvature="0"
         style="fill:#ffcc00;fill-opacity:0.241265;stroke:#bf9c0b;stroke-width:3;stroke-linejoin:bevel;stroke-miterlimit:4;stroke-dasharray:none;stroke-opacity:1"
         chid="tc"
         sodipodi:nodetypes="ccccc" />
    </g>
    <g
       style="display:inline"
       transform="matrix(-0.26458334,0,0,-0.26458334,451.67792,199.27649)"
       id="g1006-6-1-3"
       shvPath="tc/TC01">
      <text
         x="-773.42908"
         y="-545.11945"
         font-size="3.1059px"
         style="font-style:normal;font-variant:normal;font-weight:normal;font-stretch:normal;font-size:16px;line-height:1.25;font-family:sans-serif;-inkscape-font-specification:'sans-serif, Normal';font-variant-ligatures:normal;font-variant-caps:normal;font-variant-numeric:normal;font-variant-east-asian:normal;fill:#000000;stroke-width:1.1394"
         xml:space="preserve"
         id="text955-3-9-1-5"
         transform="scale(-1)"><tspan
           shvAlarmPosition="right"
           x="-773.42908"
           y="-545.11945"
           font-size="3.1059px"
           style="font-style:normal;font-variant:normal;font-weight:normal;font-stretch:normal;font-size:16px;font-family:sans-serif;-inkscape-font-specification:'sans-serif, Normal';font-variant-ligatures:normal;font-variant-caps:normal;font-variant-numeric:normal;font-variant-east-asian:normal;stroke-width:1.1394"
           id="tspan953-6-5-5-6">TC01</tspan></text>
      <path
         sodipodi:nodetypes="ccccc"
         chid="tc"
         style="fill:#ffcc00;fill-opacity:0.241265;stroke:#bf9c0b;stroke-width:3;stroke-linejoin:bevel;stroke-miterlimit:4;stroke-dasharray:none;stroke-opacity:1"
         inkscape:connector-curvature="0"
         id="path887-8-1-4"
         d="m 815.44327,600.66569 -36,-39.13043 h 71.00015 v 39.13043 z" />
    </g>
  </g>
  <g
     inkscape:groupmode="layer"
     id="layer6"
     inkscape:label="pme"
     transform="translate(-89.309259,7.9192598)">
    <g
       style="display:inline"
       id="g1247"
       transform="matrix(-0.26458334,0,0,-0.26458334,415.14128,238.01421)">
      <g
         id="g1238"
         transform="matrix(0,1,1,0,55.696495,13.269022)">
        <path
           chid="box"
           style="fill:#121ea6;fill-opacity:0.44758;stroke:#000000;stroke-width:1.1394"
           inkscape:connector-curvature="0"
           id="path1165"
           d="m 694.67651,672.65568 h 39.13043 v 26.66231 h -39.13043 z" />
      </g>
      <text
         id="text1191-7-3-6-7"
         xml:space="preserve"
         style="font-style:normal;font-variant:normal;font-weight:normal;font-stretch:normal;font-size:16px;line-height:1.25;font-family:sans-serif;-inkscape-font-specification:'sans-serif, Normal';font-variant-ligatures:normal;font-variant-caps:normal;font-variant-numeric:normal;font-variant-east-asian:normal;fill:#000000;stroke-width:1.1394"
         font-size="3.1059px"
         y="-663.93665"
         x="-815.40521"
         transform="scale(-1)"><tspan
           sodipodi:role="line"
           id="tspan1472"
           x="-815.40521"
           y="-663.93665">TSM01</tspan></text>
    </g>
    <g
       style="display:inline"
       transform="matrix(-0.26458334,0,0,-0.26458334,274.69512,365.76563)"
       shvPath="pme/TSH01"
       id="g1552">
      <text
         x="-425.75009"
         y="-1146.7766"
         font-size="3.1059px"
         style="font-style:normal;font-variant:normal;font-weight:normal;font-stretch:normal;font-size:16px;line-height:1.25;font-family:sans-serif;-inkscape-font-specification:'sans-serif, Normal';font-variant-ligatures:normal;font-variant-caps:normal;font-variant-numeric:normal;font-variant-east-asian:normal;fill:#000000;stroke-width:1.1394"
         xml:space="preserve"
         id="text1191-7-3-6"
         transform="scale(-1)"><tspan
           style="font-style:normal;font-variant:normal;font-weight:normal;font-stretch:normal;font-size:16px;font-family:sans-serif;-inkscape-font-specification:'sans-serif, Normal';font-variant-ligatures:normal;font-variant-caps:normal;font-variant-numeric:normal;font-variant-east-asian:normal;stroke-width:1.1394"
           x="-425.75009"
           y="-1146.7766"
           id="tspan1189-5-1-1"
           shvAlarmPosition="right">TSH01</tspan></text>
      <g
         id="g732"
         transform="rotate(90,535.35339,1180.6054)">
        <path
           d="m 544.6221,1320.5547 h 39.13044 v 39.1304 h -39.13043 z"
           id="path1017-4"
           inkscape:connector-curvature="0"
           style="fill:#28a638;fill-opacity:0.44758;stroke:#000000;stroke-width:1.03531"
           chid="box" />
        <path
           d="M 564.60085,1296.4871 508.89084,1240.688"
           id="path1019-5"
           inkscape:connector-curvature="0"
           style="fill:none;stroke:#ff33ff;stroke-width:13.6957;stroke-linecap:round"
           chid="posLeft" />
        <path
           d="m 564.60085,1296.4871 v -74.4802"
           id="path1021-0"
           inkscape:connector-curvature="0"
           style="fill:none;stroke:#ff33ff;stroke-width:13.6957;stroke-linecap:round"
           chid="posRight" />
        <rect
           transform="rotate(-90)"
           chid="leverInSocket"
           style="display:inline;fill:#293cfa;fill-opacity:1;stroke:none;stroke-width:2.34266;stroke-linecap:square;stroke-miterlimit:4;stroke-dasharray:none;stroke-opacity:1"
           id="rect15117-8-3"
           width="20.234634"
           height="20.44541"
           x="-1350.2372"
           y="553.9646" />
        <g
           chid="motorMoving"
           id="g1531"
           transform="translate(-35.68884,21.583777)">
          <circle
             r="15.1"
             style="opacity:1;fill:#ff6600;fill-opacity:1;fill-rule:nonzero;stroke:#000000;stroke-width:1.8;stroke-linecap:round;stroke-linejoin:round;stroke-miterlimit:4;stroke-dasharray:none;stroke-dashoffset:0;stroke-opacity:1;paint-order:stroke fill markers"
             id="path1511"
             cx="599.87616"
             cy="1318.5361" />
          <path
             inkscape:connector-curvature="0"
             id="path693"
             style="fill:#000000;fill-opacity:1;stroke:#000000;stroke-width:0.5;stroke-miterlimit:4;stroke-dasharray:none;stroke-opacity:1"
             d="m 607.65223,1325.6506 v -3.1354 l -10.5834,-3.9687 10.5834,-3.9896 v -3.1354 h -15.5521 v 2.0521 h 13.6562 l -10.6667,4.0104 v 2.1146 l 10.6667,4.0104 h -13.6562 v 2.0416 z" />
        </g>
      </g>
    </g>
  </g>
</svg>
